{
  "Entries": [
    {
      "RequestUri": "https://FakeHost.net/devices/IdentityLifecycleDevice1709111919?api-version=2020-03-13",
      "RequestMethod": "PUT",
      "RequestHeaders": {
        "Authorization": "Sanitized",
        "Content-Length": "48",
        "Content-Type": "application/json",
        "If-Match": "\u0022\u0022",
        "User-Agent": [
          "azsdk-net-Iot.Hub.Service/1.0.0-dev.20200820.1",
          "(.NET Core 4.6.28516.03; Microsoft Windows 10.0.18363 )"
        ],
        "x-ms-client-request-id": "dfb7aeb652cc3dbf58e5c3303ed95a1d",
        "x-ms-return-client-request-id": "true"
      },
      "RequestBody": {
        "deviceId": "IdentityLifecycleDevice1709111919"
      },
      "StatusCode": 200,
      "ResponseHeaders": {
        "Content-Length": "565",
        "Content-Type": "application/json; charset=utf-8",
        "Date": "Thu, 20 Aug 2020 21:44:52 GMT",
        "ETag": "\u0022NjkxMzM4ODU1\u0022",
        "Server": "Microsoft-HTTPAPI/2.0",
        "Vary": "Origin",
        "x-ms-request-id": "53c0314a-a91d-4f65-ae19-0be1e6161a80"
      },
      "ResponseBody": {
        "deviceId": "IdentityLifecycleDevice1709111919",
        "generationId": "637335566928522792",
        "etag": "NjkxMzM4ODU1",
        "connectionState": "Disconnected",
        "status": "enabled",
        "statusReason": null,
        "connectionStateUpdatedTime": "0001-01-01T00:00:00",
        "statusUpdatedTime": "0001-01-01T00:00:00",
        "lastActivityTime": "0001-01-01T00:00:00",
        "cloudToDeviceMessageCount": 0,
        "authentication": {
          "symmetricKey": {
            "primaryKey": "Sanitized",
            "secondaryKey": "Sanitized"
          },
          "x509Thumbprint": {
            "primaryThumbprint": null,
            "secondaryThumbprint": null
          },
          "type": "sas"
        },
        "capabilities": {
          "iotEdge": false
        },
        "parentScopes": []
      }
    },
    {
      "RequestUri": "https://FakeHost.net/devices/IdentityLifecycleDevice1709111919/modules/IdentityLifecycleModule81781974?api-version=2020-03-13",
      "RequestMethod": "PUT",
      "RequestHeaders": {
        "Authorization": "Sanitized",
        "Content-Length": "93",
        "Content-Type": "application/json",
        "If-Match": "\u0022\u0022",
        "User-Agent": [
          "azsdk-net-Iot.Hub.Service/1.0.0-dev.20200820.1",
          "(.NET Core 4.6.28516.03; Microsoft Windows 10.0.18363 )"
        ],
        "x-ms-client-request-id": "c7bbbad8d1ee17dbc3baa944fd890541",
        "x-ms-return-client-request-id": "true"
      },
      "RequestBody": {
        "moduleId": "IdentityLifecycleModule81781974",
        "deviceId": "IdentityLifecycleDevice1709111919"
      },
      "StatusCode": 200,
      "ResponseHeaders": {
        "Content-Length": "495",
        "Content-Type": "application/json; charset=utf-8",
        "Date": "Thu, 20 Aug 2020 21:44:52 GMT",
        "Server": "Microsoft-HTTPAPI/2.0",
        "Vary": "Origin",
        "x-ms-request-id": "afcf6a97-3829-49ca-8a00-1cef66d0506a"
      },
      "ResponseBody": {
        "moduleId": "IdentityLifecycleModule81781974",
        "managedBy": null,
        "deviceId": "IdentityLifecycleDevice1709111919",
        "generationId": "637335566928823006",
        "etag": "OTAwOTE2ODcz",
        "connectionState": "Disconnected",
        "connectionStateUpdatedTime": "0001-01-01T00:00:00",
        "lastActivityTime": "0001-01-01T00:00:00",
        "cloudToDeviceMessageCount": 0,
        "authentication": {
          "symmetricKey": {
            "primaryKey": "Sanitized",
            "secondaryKey": "Sanitized"
          },
          "x509Thumbprint": {
            "primaryThumbprint": null,
            "secondaryThumbprint": null
          },
          "type": "sas"
        }
      }
    },
    {
      "RequestUri": "https://FakeHost.net/devices/IdentityLifecycleDevice1709111919/modules/IdentityLifecycleModule81781974?api-version=2020-03-13",
      "RequestMethod": "GET",
      "RequestHeaders": {
        "Authorization": "Sanitized",
        "User-Agent": [
          "azsdk-net-Iot.Hub.Service/1.0.0-dev.20200820.1",
          "(.NET Core 4.6.28516.03; Microsoft Windows 10.0.18363 )"
        ],
        "x-ms-client-request-id": "f659d6afb677a38bb1436ac4c11e648c",
        "x-ms-return-client-request-id": "true"
      },
      "RequestBody": null,
      "StatusCode": 200,
      "ResponseHeaders": {
        "Content-Length": "497",
        "Content-Type": "application/json; charset=utf-8",
        "Date": "Thu, 20 Aug 2020 21:44:52 GMT",
        "Server": "Microsoft-HTTPAPI/2.0",
        "Vary": "Origin",
        "x-ms-request-id": "10d0b29b-28a1-456a-8783-0284e4e08b78"
      },
      "ResponseBody": {
        "moduleId": "IdentityLifecycleModule81781974",
        "managedBy": null,
        "deviceId": "IdentityLifecycleDevice1709111919",
        "generationId": "637335566928823006",
        "etag": "OTAwOTE2ODcz",
        "connectionState": "Disconnected",
        "connectionStateUpdatedTime": "0001-01-01T00:00:00Z",
        "lastActivityTime": "0001-01-01T00:00:00Z",
        "cloudToDeviceMessageCount": 0,
        "authentication": {
          "symmetricKey": {
            "primaryKey": "Sanitized",
            "secondaryKey": "Sanitized"
          },
          "x509Thumbprint": {
            "primaryThumbprint": null,
            "secondaryThumbprint": null
          },
          "type": "sas"
        }
      }
    },
    {
      "RequestUri": "https://FakeHost.net/devices/IdentityLifecycleDevice1709111919/modules/IdentityLifecycleModule81781974?api-version=2020-03-13",
      "RequestMethod": "PUT",
      "RequestHeaders": {
        "Authorization": "Sanitized",
        "Content-Length": "460",
        "Content-Type": "application/json",
        "If-Match": "*",
        "User-Agent": [
          "azsdk-net-Iot.Hub.Service/1.0.0-dev.20200820.1",
          "(.NET Core 4.6.28516.03; Microsoft Windows 10.0.18363 )"
        ],
        "x-ms-client-request-id": "5ef58da1a845e5e7d39f1c12a87b40ce",
        "x-ms-return-client-request-id": "true"
      },
      "RequestBody": {
        "moduleId": "IdentityLifecycleModule81781974",
        "managedBy": "SomeChangedValue",
        "deviceId": "IdentityLifecycleDevice1709111919",
        "generationId": "637335566928823006",
        "etag": "OTAwOTE2ODcz",
        "connectionState": "Disconnected",
        "connectionStateUpdatedTime": "0001-01-01T00:00:00Z",
        "lastActivityTime": "0001-01-01T00:00:00Z",
        "cloudToDeviceMessageCount": 0,
        "authentication": {
          "symmetricKey": {
            "primaryKey": "Sanitized",
            "secondaryKey": "Sanitized"
          },
          "x509Thumbprint": {},
          "type": "sas"
        }
      },
      "StatusCode": 200,
      "ResponseHeaders": {
        "Content-Length": "511",
        "Content-Type": "application/json; charset=utf-8",
        "Date": "Thu, 20 Aug 2020 21:44:52 GMT",
        "Server": "Microsoft-HTTPAPI/2.0",
        "Vary": "Origin",
        "x-ms-request-id": "29a56f4d-976b-4c51-acfc-efe63a996c57"
      },
      "ResponseBody": {
        "moduleId": "IdentityLifecycleModule81781974",
        "managedBy": "SomeChangedValue",
        "deviceId": "IdentityLifecycleDevice1709111919",
        "generationId": "637335566928823006",
        "etag": "OTAwOTE2ODc0",
        "connectionState": "Disconnected",
        "connectionStateUpdatedTime": "0001-01-01T00:00:00Z",
        "lastActivityTime": "0001-01-01T00:00:00Z",
        "cloudToDeviceMessageCount": 0,
        "authentication": {
          "symmetricKey": {
            "primaryKey": "Sanitized",
            "secondaryKey": "Sanitized"
          },
          "x509Thumbprint": {
            "primaryThumbprint": null,
            "secondaryThumbprint": null
          },
          "type": "sas"
        }
      }
    },
    {
      "RequestUri": "https://FakeHost.net/devices/IdentityLifecycleDevice1709111919?api-version=2020-03-13",
      "RequestMethod": "DELETE",
      "RequestHeaders": {
        "Authorization": "Sanitized",
        "If-Match": "*",
        "User-Agent": [
          "azsdk-net-Iot.Hub.Service/1.0.0-dev.20200820.1",
          "(.NET Core 4.6.28516.03; Microsoft Windows 10.0.18363 )"
        ],
        "x-ms-client-request-id": "678181df648021a62e1815aa661656a5",
        "x-ms-return-client-request-id": "true"
      },
      "RequestBody": null,
      "StatusCode": 204,
      "ResponseHeaders": {
        "Content-Length": "0",
        "Date": "Thu, 20 Aug 2020 21:44:52 GMT",
        "Server": "Microsoft-HTTPAPI/2.0",
        "Vary": "Origin",
        "x-ms-request-id": "f027f597-6314-4668-ba9e-1ec842d7386e"
      },
      "ResponseBody": []
    }
  ],
  "Variables": {
    "IOT_HUB_CONNECTION_STRING": "HostName=FakeHost.net;SharedAccessKeyName=iothubowner;SharedAccessKey=Kg==",
    "RandomSeed": "902369367"
  }
}