{
  "Entries": [
    {
      "RequestUri": "https://seanmccdfsca2.blob.core.windows.net/test-filesystem-1bf03649-8cc6-5d20-b52d-e601c9733bb7?restype=container",
      "RequestMethod": "PUT",
      "RequestHeaders": {
        "Authorization": "Sanitized",
        "traceparent": "00-ee91a51020bc9d4c8e2067921dd002a3-0e4f71fa459b1442-00",
        "User-Agent": [
          "azsdk-net-Storage.Files.DataLake/12.3.0-dev.20200702.1",
          "(.NET Core 4.6.28801.04; Microsoft Windows 10.0.18362 )"
        ],
        "x-ms-blob-public-access": "container",
        "x-ms-client-request-id": "63f512fc-7d18-9413-4829-ca59c4a028f9",
        "x-ms-date": "Thu, 02 Jul 2020 21:06:58 GMT",
        "x-ms-return-client-request-id": "true",
        "x-ms-version": "2019-12-12"
      },
      "RequestBody": null,
      "StatusCode": 201,
      "ResponseHeaders": {
        "Content-Length": "0",
        "Date": "Thu, 02 Jul 2020 21:06:58 GMT",
        "ETag": "\u00220x8D81ECBDBCB73D2\u0022",
        "Last-Modified": "Thu, 02 Jul 2020 21:06:58 GMT",
        "Server": [
          "Windows-Azure-Blob/1.0",
          "Microsoft-HTTPAPI/2.0"
        ],
        "x-ms-client-request-id": "63f512fc-7d18-9413-4829-ca59c4a028f9",
        "x-ms-request-id": "b23519e6-401e-0096-22b4-509853000000",
        "x-ms-version": "2019-12-12"
      },
      "ResponseBody": []
    },
    {
      "RequestUri": "https://seanmccdfsca2.dfs.core.windows.net/test-filesystem-1bf03649-8cc6-5d20-b52d-e601c9733bb7/directory?resource=directory",
      "RequestMethod": "PUT",
      "RequestHeaders": {
        "Authorization": "Sanitized",
        "traceparent": "00-e6a5df466d25be4da9e5512a9f7a8773-4b83caef9ab2d74d-00",
        "User-Agent": [
          "azsdk-net-Storage.Files.DataLake/12.3.0-dev.20200702.1",
          "(.NET Core 4.6.28801.04; Microsoft Windows 10.0.18362 )"
        ],
        "x-ms-client-request-id": "b6047d4a-d77d-e09e-5ef7-0a707f0e4222",
        "x-ms-date": "Thu, 02 Jul 2020 21:06:58 GMT",
        "x-ms-return-client-request-id": "true",
        "x-ms-version": "2019-12-12"
      },
      "RequestBody": null,
      "StatusCode": 201,
      "ResponseHeaders": {
        "Content-Length": "0",
        "Date": "Thu, 02 Jul 2020 21:06:58 GMT",
        "ETag": "\u00220x8D81ECBDBEB355F\u0022",
        "Last-Modified": "Thu, 02 Jul 2020 21:06:58 GMT",
        "Server": [
          "Windows-Azure-HDFS/1.0",
          "Microsoft-HTTPAPI/2.0"
        ],
        "x-ms-client-request-id": "b6047d4a-d77d-e09e-5ef7-0a707f0e4222",
        "x-ms-request-id": "14af8ec8-701f-0069-5bb4-50a8ce000000",
        "x-ms-version": "2019-12-12"
      },
      "ResponseBody": []
    },
    {
      "RequestUri": "https://seanmccdfsca2.dfs.core.windows.net/test-filesystem-1bf03649-8cc6-5d20-b52d-e601c9733bb7?resource=filesystem\u0026recursive=false\u0026upn=false",
      "RequestMethod": "GET",
      "RequestHeaders": {
        "Authorization": "Sanitized",
        "User-Agent": [
          "azsdk-net-Storage.Files.DataLake/12.3.0-dev.20200702.1",
          "(.NET Core 4.6.28801.04; Microsoft Windows 10.0.18362 )"
        ],
        "x-ms-client-request-id": "460ec471-719b-6b7b-e0bc-1dbb7fe97fc0",
        "x-ms-date": "Thu, 02 Jul 2020 21:06:58 GMT",
        "x-ms-return-client-request-id": "true",
        "x-ms-version": "2019-12-12"
      },
      "RequestBody": null,
      "StatusCode": 200,
      "ResponseHeaders": {
        "Content-Type": "application/json; charset=utf-8",
        "Date": "Thu, 02 Jul 2020 21:06:58 GMT",
        "Server": [
          "Windows-Azure-HDFS/1.0",
          "Microsoft-HTTPAPI/2.0"
        ],
        "Transfer-Encoding": "chunked",
        "x-ms-client-request-id": "460ec471-719b-6b7b-e0bc-1dbb7fe97fc0",
        "x-ms-request-id": "14af8ec9-701f-0069-5cb4-50a8ce000000",
        "x-ms-version": "2019-12-12"
      },
      "ResponseBody": [
        "{\u0022paths\u0022:[{\u0022contentLength\u0022:\u00220\u0022,\u0022etag\u0022:\u00220x8D81ECBDBEB355F\u0022,\u0022group\u0022:\u0022$superuser\u0022,\u0022isDirectory\u0022:\u0022true\u0022,\u0022lastModified\u0022:\u0022Thu, 02 Jul 2020 21:06:58 GMT\u0022,\u0022name\u0022:\u0022directory\u0022,\u0022owner\u0022:\u0022$superuser\u0022,\u0022permissions\u0022:\u0022rwxr-x---\u0022}]}\n"
      ]
    },
    {
      "RequestUri": "https://seanmccdfsca2.blob.core.windows.net/test-filesystem-1bf03649-8cc6-5d20-b52d-e601c9733bb7?restype=container",
      "RequestMethod": "DELETE",
      "RequestHeaders": {
        "Authorization": "Sanitized",
        "traceparent": "00-f3ef770f6ac7824e961a8f000c29754b-2ea4a456f18e8a47-00",
        "User-Agent": [
          "azsdk-net-Storage.Files.DataLake/12.3.0-dev.20200702.1",
          "(.NET Core 4.6.28801.04; Microsoft Windows 10.0.18362 )"
        ],
        "x-ms-client-request-id": "bbfe82bf-fcff-3a86-bab1-435648f9f2cf",
        "x-ms-date": "Thu, 02 Jul 2020 21:06:58 GMT",
        "x-ms-return-client-request-id": "true",
        "x-ms-version": "2019-12-12"
      },
      "RequestBody": null,
      "StatusCode": 202,
      "ResponseHeaders": {
        "Content-Length": "0",
        "Date": "Thu, 02 Jul 2020 21:06:58 GMT",
        "Server": [
          "Windows-Azure-Blob/1.0",
          "Microsoft-HTTPAPI/2.0"
        ],
        "x-ms-client-request-id": "bbfe82bf-fcff-3a86-bab1-435648f9f2cf",
        "x-ms-request-id": "b2351a7a-401e-0096-18b4-509853000000",
        "x-ms-version": "2019-12-12"
      },
      "ResponseBody": []
    }
  ],
  "Variables": {
    "RandomSeed": "309459620",
    "Storage_TestConfigHierarchicalNamespace": "NamespaceTenant\nseanmccdfsca2\nU2FuaXRpemVk\nhttps://seanmccdfsca2.blob.core.windows.net\nhttps://seanmccdfsca2.file.core.windows.net\nhttps://seanmccdfsca2.queue.core.windows.net\nhttps://seanmccdfsca2.table.core.windows.net\n\n\n\n\nhttps://seanmccdfsca2-secondary.blob.core.windows.net\nhttps://seanmccdfsca2-secondary.file.core.windows.net\nhttps://seanmccdfsca2-secondary.queue.core.windows.net\nhttps://seanmccdfsca2-secondary.table.core.windows.net\n68390a19-a643-458b-b726-408abf67b4fc\nSanitized\n72f988bf-86f1-41af-91ab-2d7cd011db47\nhttps://login.microsoftonline.com/\nCloud\nBlobEndpoint=https://seanmccdfsca2.blob.core.windows.net/;QueueEndpoint=https://seanmccdfsca2.queue.core.windows.net/;FileEndpoint=https://seanmccdfsca2.file.core.windows.net/;BlobSecondaryEndpoint=https://seanmccdfsca2-secondary.blob.core.windows.net/;QueueSecondaryEndpoint=https://seanmccdfsca2-secondary.queue.core.windows.net/;FileSecondaryEndpoint=https://seanmccdfsca2-secondary.file.core.windows.net/;AccountName=seanmccdfsca2;AccountKey=Sanitized\n"
  }
}