{
  "Entries": [
    {
      "RequestUri": "https://https://fakeHost.api.wus2.digitaltwins.azure.net/digitaltwins/roomTwin980686438?api-version=2020-05-31-preview",
      "RequestMethod": "GET",
      "RequestHeaders": {
        "Authorization": "Sanitized",
        "User-Agent": [
          "azsdk-net-DigitalTwins.Core/1.0.0-dev.20200820.1",
          "(.NET Core 4.6.29130.01; Microsoft Windows 10.0.18363 )"
        ],
        "x-ms-client-request-id": "f89a1358885c5a4d7e27bd45b3ae8b8a",
        "x-ms-return-client-request-id": "true"
      },
      "RequestBody": null,
      "StatusCode": 404,
      "ResponseHeaders": {
        "Content-Length": "270",
        "Content-Type": "application/json; charset=utf-8",
        "Date": "Thu, 20 Aug 2020 22:33:02 GMT",
        "Strict-Transport-Security": "max-age=2592000"
      },
      "ResponseBody": {
        "error": {
          "code": "DigitalTwinNotFound",
          "message": "There is no digital twin instance that exists with the ID roomTwin980686438. Please verify that the twin id is valid and ensure that the twin is not deleted. See section on querying the twins http://aka.ms/adtv2query."
        }
      }
    },
    {
      "RequestUri": "https://https://fakeHost.api.wus2.digitaltwins.azure.net/models/dtmi%3Aexample%3Afloor%3B19848223?includeModelDefinition=true\u0026api-version=2020-05-31-preview",
      "RequestMethod": "GET",
      "RequestHeaders": {
        "Authorization": "Sanitized",
        "User-Agent": [
          "azsdk-net-DigitalTwins.Core/1.0.0-dev.20200820.1",
          "(.NET Core 4.6.29130.01; Microsoft Windows 10.0.18363 )"
        ],
        "x-ms-client-request-id": "7091dd268409dfe995f799a112d9b79d",
        "x-ms-return-client-request-id": "true"
      },
      "RequestBody": null,
      "StatusCode": 404,
      "ResponseHeaders": {
        "Content-Length": "212",
        "Content-Type": "application/json; charset=utf-8",
        "Date": "Thu, 20 Aug 2020 22:33:02 GMT",
        "Strict-Transport-Security": "max-age=2592000"
      },
      "ResponseBody": {
        "error": {
          "code": "ModelNotFound",
          "message": "There is no Model(s) available that matches the provided id(s) dtmi:example:floor;19848223. Check that the Model ID provided is valid by doing a Model_List API call."
        }
      }
    },
    {
      "RequestUri": "https://https://fakeHost.api.wus2.digitaltwins.azure.net/models/dtmi%3Aexample%3Aroom%3B135050739?includeModelDefinition=true\u0026api-version=2020-05-31-preview",
      "RequestMethod": "GET",
      "RequestHeaders": {
        "Authorization": "Sanitized",
        "User-Agent": [
          "azsdk-net-DigitalTwins.Core/1.0.0-dev.20200820.1",
          "(.NET Core 4.6.29130.01; Microsoft Windows 10.0.18363 )"
        ],
        "x-ms-client-request-id": "4d548383587aa8ee0c7129c7e9837488",
        "x-ms-return-client-request-id": "true"
      },
      "RequestBody": null,
      "StatusCode": 404,
      "ResponseHeaders": {
        "Content-Length": "212",
        "Content-Type": "application/json; charset=utf-8",
        "Date": "Thu, 20 Aug 2020 22:33:02 GMT",
        "Strict-Transport-Security": "max-age=2592000"
      },
      "ResponseBody": {
        "error": {
          "code": "ModelNotFound",
          "message": "There is no Model(s) available that matches the provided id(s) dtmi:example:room;135050739. Check that the Model ID provided is valid by doing a Model_List API call."
        }
      }
    },
    {
      "RequestUri": "https://https://fakeHost.api.wus2.digitaltwins.azure.net/models?api-version=2020-05-31-preview",
      "RequestMethod": "POST",
      "RequestHeaders": {
        "Accept": "application/json",
        "Authorization": "Sanitized",
        "Content-Length": "804",
        "Content-Type": "application/json; charset=utf-8",
        "User-Agent": [
          "azsdk-net-DigitalTwins.Core/1.0.0-dev.20200820.1",
          "(.NET Core 4.6.29130.01; Microsoft Windows 10.0.18363 )"
        ],
        "x-ms-client-request-id": "65dcb4b44ff6b08f19c690b4b96b4e05",
        "x-ms-return-client-request-id": "true"
      },
      "RequestBody": "[{    \u0022@id\u0022: \u0022dtmi:example:room;135050739\u0022,    \u0022@type\u0022: \u0022Interface\u0022,    \u0022displayName\u0022: \u0022Room\u0022,    \u0022description\u0022: \u0022An enclosure inside a building.\u0022,    \u0022contents\u0022: [        {            \u0022@type\u0022: \u0022Relationship\u0022,            \u0022name\u0022: \u0022containedIn\u0022,            \u0022target\u0022: \u0022dtmi:example:floor;19848223\u0022        },        {            \u0022@type\u0022: \u0022Property\u0022,            \u0022name\u0022: \u0022Temperature\u0022,            \u0022schema\u0022: \u0022double\u0022        },        {            \u0022@type\u0022: \u0022Property\u0022,            \u0022name\u0022: \u0022Humidity\u0022,            \u0022schema\u0022: \u0022double\u0022        },        {            \u0022@type\u0022: \u0022Property\u0022,            \u0022name\u0022: \u0022IsOccupied\u0022,            \u0022schema\u0022: \u0022boolean\u0022        },        {            \u0022@type\u0022: \u0022Property\u0022,            \u0022name\u0022: \u0022EmployeeId\u0022,            \u0022schema\u0022: \u0022string\u0022        }    ],    \u0022@context\u0022: \u0022dtmi:dtdl:context;2\u0022}]",
      "StatusCode": 201,
      "ResponseHeaders": {
        "Content-Length": "193",
        "Content-Type": "application/json; charset=utf-8",
        "Date": "Thu, 20 Aug 2020 22:33:03 GMT",
        "Strict-Transport-Security": "max-age=2592000"
      },
      "ResponseBody": "[{\u0022id\u0022:\u0022dtmi:example:room;135050739\u0022,\u0022description\u0022:{\u0022en\u0022:\u0022An enclosure inside a building.\u0022},\u0022displayName\u0022:{\u0022en\u0022:\u0022Room\u0022},\u0022decommissioned\u0022:false,\u0022uploadTime\u0022:\u00222020-08-20T22:33:03.9445324\u002B00:00\u0022}]"
    },
    {
      "RequestUri": "https://https://fakeHost.api.wus2.digitaltwins.azure.net/digitaltwins/roomTwin980686438?api-version=2020-05-31-preview",
      "RequestMethod": "PUT",
      "RequestHeaders": {
        "Authorization": "Sanitized",
        "Content-Length": "150",
        "Content-Type": "application/json; charset=utf-8",
        "User-Agent": [
          "azsdk-net-DigitalTwins.Core/1.0.0-dev.20200820.1",
          "(.NET Core 4.6.29130.01; Microsoft Windows 10.0.18363 )"
        ],
        "x-ms-client-request-id": "082b2ea7f63584aba3c8fc13bf17ab74",
        "x-ms-return-client-request-id": "true"
      },
      "RequestBody": "{  \u0022$metadata\u0022: {    \u0022$model\u0022: \u0022dtmi:example:room;135050739\u0022  },  \u0022Temperature\u0022: 80,  \u0022Humidity\u0022: 25,  \u0022IsOccupied\u0022: true,  \u0022EmployeeId\u0022: \u0022Employee1\u0022}",
      "StatusCode": 200,
      "ResponseHeaders": {
        "Content-Length": "659",
        "Content-Type": "application/json; charset=utf-8",
        "Date": "Thu, 20 Aug 2020 22:33:03 GMT",
        "ETag": "W/\u0022e8773845-b349-4444-a2f0-d60fe3e55c9c\u0022",
        "Strict-Transport-Security": "max-age=2592000"
      },
      "ResponseBody": {
        "$dtId": "roomTwin980686438",
        "$etag": "W/\u0022e8773845-b349-4444-a2f0-d60fe3e55c9c\u0022",
        "Temperature": 80,
        "Humidity": 25,
        "IsOccupied": true,
        "EmployeeId": "Employee1",
        "$metadata": {
          "$model": "dtmi:example:room;135050739",
          "Temperature": {
            "desiredValue": 80,
            "desiredVersion": 1,
            "ackVersion": 1,
            "ackCode": 200,
            "ackDescription": "Auto-Sync"
          },
          "Humidity": {
            "desiredValue": 25,
            "desiredVersion": 1,
            "ackVersion": 1,
            "ackCode": 200,
            "ackDescription": "Auto-Sync"
          },
          "IsOccupied": {
            "desiredValue": true,
            "desiredVersion": 1,
            "ackVersion": 1,
            "ackCode": 200,
            "ackDescription": "Auto-Sync"
          },
          "EmployeeId": {
            "desiredValue": "Employee1",
            "desiredVersion": 1,
            "ackVersion": 1,
            "ackCode": 200,
            "ackDescription": "Auto-Sync"
          }
        }
      }
    },
    {
      "RequestUri": "https://https://fakeHost.api.wus2.digitaltwins.azure.net/digitaltwins/roomTwin980686438?api-version=2020-05-31-preview",
      "RequestMethod": "GET",
      "RequestHeaders": {
        "Authorization": "Sanitized",
        "User-Agent": [
          "azsdk-net-DigitalTwins.Core/1.0.0-dev.20200820.1",
          "(.NET Core 4.6.29130.01; Microsoft Windows 10.0.18363 )"
        ],
        "x-ms-client-request-id": "255e192538db348ff4a433b3c83aefa1",
        "x-ms-return-client-request-id": "true"
      },
      "RequestBody": null,
      "StatusCode": 200,
      "ResponseHeaders": {
        "Content-Length": "659",
        "Content-Type": "application/json; charset=utf-8",
        "Date": "Thu, 20 Aug 2020 22:33:03 GMT",
        "ETag": "W/\u0022e8773845-b349-4444-a2f0-d60fe3e55c9c\u0022",
        "Strict-Transport-Security": "max-age=2592000"
      },
      "ResponseBody": {
        "$dtId": "roomTwin980686438",
        "$etag": "W/\u0022e8773845-b349-4444-a2f0-d60fe3e55c9c\u0022",
        "Temperature": 80,
        "Humidity": 25,
        "IsOccupied": true,
        "EmployeeId": "Employee1",
        "$metadata": {
          "$model": "dtmi:example:room;135050739",
          "Temperature": {
            "desiredValue": 80,
            "desiredVersion": 1,
            "ackVersion": 1,
            "ackCode": 200,
            "ackDescription": "Auto-Sync"
          },
          "Humidity": {
            "desiredValue": 25,
            "desiredVersion": 1,
            "ackVersion": 1,
            "ackCode": 200,
            "ackDescription": "Auto-Sync"
          },
          "IsOccupied": {
            "desiredValue": true,
            "desiredVersion": 1,
            "ackVersion": 1,
            "ackCode": 200,
            "ackDescription": "Auto-Sync"
          },
          "EmployeeId": {
            "desiredValue": "Employee1",
            "desiredVersion": 1,
            "ackVersion": 1,
            "ackCode": 200,
            "ackDescription": "Auto-Sync"
          }
        }
      }
    },
    {
      "RequestUri": "https://https://fakeHost.api.wus2.digitaltwins.azure.net/digitaltwins/roomTwin980686438?api-version=2020-05-31-preview",
      "RequestMethod": "PATCH",
      "RequestHeaders": {
        "Accept": "application/json",
        "Authorization": "Sanitized",
        "Content-Length": "131",
        "Content-Type": "application/json; charset=utf-8",
        "If-Match": "*",
        "User-Agent": [
          "azsdk-net-DigitalTwins.Core/1.0.0-dev.20200820.1",
          "(.NET Core 4.6.29130.01; Microsoft Windows 10.0.18363 )"
        ],
        "x-ms-client-request-id": "bb2024226b57be520857c22e527bf101",
        "x-ms-return-client-request-id": "true"
      },
      "RequestBody": "[{\u0022op\u0022:\u0022add\u0022,\u0022path\u0022:\u0022/Humidity\u0022,\u0022value\u0022:30},{\u0022op\u0022:\u0022replace\u0022,\u0022path\u0022:\u0022/Temperature\u0022,\u0022value\u0022:70},{\u0022op\u0022:\u0022remove\u0022,\u0022path\u0022:\u0022/EmployeeId\u0022}]",
      "StatusCode": 204,
      "ResponseHeaders": {
        "Content-Length": "0",
        "Date": "Thu, 20 Aug 2020 22:33:03 GMT",
        "ETag": "W/\u00228e455516-5aae-4fe5-a06b-5fda2981f8ec\u0022",
        "Strict-Transport-Security": "max-age=2592000"
      },
      "ResponseBody": []
    },
    {
      "RequestUri": "https://https://fakeHost.api.wus2.digitaltwins.azure.net/digitaltwins/roomTwin980686438?api-version=2020-05-31-preview",
      "RequestMethod": "DELETE",
      "RequestHeaders": {
        "Authorization": "Sanitized",
        "User-Agent": [
          "azsdk-net-DigitalTwins.Core/1.0.0-dev.20200820.1",
          "(.NET Core 4.6.29130.01; Microsoft Windows 10.0.18363 )"
        ],
        "x-ms-client-request-id": "9f8e1c1b290d6e2a9ff71491c2f7bc68",
        "x-ms-return-client-request-id": "true"
      },
      "RequestBody": null,
      "StatusCode": 204,
      "ResponseHeaders": {
        "Content-Length": "0",
        "Date": "Thu, 20 Aug 2020 22:33:03 GMT",
        "Strict-Transport-Security": "max-age=2592000"
      },
      "ResponseBody": []
    },
    {
      "RequestUri": "https://https://fakeHost.api.wus2.digitaltwins.azure.net/digitaltwins/roomTwin980686438?api-version=2020-05-31-preview",
      "RequestMethod": "GET",
      "RequestHeaders": {
        "Authorization": "Sanitized",
        "User-Agent": [
          "azsdk-net-DigitalTwins.Core/1.0.0-dev.20200820.1",
          "(.NET Core 4.6.29130.01; Microsoft Windows 10.0.18363 )"
        ],
        "x-ms-client-request-id": "9af05bd8f0f7ba1cc6a01c837560e178",
        "x-ms-return-client-request-id": "true"
      },
      "RequestBody": null,
      "StatusCode": 404,
      "ResponseHeaders": {
        "Content-Length": "270",
        "Content-Type": "application/json; charset=utf-8",
        "Date": "Thu, 20 Aug 2020 22:33:04 GMT",
        "Strict-Transport-Security": "max-age=2592000"
      },
      "ResponseBody": {
        "error": {
          "code": "DigitalTwinNotFound",
          "message": "There is no digital twin instance that exists with the ID roomTwin980686438. Please verify that the twin id is valid and ensure that the twin is not deleted. See section on querying the twins http://aka.ms/adtv2query."
        }
      }
    },
    {
      "RequestUri": "https://https://fakeHost.api.wus2.digitaltwins.azure.net/models/dtmi%3Aexample%3Aroom%3B135050739?api-version=2020-05-31-preview",
      "RequestMethod": "DELETE",
      "RequestHeaders": {
        "Authorization": "Sanitized",
        "User-Agent": [
          "azsdk-net-DigitalTwins.Core/1.0.0-dev.20200820.1",
          "(.NET Core 4.6.29130.01; Microsoft Windows 10.0.18363 )"
        ],
        "x-ms-client-request-id": "ab9832b24facf993f9b11c6056c1fc10",
        "x-ms-return-client-request-id": "true"
      },
      "RequestBody": null,
      "StatusCode": 204,
      "ResponseHeaders": {
        "Content-Length": "0",
        "Date": "Thu, 20 Aug 2020 22:33:04 GMT",
        "Strict-Transport-Security": "max-age=2592000"
      },
      "ResponseBody": []
    }
  ],
  "Variables": {
    "DIGITALTWINS_URL": "https://fakeHost.api.wus2.digitaltwins.azure.net",
    "RandomSeed": "976032244"
  }
}