{
  "Entries": [
    {
      "RequestUri": "https://eastus.clitest.managedhsm-preview.azure.net/providers/Microsoft.Authorization/roleDefinitions?api-version=7.2-preview",
      "RequestMethod": "GET",
      "RequestHeaders": {
        "User-Agent": [
          "azsdk-net-Security.KeyVault.Administration/4.1.0-dev.20200710.1",
          "(.NET Core 4.6.28928.01; Microsoft Windows 10.0.18363 )"
        ],
        "x-ms-client-request-id": "f1c23ebdec89e40b6f68bf4f08f90195",
        "x-ms-return-client-request-id": "true"
      },
      "RequestBody": null,
      "StatusCode": 401,
      "ResponseHeaders": {
        "Content-Length": "2",
        "Content-Type": "application/json",
        "WWW-Authenticate": "Bearer authorization=\u0022https://login.microsoftonline.com/72f988bf-86f1-41af-91ab-2d7cd011db47\u0022, resource=\u0022https://managedhsm.azure.net\u0022",
        "X-Content-Type-Options": "nosniff",
        "x-ms-request-id": "6efe8100-bb32-11ea-a6f0-0242ac120006"
      },
      "ResponseBody": "OK"
    },
    {
      "RequestUri": "https://eastus.clitest.managedhsm-preview.azure.net/providers/Microsoft.Authorization/roleDefinitions?api-version=7.2-preview",
      "RequestMethod": "GET",
      "RequestHeaders": {
        "Authorization": "Sanitized",
        "User-Agent": [
          "azsdk-net-Security.KeyVault.Administration/4.1.0-dev.20200710.1",
          "(.NET Core 4.6.28928.01; Microsoft Windows 10.0.18363 )"
        ],
        "x-ms-client-request-id": "f1c23ebdec89e40b6f68bf4f08f90195",
        "x-ms-return-client-request-id": "true"
      },
      "RequestBody": null,
      "StatusCode": 200,
      "ResponseHeaders": {
        "Content-Length": "5517",
        "Content-Type": "application/json",
        "X-Content-Type-Options": "nosniff",
        "x-ms-keyvault-network-info": "addr=72.176.254.191",
        "x-ms-keyvault-region": "EASTUS",
        "x-ms-request-id": "6efe8100-bb32-11ea-a6f0-0242ac120006"
      },
      "ResponseBody": {
        "value": [
          {
            "id": "Microsoft.KeyVault/providers/Microsoft.Authorization/roleDefinitions/a290e904-7015-4bba-90c8-60543313cdb4",
            "name": "a290e904-7015-4bba-90c8-60543313cdb4",
            "properties": {
              "assignableScopes": [
                "/"
              ],
              "description": "",
              "permissions": [
                {
                  "actions": [],
                  "dataActions": [
                    "Microsoft.KeyVault/managedHsm/keys/read/action",
                    "Microsoft.KeyVault/managedHsm/keys/write/action",
                    "Microsoft.KeyVault/managedHsm/keys/deletedKeys/read/action",
                    "Microsoft.KeyVault/managedHsm/keys/deletedKeys/recover/action",
                    "Microsoft.KeyVault/managedHsm/keys/backup/action",
                    "Microsoft.KeyVault/managedHsm/keys/restore/action",
                    "Microsoft.KeyVault/managedHsm/roleAssignments/delete/action",
                    "Microsoft.KeyVault/managedHsm/roleAssignments/read/action",
                    "Microsoft.KeyVault/managedHsm/roleAssignments/write/action",
                    "Microsoft.KeyVault/managedHsm/roleDefinitions/read/action",
                    "Microsoft.KeyVault/managedHsm/keys/encrypt/action",
                    "Microsoft.KeyVault/managedHsm/keys/decrypt/action",
                    "Microsoft.KeyVault/managedHsm/keys/wrap/action",
                    "Microsoft.KeyVault/managedHsm/keys/unwrap/action",
                    "Microsoft.KeyVault/managedHsm/keys/sign/action",
                    "Microsoft.KeyVault/managedHsm/keys/verify/action",
                    "Microsoft.KeyVault/managedHsm/keys/create",
                    "Microsoft.KeyVault/managedHsm/keys/delete",
                    "Microsoft.KeyVault/managedHsm/keys/export/action",
                    "Microsoft.KeyVault/managedHsm/keys/import/action",
                    "Microsoft.KeyVault/managedHsm/keys/deletedKeys/delete"
                  ],
                  "notActions": [],
                  "notDataActions": []
                }
              ],
              "roleName": "Azure Key Vault Managed HSM Administrator",
              "type": ""
            },
            "type": "Microsoft.Authorization/roleDefinitions"
          },
          {
            "id": "Microsoft.KeyVault/providers/Microsoft.Authorization/roleDefinitions/515eb02d-2335-4d2d-92f2-b1cbdf9c3778",
            "name": "515eb02d-2335-4d2d-92f2-b1cbdf9c3778",
            "properties": {
              "assignableScopes": [
                "/"
              ],
              "description": "",
              "permissions": [
                {
                  "actions": [],
                  "dataActions": [
                    "Microsoft.KeyVault/managedHsm/keys/read/action",
                    "Microsoft.KeyVault/managedHsm/keys/write/action",
                    "Microsoft.KeyVault/managedHsm/keys/deletedKeys/read/action",
                    "Microsoft.KeyVault/managedHsm/keys/deletedKeys/recover/action",
                    "Microsoft.KeyVault/managedHsm/keys/backup/action",
                    "Microsoft.KeyVault/managedHsm/keys/restore/action",
                    "Microsoft.KeyVault/managedHsm/keys/encrypt/action",
                    "Microsoft.KeyVault/managedHsm/keys/decrypt/action",
                    "Microsoft.KeyVault/managedHsm/keys/sign/action",
                    "Microsoft.KeyVault/managedHsm/keys/verify/action",
                    "Microsoft.KeyVault/managedHsm/keys/wrap/action",
                    "Microsoft.KeyVault/managedHsm/keys/unwrap/action",
                    "Microsoft.KeyVault/managedHsm/keys/create",
                    "Microsoft.KeyVault/managedHsm/keys/delete",
                    "Microsoft.KeyVault/managedHsm/keys/export/action",
                    "Microsoft.KeyVault/managedHsm/keys/import/action",
                    "Microsoft.KeyVault/managedHsm/keys/deletedKeys/delete"
                  ],
                  "notActions": [],
                  "notDataActions": []
                }
              ],
              "roleName": "Azure Key Vault Managed HSM Crypto Officer",
              "type": ""
            },
            "type": "Microsoft.Authorization/roleDefinitions"
          },
          {
            "id": "Microsoft.KeyVault/providers/Microsoft.Authorization/roleDefinitions/21dbd100-6940-42c2-9190-5d6cb909625b",
            "name": "21dbd100-6940-42c2-9190-5d6cb909625b",
            "properties": {
              "assignableScopes": [
                "/"
              ],
              "description": "",
              "permissions": [
                {
                  "actions": [],
                  "dataActions": [
                    "Microsoft.KeyVault/managedHsm/keys/read/action",
                    "Microsoft.KeyVault/managedHsm/keys/write/action",
                    "Microsoft.KeyVault/managedHsm/keys/backup/action",
                    "Microsoft.KeyVault/managedHsm/keys/create",
                    "Microsoft.KeyVault/managedHsm/keys/encrypt/action",
                    "Microsoft.KeyVault/managedHsm/keys/decrypt/action",
                    "Microsoft.KeyVault/managedHsm/keys/wrap/action",
                    "Microsoft.KeyVault/managedHsm/keys/unwrap/action",
                    "Microsoft.KeyVault/managedHsm/keys/sign/action",
                    "Microsoft.KeyVault/managedHsm/keys/verify/action"
                  ],
                  "notActions": [],
                  "notDataActions": []
                }
              ],
              "roleName": "Azure Key Vault Managed HSM Crypto User",
              "type": ""
            },
            "type": "Microsoft.Authorization/roleDefinitions"
          },
          {
            "id": "Microsoft.KeyVault/providers/Microsoft.Authorization/roleDefinitions/4bd23610-cdcf-4971-bdee-bdc562cc28e4",
            "name": "4bd23610-cdcf-4971-bdee-bdc562cc28e4",
            "properties": {
              "assignableScopes": [
                "/"
              ],
              "description": "",
              "permissions": [
                {
                  "actions": [],
                  "dataActions": [
                    "Microsoft.KeyVault/managedHsm/roleDefinitions/read/action",
                    "Microsoft.KeyVault/managedHsm/roleAssignments/read/action",
                    "Microsoft.KeyVault/managedHsm/roleAssignments/write/action",
                    "Microsoft.KeyVault/managedHsm/roleAssignments/delete/action"
                  ],
                  "notActions": [],
                  "notDataActions": []
                }
              ],
              "roleName": "Azure Key Vault Managed HSM Policy Administrator",
              "type": ""
            },
            "type": "Microsoft.Authorization/roleDefinitions"
          },
          {
            "id": "Microsoft.KeyVault/providers/Microsoft.Authorization/roleDefinitions/2c18b078-7c48-4d3a-af88-5a3a1b3f82b3",
            "name": "2c18b078-7c48-4d3a-af88-5a3a1b3f82b3",
            "properties": {
              "assignableScopes": [
                "/"
              ],
              "description": "",
              "permissions": [
                {
                  "actions": [],
                  "dataActions": [
                    "Microsoft.KeyVault/managedHsm/keys/read/action",
                    "Microsoft.KeyVault/managedHsm/keys/deletedKeys/read/action"
                  ],
                  "notActions": [],
                  "notDataActions": []
                }
              ],
              "roleName": "Azure Key Vault Managed HSM Crypto Auditor",
              "type": ""
            },
            "type": "Microsoft.Authorization/roleDefinitions"
          },
          {
            "id": "Microsoft.KeyVault/providers/Microsoft.Authorization/roleDefinitions/33413926-3206-4cdd-b39a-83574fe37a17",
            "name": "33413926-3206-4cdd-b39a-83574fe37a17",
            "properties": {
              "assignableScopes": [
                "/"
              ],
              "description": "",
              "permissions": [
                {
                  "actions": [],
                  "dataActions": [
                    "Microsoft.KeyVault/managedHsm/keys/read/action",
                    "Microsoft.KeyVault/managedHsm/keys/wrap/action",
                    "Microsoft.KeyVault/managedHsm/keys/unwrap/action"
                  ],
                  "notActions": [],
                  "notDataActions": []
                }
              ],
              "roleName": "Azure Key Vault Managed HSM Crypto Service Encryption",
              "type": ""
            },
            "type": "Microsoft.Authorization/roleDefinitions"
          }
        ]
      }
    },
    {
      "RequestUri": "https://eastus.clitest.managedhsm-preview.azure.net/keys/providers/Microsoft.Authorization/roleAssignments/e7ae2aff-eb17-4c9d-84f0-d12f7f468f16?api-version=7.2-preview",
      "RequestMethod": "PUT",
      "RequestHeaders": {
        "Authorization": "Sanitized",
        "Content-Length": "196",
        "Content-Type": "application/json",
        "traceparent": "00-cb928eda3683c84785f878593332c8d5-9d7874b7bf556540-00",
        "User-Agent": [
          "azsdk-net-Security.KeyVault.Administration/4.1.0-dev.20200710.1",
          "(.NET Core 4.6.28928.01; Microsoft Windows 10.0.18363 )"
        ],
        "x-ms-client-request-id": "1a64803059eccde05376084e51d096ba",
        "x-ms-return-client-request-id": "true"
      },
      "RequestBody": {
        "properties": {
          "roleDefinitionId": "Microsoft.KeyVault/providers/Microsoft.Authorization/roleDefinitions/21dbd100-6940-42c2-9190-5d6cb909625b",
          "principalId": "693a17da-7022-4cdd-9d4e-4e72e4ad449d"
        }
      },
      "StatusCode": 201,
      "ResponseHeaders": {
        "Content-Length": "402",
        "Content-Type": "application/json",
        "X-Content-Type-Options": "nosniff",
        "x-ms-keyvault-network-info": "addr=72.176.254.191",
        "x-ms-keyvault-region": "EASTUS",
        "x-ms-request-id": "6efe8100-bb32-11ea-a6f0-0242ac120006"
      },
      "ResponseBody": {
        "id": "/providers/Microsoft.Authorization/roleAssignments/e7ae2aff-eb17-4c9d-84f0-d12f7f468f16",
        "name": "e7ae2aff-eb17-4c9d-84f0-d12f7f468f16",
        "properties": {
          "principalId": "693a17da-7022-4cdd-9d4e-4e72e4ad449d",
          "roleDefinitionId": "Microsoft.KeyVault/providers/Microsoft.Authorization/roleDefinitions/21dbd100-6940-42c2-9190-5d6cb909625b",
          "scope": "/keys"
        },
        "type": "Microsoft.Authorization/roleAssignments"
      }
    },
    {
      "RequestUri": "https://eastus.clitest.managedhsm-preview.azure.net/keys/?api-version=7.1",
      "RequestMethod": "GET",
      "RequestHeaders": {
        "Accept": "application/json",
        "Authorization": "Sanitized",
        "Content-Type": "application/json",
        "User-Agent": [
          "azsdk-net-Security.KeyVault.Keys/4.1.0-dev.20200710.1",
          "(.NET Core 4.6.28928.01; Microsoft Windows 10.0.18363 )"
        ],
        "x-ms-client-request-id": "2ca588a11f25550cbd1dc7e38af25108",
        "x-ms-return-client-request-id": "true"
      },
      "RequestBody": null,
      "StatusCode": 200,
      "ResponseHeaders": {
        "Content-Length": "1321",
        "Content-Type": "application/json",
        "X-Content-Type-Options": "nosniff",
        "x-ms-keyvault-network-info": "addr=72.176.254.191",
        "x-ms-keyvault-region": "EASTUS",
        "x-ms-request-id": "6efe8100-bb32-11ea-a6f0-0242ac120006"
      },
      "ResponseBody": {
        "value": [
          {
            "attributes": {
              "created": 1594281595,
              "enabled": true,
              "exportable": true,
              "recoverableDays": 90,
              "recoveryLevel": "Recoverable\u002BPurgeable",
              "updated": 1594281613
            },
            "kid": "https://eastus.clitest.managedhsm-preview.azure.net/keys/key-ov5x4xujjptq7dud4g4k"
          },
          {
            "attributes": {
              "created": 1594281616,
              "enabled": true,
              "recoverableDays": 90,
              "recoveryLevel": "Recoverable\u002BPurgeable",
              "updated": 1594281616
            },
            "kid": "https://eastus.clitest.managedhsm-preview.azure.net/keys/import-key-plain"
          },
          {
            "attributes": {
              "created": 1594281618,
              "enabled": true,
              "recoverableDays": 90,
              "recoveryLevel": "Recoverable\u002BPurgeable",
              "updated": 1594281618
            },
            "kid": "https://eastus.clitest.managedhsm-preview.azure.net/keys/import-key-encrypted"
          },
          {
            "attributes": {
              "created": 1594281621,
              "enabled": true,
              "recoverableDays": 90,
              "recoveryLevel": "Recoverable\u002BPurgeable",
              "updated": 1594281621
            },
            "kid": "https://eastus.clitest.managedhsm-preview.azure.net/keys/import-eckey-plain"
          },
          {
            "attributes": {
              "created": 1594281632,
              "enabled": true,
              "recoverableDays": 90,
              "recoveryLevel": "Recoverable\u002BPurgeable",
              "updated": 1594281632
            },
            "kid": "https://eastus.clitest.managedhsm-preview.azure.net/keys/key1"
          },
          {
            "attributes": {
              "created": 1594281638,
              "enabled": true,
              "recoverableDays": 90,
              "recoveryLevel": "Recoverable\u002BPurgeable",
              "updated": 1594281638
            },
            "kid": "https://eastus.clitest.managedhsm-preview.azure.net/keys/key2"
          }
        ]
      }
    },
    {
      "RequestUri": "https://eastus.clitest.managedhsm-preview.azure.net/keys/key-ov5x4xujjptq7dud4g4k/?api-version=7.1",
      "RequestMethod": "GET",
      "RequestHeaders": {
        "Accept": "application/json",
        "Authorization": "Sanitized",
        "Content-Type": "application/json",
        "traceparent": "00-9715e929b22cea4793ec617db11877fb-befd753167b4aa48-00",
        "User-Agent": [
          "azsdk-net-Security.KeyVault.Keys/4.1.0-dev.20200710.1",
          "(.NET Core 4.6.28928.01; Microsoft Windows 10.0.18363 )"
        ],
        "x-ms-client-request-id": "bb64f190de25631c5ef59e12e3bd929f",
        "x-ms-return-client-request-id": "true"
      },
      "RequestBody": null,
      "StatusCode": 200,
      "ResponseHeaders": {
        "Content-Length": "691",
        "Content-Type": "application/json",
        "X-Content-Type-Options": "nosniff",
        "x-ms-keyvault-network-info": "addr=72.176.254.191",
        "x-ms-keyvault-region": "EASTUS",
        "x-ms-request-id": "6efe8100-bb32-11ea-a6f0-0242ac120006"
      },
      "ResponseBody": {
        "attributes": {
          "created": 1594281595,
          "enabled": true,
          "exportable": true,
          "recoverableDays": 90,
          "recoveryLevel": "Recoverable\u002BPurgeable",
          "updated": 1594281613
        },
        "key": {
          "e": "AQAB",
          "key_ops": [
            "decrypt",
            "encrypt"
          ],
          "kid": "https://eastus.clitest.managedhsm-preview.azure.net/keys/key-ov5x4xujjptq7dud4g4k/0500e9c3ca0e000da3524818a2a5ae6f",
          "kty": "RSA-HSM",
          "n": "u1mD_yqfBn_DNVa1UQkmQ9M3WFdvJrviO0urx-7rWSJ0W8EA9-px7Vhv9CN_OF-OcQ2hfgeKwXd6szM3BiGfpWK0LNDYYoqg1vJp9sxyjYcx3-PlLopyoSr1k2WKpf0o9yYJh0u0X8gs82H4NcRkokDuPbfuggHPUTkFtML7KnKs8N2d0YK79lr0RuSSE5G0_WFBxFOkHikBJROFZBPfqVST08tKJO6YYlTEJ7d0rLa5YVR43oRWiaGQbeq_no7-k0Td4QyRy6E4-nrnz_P5TvxU1gFC6av6SOjtpr_KO4M5DJ5rkOhmECjJ09398gLxMPD-2hJ6mhoWZmDEq_f2Ew"
        }
      }
    },
    {
      "RequestUri": "https://eastus.clitest.managedhsm-preview.azure.net/keys/key-ov5x4xujjptq7dud4g4k/providers/Microsoft.Authorization/roleAssignments/e7ae2aff-eb17-4c9d-84f0-d12f7f468f16?api-version=7.2-preview",
      "RequestMethod": "PUT",
      "RequestHeaders": {
        "Authorization": "Sanitized",
        "Content-Length": "196",
        "Content-Type": "application/json",
        "traceparent": "00-f7e118926a61da4ea729dab80aaa2ed6-5822c85f9342ee42-00",
        "User-Agent": [
          "azsdk-net-Security.KeyVault.Administration/4.1.0-dev.20200710.1",
          "(.NET Core 4.6.28928.01; Microsoft Windows 10.0.18363 )"
        ],
        "x-ms-client-request-id": "80ad05d1d4541170740f5dce91fc4360",
        "x-ms-return-client-request-id": "true"
      },
      "RequestBody": {
        "properties": {
          "roleDefinitionId": "Microsoft.KeyVault/providers/Microsoft.Authorization/roleDefinitions/21dbd100-6940-42c2-9190-5d6cb909625b",
          "principalId": "693a17da-7022-4cdd-9d4e-4e72e4ad449d"
        }
      },
      "StatusCode": 201,
      "ResponseHeaders": {
        "Content-Length": "427",
        "Content-Type": "application/json",
        "X-Content-Type-Options": "nosniff",
        "x-ms-keyvault-network-info": "addr=72.176.254.191",
        "x-ms-keyvault-region": "EASTUS",
        "x-ms-request-id": "6efe8100-bb32-11ea-a6f0-0242ac120006"
      },
      "ResponseBody": {
        "id": "/providers/Microsoft.Authorization/roleAssignments/e7ae2aff-eb17-4c9d-84f0-d12f7f468f16",
        "name": "e7ae2aff-eb17-4c9d-84f0-d12f7f468f16",
        "properties": {
          "principalId": "693a17da-7022-4cdd-9d4e-4e72e4ad449d",
          "roleDefinitionId": "Microsoft.KeyVault/providers/Microsoft.Authorization/roleDefinitions/21dbd100-6940-42c2-9190-5d6cb909625b",
          "scope": "/keys/key-ov5x4xujjptq7dud4g4k"
        },
        "type": "Microsoft.Authorization/roleAssignments"
      }
    }
  ],
  "Variables": {
    "AZURE_KEYVAULT_URL": "https://eastus.clitest.managedhsm-preview.azure.net",
    "CLIENT_OBJECTID": "693a17da-7022-4cdd-9d4e-4e72e4ad449d",
    "RandomSeed": "1588834660"
  }
}
