{
  "Entries": [
    {
      "RequestUri": "https://chrissprim.table.cosmos.azure.com/Tables?$format=application%2Fjson%3Bodata%3Dminimalmetadata",
      "RequestMethod": "POST",
      "RequestHeaders": {
        "Accept": "application/json",
        "Authorization": "Sanitized",
        "Content-Length": "33",
        "Content-Type": "application/json; odata=nometadata",
        "DataServiceVersion": "3.0",
        "traceparent": "00-ca16b3095e00144e88e315452df4dd76-7ca3c31820f96240-00",
        "User-Agent": [
          "azsdk-net-Data.Tables/1.0.0-dev.20200819.1",
          "(.NET Core 4.6.29130.01; Microsoft Windows 10.0.18363 )"
        ],
        "x-ms-client-request-id": "5038f8da02b0081c5fab1ea1153511d4",
        "x-ms-date": "Wed, 19 Aug 2020 13:49:12 GMT",
        "x-ms-return-client-request-id": "true",
        "x-ms-version": "2019-02-02"
      },
      "RequestBody": {
        "TableName": "testtablexioo1bjy"
      },
      "StatusCode": 201,
      "ResponseHeaders": {
        "Content-Type": "application/json",
        "Date": "Wed, 19 Aug 2020 13:49:12 GMT",
        "ETag": "W/\u0022datetime\u00272020-08-19T13%3A49%3A12.5724168Z\u0027\u0022",
        "Location": "https://chrissprim.table.cosmos.azure.com/Tables(\u0027testtablexioo1bjy\u0027)",
        "Server": "Microsoft-HTTPAPI/2.0",
        "Transfer-Encoding": "chunked",
        "x-ms-request-id": "5038f8da-02b0-081c-5fab-1ea1153511d4"
      },
      "ResponseBody": {
        "TableName": "testtablexioo1bjy",
        "odata.metadata": "https://chrissprim.table.cosmos.azure.com/$metadata#Tables/@Element"
      }
    },
    {
      "RequestUri": "https://chrissscratch.table.core.windows.net/Tables?sv=2019-02-02\u0026ss=t\u0026srt=s\u0026se=2040-01-01T01%3A01%3A00Z\u0026sp=rwdlau\u0026sig=Sanitized\u0026$format=application%2Fjson%3Bodata%3Dminimalmetadata",
      "RequestMethod": "POST",
      "RequestHeaders": {
        "Accept": "application/json",
        "Content-Length": "33",
        "Content-Type": "application/json; odata=nometadata",
        "DataServiceVersion": "3.0",
        "traceparent": "00-acf379aa66aa4d4c9304a0a341e3f327-8d8699925882b74e-00",
        "User-Agent": [
          "azsdk-net-Data.Tables/1.0.0-dev.20200819.1",
          "(.NET Core 4.6.29130.01; Microsoft Windows 10.0.18363 )"
        ],
        "x-ms-client-request-id": "305c547925bd238d60018b489680d95f",
        "x-ms-return-client-request-id": "true",
        "x-ms-version": "2019-02-02"
      },
      "RequestBody": {
        "TableName": "testtabler737z72g"
      },
      "StatusCode": 403,
      "ResponseHeaders": {
        "Cache-Control": "no-cache",
        "Content-Type": "application/json; odata=minimalmetadata; streaming=true; charset=utf-8",
        "Date": "Wed, 19 Aug 2020 13:49:12 GMT",
        "Server": [
          "Windows-Azure-Table/1.0",
          "Microsoft-HTTPAPI/2.0"
        ],
        "Transfer-Encoding": "chunked",
        "X-Content-Type-Options": "nosniff",
        "x-ms-client-request-id": "305c547925bd238d60018b489680d95f",
        "x-ms-request-id": "01e92d2f-4002-0005-5e2f-763097000000",
        "x-ms-version": "2019-02-02"
      },
      "ResponseBody": {
        "odata.error": {
          "code": "AuthorizationResourceTypeMismatch",
          "message": {
            "lang": "en-US",
            "value": "This request is not authorized to perform this operation using this resource type.\nRequestId:01e92d2f-4002-0005-5e2f-763097000000\nTime:2020-08-19T13:49:13.2073284Z"
          }
        }
      }
    },
    {
      "RequestUri": "https://chrissscratch.table.core.windows.net/Tables?sv=2019-02-02\u0026ss=t\u0026srt=sc\u0026se=2040-01-01T01%3A01%3A00Z\u0026sp=rwdlau\u0026sig=Sanitized\u0026$format=application%2Fjson%3Bodata%3Dminimalmetadata",
      "RequestMethod": "POST",
      "RequestHeaders": {
        "Accept": "application/json",
        "Content-Length": "33",
        "Content-Type": "application/json; odata=nometadata",
        "DataServiceVersion": "3.0",
        "traceparent": "00-9a6e8e3327405a49b283e2c0f02c64c8-6ee5bcc79d02ae42-00",
        "User-Agent": [
          "azsdk-net-Data.Tables/1.0.0-dev.20200819.1",
          "(.NET Core 4.6.29130.01; Microsoft Windows 10.0.18363 )"
        ],
        "x-ms-client-request-id": "ac8e57c339abf4dd5c1c85569c270fdc",
        "x-ms-return-client-request-id": "true",
        "x-ms-version": "2019-02-02"
      },
      "RequestBody": {
        "TableName": "testtabler737z72g"
      },
      "StatusCode": 201,
      "ResponseHeaders": {
        "Cache-Control": "no-cache",
        "Content-Type": "application/json; odata=minimalmetadata; streaming=true; charset=utf-8",
        "Date": "Wed, 19 Aug 2020 13:49:12 GMT",
        "Location": "https://chrissscratch.table.core.windows.net/Tables(\u0027testtabler737z72g\u0027)",
        "Server": [
          "Windows-Azure-Table/1.0",
          "Microsoft-HTTPAPI/2.0"
        ],
        "Transfer-Encoding": "chunked",
        "X-Content-Type-Options": "nosniff",
        "x-ms-client-request-id": "ac8e57c339abf4dd5c1c85569c270fdc",
        "x-ms-request-id": "01e92d43-4002-0005-712f-763097000000",
        "x-ms-version": "2019-02-02"
      },
      "ResponseBody": {
        "odata.metadata": "https://chrissscratch.table.core.windows.net/$metadata#Tables/@Element",
        "TableName": "testtabler737z72g"
      }
    },
    {
      "RequestUri": "https://chrissscratch.table.core.windows.net/?sv=2019-02-02\u0026ss=t\u0026srt=s\u0026se=2040-01-01T01%3A01%3A00Z\u0026sp=rwdlau\u0026sig=Sanitized\u0026restype=service\u0026comp=properties",
      "RequestMethod": "GET",
      "RequestHeaders": {
        "traceparent": "00-b59cff2f3a9dc44ba6aa94f6957f8fd1-7982a7813e069d4b-00",
        "User-Agent": [
          "azsdk-net-Data.Tables/1.0.0-dev.20200819.1",
          "(.NET Core 4.6.29130.01; Microsoft Windows 10.0.18363 )"
        ],
        "x-ms-client-request-id": "5cd7f617eba5394a1dfa4014a9c83e57",
        "x-ms-return-client-request-id": "true",
        "x-ms-version": "2019-02-02"
      },
      "RequestBody": null,
      "StatusCode": 200,
      "ResponseHeaders": {
        "Content-Type": "application/xml",
        "Date": "Wed, 19 Aug 2020 13:49:12 GMT",
        "Server": [
          "Windows-Azure-Table/1.0",
          "Microsoft-HTTPAPI/2.0"
        ],
        "Transfer-Encoding": "chunked",
        "x-ms-client-request-id": "5cd7f617eba5394a1dfa4014a9c83e57",
        "x-ms-request-id": "01e92d59-4002-0005-062f-763097000000",
        "x-ms-version": "2019-02-02"
      },
      "ResponseBody": "\uFEFF\u003C?xml version=\u00221.0\u0022 encoding=\u0022utf-8\u0022?\u003E\u003CStorageServiceProperties\u003E\u003CLogging\u003E\u003CVersion\u003E1.0\u003C/Version\u003E\u003CRead\u003Etrue\u003C/Read\u003E\u003CWrite\u003Efalse\u003C/Write\u003E\u003CDelete\u003Efalse\u003C/Delete\u003E\u003CRetentionPolicy\u003E\u003CEnabled\u003Efalse\u003C/Enabled\u003E\u003C/RetentionPolicy\u003E\u003C/Logging\u003E\u003CHourMetrics\u003E\u003CVersion\u003E1.0\u003C/Version\u003E\u003CEnabled\u003Etrue\u003C/Enabled\u003E\u003CIncludeAPIs\u003Etrue\u003C/IncludeAPIs\u003E\u003CRetentionPolicy\u003E\u003CEnabled\u003Etrue\u003C/Enabled\u003E\u003CDays\u003E7\u003C/Days\u003E\u003C/RetentionPolicy\u003E\u003C/HourMetrics\u003E\u003CMinuteMetrics\u003E\u003CVersion\u003E1.0\u003C/Version\u003E\u003CEnabled\u003Efalse\u003C/Enabled\u003E\u003CRetentionPolicy\u003E\u003CEnabled\u003Efalse\u003C/Enabled\u003E\u003C/RetentionPolicy\u003E\u003C/MinuteMetrics\u003E\u003CCors /\u003E\u003C/StorageServiceProperties\u003E"
    },
    {
      "RequestUri": "https://chrissscratch.table.core.windows.net/?sv=2019-02-02\u0026ss=t\u0026srt=s\u0026se=2040-01-01T01%3A01%3A00Z\u0026sp=rwdlau\u0026sig=Sanitized\u0026restype=service\u0026comp=properties",
      "RequestMethod": "GET",
      "RequestHeaders": {
        "traceparent": "00-f224b5591430bf45b89f5c0c6c6ced7a-4b91d273ba0d814e-00",
        "User-Agent": [
          "azsdk-net-Data.Tables/1.0.0-dev.20200819.1",
          "(.NET Core 4.6.29130.01; Microsoft Windows 10.0.18363 )"
        ],
        "x-ms-client-request-id": "62062373346f40967668d3a19f368739",
        "x-ms-return-client-request-id": "true",
        "x-ms-version": "2019-02-02"
      },
      "RequestBody": null,
      "StatusCode": 200,
      "ResponseHeaders": {
        "Content-Type": "application/xml",
        "Date": "Wed, 19 Aug 2020 13:49:12 GMT",
        "Server": [
          "Windows-Azure-Table/1.0",
          "Microsoft-HTTPAPI/2.0"
        ],
        "Transfer-Encoding": "chunked",
        "x-ms-client-request-id": "62062373346f40967668d3a19f368739",
        "x-ms-request-id": "01e92d62-4002-0005-0f2f-763097000000",
        "x-ms-version": "2019-02-02"
      },
      "ResponseBody": "\uFEFF\u003C?xml version=\u00221.0\u0022 encoding=\u0022utf-8\u0022?\u003E\u003CStorageServiceProperties\u003E\u003CLogging\u003E\u003CVersion\u003E1.0\u003C/Version\u003E\u003CRead\u003Etrue\u003C/Read\u003E\u003CWrite\u003Efalse\u003C/Write\u003E\u003CDelete\u003Efalse\u003C/Delete\u003E\u003CRetentionPolicy\u003E\u003CEnabled\u003Efalse\u003C/Enabled\u003E\u003C/RetentionPolicy\u003E\u003C/Logging\u003E\u003CHourMetrics\u003E\u003CVersion\u003E1.0\u003C/Version\u003E\u003CEnabled\u003Etrue\u003C/Enabled\u003E\u003CIncludeAPIs\u003Etrue\u003C/IncludeAPIs\u003E\u003CRetentionPolicy\u003E\u003CEnabled\u003Etrue\u003C/Enabled\u003E\u003CDays\u003E7\u003C/Days\u003E\u003C/RetentionPolicy\u003E\u003C/HourMetrics\u003E\u003CMinuteMetrics\u003E\u003CVersion\u003E1.0\u003C/Version\u003E\u003CEnabled\u003Efalse\u003C/Enabled\u003E\u003CRetentionPolicy\u003E\u003CEnabled\u003Efalse\u003C/Enabled\u003E\u003C/RetentionPolicy\u003E\u003C/MinuteMetrics\u003E\u003CCors /\u003E\u003C/StorageServiceProperties\u003E"
    },
    {
      "RequestUri": "https://chrissscratch.table.core.windows.net/Tables(\u0027testtabler737z72g\u0027)?sv=2019-02-02\u0026ss=t\u0026srt=sc\u0026se=2040-01-01T01%3A01%3A00Z\u0026sp=rwdlau\u0026sig=Sanitized",
      "RequestMethod": "DELETE",
      "RequestHeaders": {
        "Accept": "application/json",
        "traceparent": "00-853bf235be40804ca443a50a342745a6-a9b20913ab87bb4e-00",
        "User-Agent": [
          "azsdk-net-Data.Tables/1.0.0-dev.20200819.1",
          "(.NET Core 4.6.29130.01; Microsoft Windows 10.0.18363 )"
        ],
        "x-ms-client-request-id": "9f30aef17ca9d8b90c548eb0f8c84a94",
        "x-ms-return-client-request-id": "true",
        "x-ms-version": "2019-02-02"
      },
      "RequestBody": null,
      "StatusCode": 204,
      "ResponseHeaders": {
        "Cache-Control": "no-cache",
        "Content-Length": "0",
        "Date": "Wed, 19 Aug 2020 13:49:12 GMT",
        "Server": [
          "Windows-Azure-Table/1.0",
          "Microsoft-HTTPAPI/2.0"
        ],
        "X-Content-Type-Options": "nosniff",
        "x-ms-client-request-id": "9f30aef17ca9d8b90c548eb0f8c84a94",
        "x-ms-request-id": "01e92d72-4002-0005-1f2f-763097000000",
        "x-ms-version": "2019-02-02"
      },
      "ResponseBody": []
    },
    {
      "RequestUri": "https://chrissprim.table.cosmos.azure.com/Tables(\u0027testtablexioo1bjy\u0027)",
      "RequestMethod": "DELETE",
      "RequestHeaders": {
        "Accept": "application/json",
        "Authorization": "Sanitized",
        "traceparent": "00-65e1a50d811ec94fbc4a6e7d38204404-9e4e9fae9d0d104e-00",
        "User-Agent": [
          "azsdk-net-Data.Tables/1.0.0-dev.20200819.1",
          "(.NET Core 4.6.29130.01; Microsoft Windows 10.0.18363 )"
        ],
        "x-ms-client-request-id": "78e32eddad20e36d5f96e53d17a99ae6",
        "x-ms-date": "Wed, 19 Aug 2020 13:49:13 GMT",
        "x-ms-return-client-request-id": "true",
        "x-ms-version": "2019-02-02"
      },
      "RequestBody": null,
      "StatusCode": 204,
      "ResponseHeaders": {
        "Content-Length": "0",
        "Date": "Wed, 19 Aug 2020 13:49:12 GMT",
        "Server": "Microsoft-HTTPAPI/2.0",
        "x-ms-request-id": "78e32edd-ad20-e36d-5f96-e53d17a99ae6"
      },
      "ResponseBody": []
    }
  ],
  "Variables": {
    "RandomSeed": "1679606698",
    "TABLES_COSMOS_ACCOUNT_NAME": "chrissprim",
    "TABLES_PRIMARY_COSMOS_ACCOUNT_KEY": "",
    "TABLES_PRIMARY_STORAGE_ACCOUNT_KEY": "",
    "TABLES_STORAGE_ACCOUNT_NAME": "chrissscratch"
  }
}