{
  "Entries": [
    {
      "RequestUri": "https://seanmcccanary.file.core.windows.net/test-share-71d16a0c-2440-9daa-a117-18b610147170?restype=share",
      "RequestMethod": "PUT",
      "RequestHeaders": {
        "Authorization": "Sanitized",
        "traceparent": "00-7186f2f825c806489db05ba56e8e8259-3cad60f1ada8b94b-00",
        "User-Agent": [
          "azsdk-net-Storage.Files.Shares/12.3.0-dev.20200625.1",
          "(.NET Core 4.6.28801.04; Microsoft Windows 10.0.18362 )"
        ],
        "x-ms-client-request-id": "d6e85764-02f7-43b0-5eff-2def36be942d",
        "x-ms-date": "Fri, 26 Jun 2020 01:35:45 GMT",
        "x-ms-return-client-request-id": "true",
        "x-ms-version": "2019-12-12"
      },
      "RequestBody": null,
      "StatusCode": 201,
      "ResponseHeaders": {
        "Content-Length": "0",
        "Date": "Fri, 26 Jun 2020 01:35:45 GMT",
        "ETag": "\u00220x8D819713F6CC11D\u0022",
        "Last-Modified": "Fri, 26 Jun 2020 01:35:45 GMT",
        "Server": [
          "Windows-Azure-File/1.0",
          "Microsoft-HTTPAPI/2.0"
        ],
        "x-ms-client-request-id": "d6e85764-02f7-43b0-5eff-2def36be942d",
        "x-ms-request-id": "9e007fba-001a-004b-1e5a-4bb1f3000000",
        "x-ms-version": "2019-12-12"
      },
      "ResponseBody": []
    },
    {
      "RequestUri": "https://seanmcccanary.file.core.windows.net/test-share-71d16a0c-2440-9daa-a117-18b610147170?restype=share\u0026comp=snapshot",
      "RequestMethod": "PUT",
      "RequestHeaders": {
        "Authorization": "Sanitized",
        "traceparent": "00-5d3b94f4b5894b4d91be1cfbf8df512a-f7ecddc88ec8f143-00",
        "User-Agent": [
          "azsdk-net-Storage.Files.Shares/12.3.0-dev.20200625.1",
          "(.NET Core 4.6.28801.04; Microsoft Windows 10.0.18362 )"
        ],
        "x-ms-client-request-id": "b85148d6-9a2c-4178-72ca-f61df833f824",
        "x-ms-date": "Fri, 26 Jun 2020 01:35:45 GMT",
        "x-ms-return-client-request-id": "true",
        "x-ms-version": "2019-12-12"
      },
      "RequestBody": null,
      "StatusCode": 201,
      "ResponseHeaders": {
        "Content-Length": "0",
        "Date": "Fri, 26 Jun 2020 01:35:45 GMT",
        "ETag": "\u00220x8D819713F6CC11D\u0022",
        "Last-Modified": "Fri, 26 Jun 2020 01:35:45 GMT",
        "Server": [
          "Windows-Azure-File/1.0",
          "Microsoft-HTTPAPI/2.0"
        ],
        "x-ms-client-request-id": "b85148d6-9a2c-4178-72ca-f61df833f824",
        "x-ms-request-id": "9e007fbd-001a-004b-1f5a-4bb1f3000000",
        "x-ms-snapshot": "2020-06-26T01:35:45.0000000Z",
        "x-ms-version": "2019-12-12"
      },
      "ResponseBody": []
    },
    {
      "RequestUri": "https://seanmcccanary.file.core.windows.net/test-share-71d16a0c-2440-9daa-a117-18b610147170?sharesnapshot=2020-06-26T01:35:45.0000000Z\u0026restype=share",
      "RequestMethod": "GET",
      "RequestHeaders": {
        "Authorization": "Sanitized",
        "traceparent": "00-e3396f5a28d6ef4fa61c095a68374778-6c2c0fb9934ba646-00",
        "User-Agent": [
          "azsdk-net-Storage.Files.Shares/12.3.0-dev.20200625.1",
          "(.NET Core 4.6.28801.04; Microsoft Windows 10.0.18362 )"
        ],
        "x-ms-client-request-id": "ed18b5bb-dc6d-9201-a5fe-2b007cd7ed13",
        "x-ms-date": "Fri, 26 Jun 2020 01:35:45 GMT",
        "x-ms-return-client-request-id": "true",
        "x-ms-version": "2019-12-12"
      },
      "RequestBody": null,
      "StatusCode": 200,
      "ResponseHeaders": {
        "Content-Length": "0",
        "Date": "Fri, 26 Jun 2020 01:35:45 GMT",
        "ETag": "\u00220x8D819713F6CC11D\u0022",
        "Last-Modified": "Fri, 26 Jun 2020 01:35:45 GMT",
        "Server": [
          "Windows-Azure-File/1.0",
          "Microsoft-HTTPAPI/2.0"
        ],
        "x-ms-access-tier": "TransactionOptimized",
        "x-ms-access-tier-change-time": "6/26/2020 1:35:45 AM",
        "x-ms-client-request-id": "ed18b5bb-dc6d-9201-a5fe-2b007cd7ed13",
        "x-ms-has-immutability-policy": "false",
        "x-ms-has-legal-hold": "false",
        "x-ms-request-id": "9e007fbe-001a-004b-205a-4bb1f3000000",
        "x-ms-share-quota": "5120",
        "x-ms-version": "2019-12-12"
      },
      "ResponseBody": []
    },
    {
      "RequestUri": "https://seanmcccanary.file.core.windows.net/test-share-71d16a0c-2440-9daa-a117-18b610147170?restype=share",
      "RequestMethod": "DELETE",
      "RequestHeaders": {
        "Authorization": "Sanitized",
        "traceparent": "00-71d9e7b60157f047868d4726c88c3b03-8e56be73dc045341-00",
        "User-Agent": [
          "azsdk-net-Storage.Files.Shares/12.3.0-dev.20200625.1",
          "(.NET Core 4.6.28801.04; Microsoft Windows 10.0.18362 )"
        ],
        "x-ms-client-request-id": "43615a15-0a1b-b5b7-6628-95ea7703748c",
        "x-ms-date": "Fri, 26 Jun 2020 01:35:45 GMT",
        "x-ms-delete-snapshots": "include",
        "x-ms-return-client-request-id": "true",
        "x-ms-version": "2019-12-12"
      },
      "RequestBody": null,
      "StatusCode": 202,
      "ResponseHeaders": {
        "Content-Length": "0",
        "Date": "Fri, 26 Jun 2020 01:35:45 GMT",
        "Server": [
          "Windows-Azure-File/1.0",
          "Microsoft-HTTPAPI/2.0"
        ],
        "x-ms-client-request-id": "43615a15-0a1b-b5b7-6628-95ea7703748c",
        "x-ms-request-id": "9e007fc0-001a-004b-215a-4bb1f3000000",
        "x-ms-version": "2019-12-12"
      },
      "ResponseBody": []
    }
  ],
  "Variables": {
    "RandomSeed": "1016722739",
    "Storage_TestConfigDefault": "ProductionTenant\nseanmcccanary\nU2FuaXRpemVk\nhttps://seanmcccanary.blob.core.windows.net\nhttps://seanmcccanary.file.core.windows.net\nhttps://seanmcccanary.queue.core.windows.net\nhttps://seanmcccanary.table.core.windows.net\n\n\n\n\nhttps://seanmcccanary-secondary.blob.core.windows.net\nhttps://seanmcccanary-secondary.file.core.windows.net\nhttps://seanmcccanary-secondary.queue.core.windows.net\nhttps://seanmcccanary-secondary.table.core.windows.net\n\nSanitized\n\n\nCloud\nBlobEndpoint=https://seanmcccanary.blob.core.windows.net/;QueueEndpoint=https://seanmcccanary.queue.core.windows.net/;FileEndpoint=https://seanmcccanary.file.core.windows.net/;BlobSecondaryEndpoint=https://seanmcccanary-secondary.blob.core.windows.net/;QueueSecondaryEndpoint=https://seanmcccanary-secondary.queue.core.windows.net/;FileSecondaryEndpoint=https://seanmcccanary-secondary.file.core.windows.net/;AccountName=seanmcccanary;AccountKey=Sanitized\nseanscope1"
  }
}