{
  "Entries": [
    {
      "RequestUri": "https://FakeHost.net/configurations/configlifecycle1515223539?api-version=2020-03-13",
      "RequestMethod": "PUT",
      "RequestHeaders": {
        "Authorization": "Sanitized",
        "Content-Length": "232",
        "Content-Type": "application/json",
        "If-Match": "\u0022\u0022",
        "User-Agent": [
          "azsdk-net-Iot.Hub.Service/1.0.0-dev.20200820.1",
          "(.NET Core 4.6.28516.03; Microsoft Windows 10.0.18363 )"
        ],
        "x-ms-client-request-id": "c6c92b346282493b8ef0e2f77c368d3f",
        "x-ms-return-client-request-id": "true"
      },
      "RequestBody": {
        "id": "configlifecycle1515223539",
        "labels": {
          "HostPlatform": "SomeValue"
        },
        "content": {
          "deviceContent": {
            "properties.desired.deviceContent_key": "deviceContent_value-configlifecycle1515223539"
          }
        },
        "targetCondition": "*",
        "priority": 580374961
      },
      "StatusCode": 200,
      "ResponseHeaders": {
        "Content-Length": "611",
        "Content-Type": "application/json; charset=utf-8",
        "Date": "Thu, 20 Aug 2020 21:44:50 GMT",
        "ETag": "\u0022MQ==\u0022",
        "Server": "Microsoft-HTTPAPI/2.0",
        "Vary": "Origin",
        "x-ms-request-id": "80b0e6ab-c9cc-49e0-8ef0-74de4c11d578"
      },
      "ResponseBody": {
        "id": "configlifecycle1515223539",
        "schemaVersion": null,
        "labels": {
          "HostPlatform": "SomeValue"
        },
        "content": {
          "deviceContent": {
            "properties.desired.deviceContent_key": "deviceContent_value-configlifecycle1515223539"
          }
        },
        "targetCondition": "*",
        "createdTimeUtc": "2020-08-20T21:44:50.7461071Z",
        "lastUpdatedTimeUtc": "2020-08-20T21:44:50.7461071Z",
        "priority": 580374961,
        "systemMetrics": {
          "results": {},
          "queries": {
            "targetedCount": "select deviceId from devices",
            "appliedCount": "select deviceId from devices where configurations.[[configlifecycle1515223539]].status = \u0027Applied\u0027"
          }
        },
        "metrics": {
          "results": {},
          "queries": {}
        },
        "etag": "MQ=="
      }
    },
    {
      "RequestUri": "https://FakeHost.net/configurations/configlifecycle1515223539?api-version=2020-03-13",
      "RequestMethod": "GET",
      "RequestHeaders": {
        "Authorization": "Sanitized",
        "User-Agent": [
          "azsdk-net-Iot.Hub.Service/1.0.0-dev.20200820.1",
          "(.NET Core 4.6.28516.03; Microsoft Windows 10.0.18363 )"
        ],
        "x-ms-client-request-id": "2f87e562a2d8aeaeecfb6851bae4071b",
        "x-ms-return-client-request-id": "true"
      },
      "RequestBody": null,
      "StatusCode": 200,
      "ResponseHeaders": {
        "Content-Length": "611",
        "Content-Type": "application/json; charset=utf-8",
        "Date": "Thu, 20 Aug 2020 21:44:50 GMT",
        "ETag": "\u0022MQ==\u0022",
        "Server": "Microsoft-HTTPAPI/2.0",
        "Vary": "Origin",
        "x-ms-request-id": "33800278-8757-4d8b-b392-920cc8473b7f"
      },
      "ResponseBody": {
        "id": "configlifecycle1515223539",
        "schemaVersion": null,
        "labels": {
          "HostPlatform": "SomeValue"
        },
        "content": {
          "deviceContent": {
            "properties.desired.deviceContent_key": "deviceContent_value-configlifecycle1515223539"
          }
        },
        "targetCondition": "*",
        "createdTimeUtc": "2020-08-20T21:44:50.7461071Z",
        "lastUpdatedTimeUtc": "2020-08-20T21:44:50.7461071Z",
        "priority": 580374961,
        "systemMetrics": {
          "results": {},
          "queries": {
            "targetedCount": "select deviceId from devices",
            "appliedCount": "select deviceId from devices where configurations.[[configlifecycle1515223539]].status = \u0027Applied\u0027"
          }
        },
        "metrics": {
          "results": {},
          "queries": {}
        },
        "etag": "MQ=="
      }
    },
    {
      "RequestUri": "https://FakeHost.net/configurations/configlifecycle1515223539?api-version=2020-03-13",
      "RequestMethod": "PUT",
      "RequestHeaders": {
        "Authorization": "Sanitized",
        "Content-Length": "590",
        "Content-Type": "application/json",
        "If-Match": "*",
        "User-Agent": [
          "azsdk-net-Iot.Hub.Service/1.0.0-dev.20200820.1",
          "(.NET Core 4.6.28516.03; Microsoft Windows 10.0.18363 )"
        ],
        "x-ms-client-request-id": "adbef2d27ee86dee19b3331aa1647118",
        "x-ms-return-client-request-id": "true"
      },
      "RequestBody": "{\u0022id\u0022:\u0022configlifecycle1515223539\u0022,\u0022labels\u0022:{\u0022HostPlatform\u0022:\u0022SomeValue\u0022},\u0022content\u0022:{\u0022deviceContent\u0022:{\u0022properties.desired.deviceContent_key\u0022:\u0022deviceContent_value-configlifecycle1515223539\u0022}},\u0022targetCondition\u0022:\u0022*\u0022,\u0022createdTimeUtc\u0022:\u00222020-08-20T21:44:50.7461071Z\u0022,\u0022lastUpdatedTimeUtc\u0022:\u00222020-08-20T21:44:50.7461071Z\u0022,\u0022priority\u0022:776174701,\u0022systemMetrics\u0022:{\u0022results\u0022:{},\u0022queries\u0022:{\u0022targetedCount\u0022:\u0022select deviceId from devices\u0022,\u0022appliedCount\u0022:\u0022select deviceId from devices where configurations.[[configlifecycle1515223539]].status = \u0027Applied\u0027\u0022}},\u0022metrics\u0022:{\u0022results\u0022:{},\u0022queries\u0022:{}},\u0022etag\u0022:\u0022MQ==\u0022}",
      "StatusCode": 200,
      "ResponseHeaders": {
        "Content-Length": "611",
        "Content-Type": "application/json; charset=utf-8",
        "Date": "Thu, 20 Aug 2020 21:44:50 GMT",
        "ETag": "\u0022Mg==\u0022",
        "Server": "Microsoft-HTTPAPI/2.0",
        "Vary": "Origin",
        "x-ms-request-id": "cef13af2-0f68-4c8d-aa52-86612bf2f9b8"
      },
      "ResponseBody": {
        "id": "configlifecycle1515223539",
        "schemaVersion": null,
        "labels": {
          "HostPlatform": "SomeValue"
        },
        "content": {
          "deviceContent": {
            "properties.desired.deviceContent_key": "deviceContent_value-configlifecycle1515223539"
          }
        },
        "targetCondition": "*",
        "createdTimeUtc": "2020-08-20T21:44:50.7461071Z",
        "lastUpdatedTimeUtc": "2020-08-20T21:44:50.8165569Z",
        "priority": 776174701,
        "systemMetrics": {
          "results": {},
          "queries": {
            "targetedCount": "select deviceId from devices",
            "appliedCount": "select deviceId from devices where configurations.[[configlifecycle1515223539]].status = \u0027Applied\u0027"
          }
        },
        "metrics": {
          "results": {},
          "queries": {}
        },
        "etag": "Mg=="
      }
    },
    {
      "RequestUri": "https://FakeHost.net/configurations/configlifecycle1515223539?api-version=2020-03-13",
      "RequestMethod": "DELETE",
      "RequestHeaders": {
        "Authorization": "Sanitized",
        "If-Match": "*",
        "User-Agent": [
          "azsdk-net-Iot.Hub.Service/1.0.0-dev.20200820.1",
          "(.NET Core 4.6.28516.03; Microsoft Windows 10.0.18363 )"
        ],
        "x-ms-client-request-id": "061433eb3d6b91d87c1ad987faea8faa",
        "x-ms-return-client-request-id": "true"
      },
      "RequestBody": null,
      "StatusCode": 204,
      "ResponseHeaders": {
        "Content-Length": "0",
        "Date": "Thu, 20 Aug 2020 21:44:50 GMT",
        "Server": "Microsoft-HTTPAPI/2.0",
        "Vary": "Origin",
        "x-ms-request-id": "0ed5de63-42b8-4ea9-bd46-497a6dc8afda"
      },
      "ResponseBody": []
    }
  ],
  "Variables": {
    "IOT_HUB_CONNECTION_STRING": "HostName=FakeHost.net;SharedAccessKeyName=iothubowner;SharedAccessKey=Kg==",
    "RandomSeed": "217352004"
  }
}