{
  "Entries": [
    {
      "RequestUri": "https://FakeHost.net/configurations/configlifecycle410659325?api-version=2020-03-13",
      "RequestMethod": "PUT",
      "RequestHeaders": {
        "Authorization": "Sanitized",
        "Content-Length": "230",
        "Content-Type": "application/json",
        "If-Match": "\u0022\u0022",
        "User-Agent": [
          "azsdk-net-Iot.Hub.Service/1.0.0-dev.20200820.1",
          "(.NET Core 4.6.28516.03; Microsoft Windows 10.0.18363 )"
        ],
        "x-ms-client-request-id": "a55ee7c70a2a95129ff02b619adb64c2",
        "x-ms-return-client-request-id": "true"
      },
      "RequestBody": {
        "id": "configlifecycle410659325",
        "labels": {
          "HostPlatform": "SomeValue"
        },
        "content": {
          "deviceContent": {
            "properties.desired.deviceContent_key": "deviceContent_value-configlifecycle410659325"
          }
        },
        "targetCondition": "*",
        "priority": 565659747
      },
      "StatusCode": 200,
      "ResponseHeaders": {
        "Content-Length": "608",
        "Content-Type": "application/json; charset=utf-8",
        "Date": "Thu, 20 Aug 2020 21:44:50 GMT",
        "ETag": "\u0022MQ==\u0022",
        "Server": "Microsoft-HTTPAPI/2.0",
        "Vary": "Origin",
        "x-ms-request-id": "ee54bda9-c453-4e13-b612-4c56284a076a"
      },
      "ResponseBody": {
        "id": "configlifecycle410659325",
        "schemaVersion": null,
        "labels": {
          "HostPlatform": "SomeValue"
        },
        "content": {
          "deviceContent": {
            "properties.desired.deviceContent_key": "deviceContent_value-configlifecycle410659325"
          }
        },
        "targetCondition": "*",
        "createdTimeUtc": "2020-08-20T21:44:50.7565593Z",
        "lastUpdatedTimeUtc": "2020-08-20T21:44:50.7565593Z",
        "priority": 565659747,
        "systemMetrics": {
          "results": {},
          "queries": {
            "targetedCount": "select deviceId from devices",
            "appliedCount": "select deviceId from devices where configurations.[[configlifecycle410659325]].status = \u0027Applied\u0027"
          }
        },
        "metrics": {
          "results": {},
          "queries": {}
        },
        "etag": "MQ=="
      }
    },
    {
      "RequestUri": "https://FakeHost.net/configurations/configlifecycle410659325?api-version=2020-03-13",
      "RequestMethod": "GET",
      "RequestHeaders": {
        "Authorization": "Sanitized",
        "User-Agent": [
          "azsdk-net-Iot.Hub.Service/1.0.0-dev.20200820.1",
          "(.NET Core 4.6.28516.03; Microsoft Windows 10.0.18363 )"
        ],
        "x-ms-client-request-id": "161f9779a49eaee08e7eb14fd06c966a",
        "x-ms-return-client-request-id": "true"
      },
      "RequestBody": null,
      "StatusCode": 200,
      "ResponseHeaders": {
        "Content-Length": "608",
        "Content-Type": "application/json; charset=utf-8",
        "Date": "Thu, 20 Aug 2020 21:44:50 GMT",
        "ETag": "\u0022MQ==\u0022",
        "Server": "Microsoft-HTTPAPI/2.0",
        "Vary": "Origin",
        "x-ms-request-id": "6646df0b-c09d-418c-9eda-254ef153814d"
      },
      "ResponseBody": {
        "id": "configlifecycle410659325",
        "schemaVersion": null,
        "labels": {
          "HostPlatform": "SomeValue"
        },
        "content": {
          "deviceContent": {
            "properties.desired.deviceContent_key": "deviceContent_value-configlifecycle410659325"
          }
        },
        "targetCondition": "*",
        "createdTimeUtc": "2020-08-20T21:44:50.7565593Z",
        "lastUpdatedTimeUtc": "2020-08-20T21:44:50.7565593Z",
        "priority": 565659747,
        "systemMetrics": {
          "results": {},
          "queries": {
            "targetedCount": "select deviceId from devices",
            "appliedCount": "select deviceId from devices where configurations.[[configlifecycle410659325]].status = \u0027Applied\u0027"
          }
        },
        "metrics": {
          "results": {},
          "queries": {}
        },
        "etag": "MQ=="
      }
    },
    {
      "RequestUri": "https://FakeHost.net/configurations/configlifecycle410659325?api-version=2020-03-13",
      "RequestMethod": "PUT",
      "RequestHeaders": {
        "Authorization": "Sanitized",
        "Content-Length": "588",
        "Content-Type": "application/json",
        "If-Match": "*",
        "User-Agent": [
          "azsdk-net-Iot.Hub.Service/1.0.0-dev.20200820.1",
          "(.NET Core 4.6.28516.03; Microsoft Windows 10.0.18363 )"
        ],
        "x-ms-client-request-id": "0977fd2bb1b194416684ee2cc29235d6",
        "x-ms-return-client-request-id": "true"
      },
      "RequestBody": "{\u0022id\u0022:\u0022configlifecycle410659325\u0022,\u0022labels\u0022:{\u0022HostPlatform\u0022:\u0022SomeValue\u0022},\u0022content\u0022:{\u0022deviceContent\u0022:{\u0022properties.desired.deviceContent_key\u0022:\u0022deviceContent_value-configlifecycle410659325\u0022}},\u0022targetCondition\u0022:\u0022*\u0022,\u0022createdTimeUtc\u0022:\u00222020-08-20T21:44:50.7565593Z\u0022,\u0022lastUpdatedTimeUtc\u0022:\u00222020-08-20T21:44:50.7565593Z\u0022,\u0022priority\u0022:2082685974,\u0022systemMetrics\u0022:{\u0022results\u0022:{},\u0022queries\u0022:{\u0022targetedCount\u0022:\u0022select deviceId from devices\u0022,\u0022appliedCount\u0022:\u0022select deviceId from devices where configurations.[[configlifecycle410659325]].status = \u0027Applied\u0027\u0022}},\u0022metrics\u0022:{\u0022results\u0022:{},\u0022queries\u0022:{}},\u0022etag\u0022:\u0022MQ==\u0022}",
      "StatusCode": 200,
      "ResponseHeaders": {
        "Content-Length": "609",
        "Content-Type": "application/json; charset=utf-8",
        "Date": "Thu, 20 Aug 2020 21:44:50 GMT",
        "ETag": "\u0022Mg==\u0022",
        "Server": "Microsoft-HTTPAPI/2.0",
        "Vary": "Origin",
        "x-ms-request-id": "80a77021-d298-4ef0-9e1a-ef4d60a74179"
      },
      "ResponseBody": {
        "id": "configlifecycle410659325",
        "schemaVersion": null,
        "labels": {
          "HostPlatform": "SomeValue"
        },
        "content": {
          "deviceContent": {
            "properties.desired.deviceContent_key": "deviceContent_value-configlifecycle410659325"
          }
        },
        "targetCondition": "*",
        "createdTimeUtc": "2020-08-20T21:44:50.7565593Z",
        "lastUpdatedTimeUtc": "2020-08-20T21:44:50.8361047Z",
        "priority": 2082685974,
        "systemMetrics": {
          "results": {},
          "queries": {
            "targetedCount": "select deviceId from devices",
            "appliedCount": "select deviceId from devices where configurations.[[configlifecycle410659325]].status = \u0027Applied\u0027"
          }
        },
        "metrics": {
          "results": {},
          "queries": {}
        },
        "etag": "Mg=="
      }
    },
    {
      "RequestUri": "https://FakeHost.net/configurations/configlifecycle410659325?api-version=2020-03-13",
      "RequestMethod": "DELETE",
      "RequestHeaders": {
        "Authorization": "Sanitized",
        "If-Match": "*",
        "User-Agent": [
          "azsdk-net-Iot.Hub.Service/1.0.0-dev.20200820.1",
          "(.NET Core 4.6.28516.03; Microsoft Windows 10.0.18363 )"
        ],
        "x-ms-client-request-id": "f2c8fdf700dd23c406b016ab59c3c533",
        "x-ms-return-client-request-id": "true"
      },
      "RequestBody": null,
      "StatusCode": 204,
      "ResponseHeaders": {
        "Content-Length": "0",
        "Date": "Thu, 20 Aug 2020 21:44:50 GMT",
        "Server": "Microsoft-HTTPAPI/2.0",
        "Vary": "Origin",
        "x-ms-request-id": "4b4a4cd4-ebf1-43c9-9ef7-d6216a79ec70"
      },
      "ResponseBody": []
    }
  ],
  "Variables": {
    "IOT_HUB_CONNECTION_STRING": "HostName=FakeHost.net;SharedAccessKeyName=iothubowner;SharedAccessKey=Kg==",
    "RandomSeed": "1472909663"
  }
}