{
  "Entries": [
    {
      "RequestUri": "https://chrissscratch.table.core.windows.net/Tables?$format=application%2Fjson%3Bodata%3Dminimalmetadata",
      "RequestMethod": "POST",
      "RequestHeaders": {
        "Accept": "application/json",
        "Authorization": "Sanitized",
        "Content-Length": "33",
        "Content-Type": "application/json; odata=nometadata",
        "DataServiceVersion": "3.0",
        "traceparent": "00-34ce043201bf144d8fbd1f8828317f16-69ee689bc16dc54d-00",
        "User-Agent": [
          "azsdk-net-Data.Tables/1.0.0-dev.20200821.1",
          "(.NET Core 4.6.29130.01; Microsoft Windows 10.0.18363 )"
        ],
        "x-ms-client-request-id": "a26f29aa8b4d2f4369f558abd8d17e64",
        "x-ms-date": "Fri, 21 Aug 2020 15:54:28 GMT",
        "x-ms-return-client-request-id": "true",
        "x-ms-version": "2019-02-02"
      },
      "RequestBody": {
        "TableName": "testtablehyay63ko"
      },
      "StatusCode": 201,
      "ResponseHeaders": {
        "Cache-Control": "no-cache",
        "Content-Type": "application/json; odata=minimalmetadata; streaming=true; charset=utf-8",
        "Date": "Fri, 21 Aug 2020 15:54:27 GMT",
        "Location": "https://chrissscratch.table.core.windows.net/Tables(\u0027testtablehyay63ko\u0027)",
        "Server": [
          "Windows-Azure-Table/1.0",
          "Microsoft-HTTPAPI/2.0"
        ],
        "Transfer-Encoding": "chunked",
        "X-Content-Type-Options": "nosniff",
        "x-ms-client-request-id": "a26f29aa8b4d2f4369f558abd8d17e64",
        "x-ms-request-id": "f56a7de6-6002-007f-5ad3-775ada000000",
        "x-ms-version": "2019-02-02"
      },
      "ResponseBody": {
        "odata.metadata": "https://chrissscratch.table.core.windows.net/$metadata#Tables/@Element",
        "TableName": "testtablehyay63ko"
      }
    },
    {
      "RequestUri": "https://chrissscratch.table.core.windows.net/testtablehyay63ko?$format=application%2Fjson%3Bodata%3Dminimalmetadata",
      "RequestMethod": "POST",
      "RequestHeaders": {
        "Accept": "application/json",
        "Authorization": "Sanitized",
        "Content-Length": "614",
        "Content-Type": "application/json; odata=nometadata",
        "DataServiceVersion": "3.0",
        "Prefer": "return-no-content",
        "traceparent": "00-0b238a1a9514924fa1a326865792ba1e-73b8436f29ce9a4d-00",
        "User-Agent": [
          "azsdk-net-Data.Tables/1.0.0-dev.20200821.1",
          "(.NET Core 4.6.29130.01; Microsoft Windows 10.0.18363 )"
        ],
        "x-ms-client-request-id": "63f7dcb5ade0f3fc469f576338416ed7",
        "x-ms-date": "Fri, 21 Aug 2020 15:54:28 GMT",
        "x-ms-return-client-request-id": "true",
        "x-ms-version": "2019-02-02"
      },
      "RequestBody": {
        "PartitionKey": "somPartition",
        "RowKey": "01",
        "SomeStringProperty": "This is table entity number 01",
        "SomeDateProperty": "2020-01-01T01:02:00.0000000Z",
        "SomeDateProperty@odata.type": "Edm.DateTime",
        "SomeGuidProperty": "0d391d16-97f1-4b9a-be68-4cc871f90001",
        "SomeGuidProperty@odata.type": "Edm.Guid",
        "SomeBinaryProperty": "AQIDBAU=",
        "SomeBinaryProperty@odata.type": "Edm.Binary",
        "SomeInt64Property": "1",
        "SomeInt64Property@odata.type": "Edm.Int64",
        "SomeDoubleProperty0": 1,
        "SomeDoubleProperty0@odata.type": "Edm.Double",
        "SomeDoubleProperty1": 1.1000000000000001,
        "SomeDoubleProperty1@odata.type": "Edm.Double",
        "SomeIntProperty": 1
      },
      "StatusCode": 204,
      "ResponseHeaders": {
        "Cache-Control": "no-cache",
        "Content-Length": "0",
        "DataServiceId": "https://chrissscratch.table.core.windows.net/testtablehyay63ko(PartitionKey=\u0027somPartition\u0027,RowKey=\u002701\u0027)",
        "Date": "Fri, 21 Aug 2020 15:54:27 GMT",
        "ETag": "W/\u0022datetime\u00272020-08-21T15%3A54%3A28.4744465Z\u0027\u0022",
        "Location": "https://chrissscratch.table.core.windows.net/testtablehyay63ko(PartitionKey=\u0027somPartition\u0027,RowKey=\u002701\u0027)",
        "Preference-Applied": "return-no-content",
        "Server": [
          "Windows-Azure-Table/1.0",
          "Microsoft-HTTPAPI/2.0"
        ],
        "X-Content-Type-Options": "nosniff",
        "x-ms-client-request-id": "63f7dcb5ade0f3fc469f576338416ed7",
        "x-ms-request-id": "f56a7df2-6002-007f-65d3-775ada000000",
        "x-ms-version": "2019-02-02"
      },
      "ResponseBody": []
    },
    {
      "RequestUri": "https://chrissscratch.table.core.windows.net/testtablehyay63ko?$format=application%2Fjson%3Bodata%3Dminimalmetadata",
      "RequestMethod": "POST",
      "RequestHeaders": {
        "Accept": "application/json",
        "Authorization": "Sanitized",
        "Content-Length": "614",
        "Content-Type": "application/json; odata=nometadata",
        "DataServiceVersion": "3.0",
        "Prefer": "return-no-content",
        "traceparent": "00-a4a182432707944a9c45621e22fc7917-c112ae41b2ec9a48-00",
        "User-Agent": [
          "azsdk-net-Data.Tables/1.0.0-dev.20200821.1",
          "(.NET Core 4.6.29130.01; Microsoft Windows 10.0.18363 )"
        ],
        "x-ms-client-request-id": "afae416b6135a329cfed52a03541b8d2",
        "x-ms-date": "Fri, 21 Aug 2020 15:54:28 GMT",
        "x-ms-return-client-request-id": "true",
        "x-ms-version": "2019-02-02"
      },
      "RequestBody": {
        "PartitionKey": "somPartition",
        "RowKey": "02",
        "SomeStringProperty": "This is table entity number 02",
        "SomeDateProperty": "2020-01-01T01:03:00.0000000Z",
        "SomeDateProperty@odata.type": "Edm.DateTime",
        "SomeGuidProperty": "0d391d16-97f1-4b9a-be68-4cc871f90002",
        "SomeGuidProperty@odata.type": "Edm.Guid",
        "SomeBinaryProperty": "AQIDBAU=",
        "SomeBinaryProperty@odata.type": "Edm.Binary",
        "SomeInt64Property": "2",
        "SomeInt64Property@odata.type": "Edm.Int64",
        "SomeDoubleProperty0": 2,
        "SomeDoubleProperty0@odata.type": "Edm.Double",
        "SomeDoubleProperty1": 2.1000000000000001,
        "SomeDoubleProperty1@odata.type": "Edm.Double",
        "SomeIntProperty": 2
      },
      "StatusCode": 204,
      "ResponseHeaders": {
        "Cache-Control": "no-cache",
        "Content-Length": "0",
        "DataServiceId": "https://chrissscratch.table.core.windows.net/testtablehyay63ko(PartitionKey=\u0027somPartition\u0027,RowKey=\u002702\u0027)",
        "Date": "Fri, 21 Aug 2020 15:54:27 GMT",
        "ETag": "W/\u0022datetime\u00272020-08-21T15%3A54%3A28.514479Z\u0027\u0022",
        "Location": "https://chrissscratch.table.core.windows.net/testtablehyay63ko(PartitionKey=\u0027somPartition\u0027,RowKey=\u002702\u0027)",
        "Preference-Applied": "return-no-content",
        "Server": [
          "Windows-Azure-Table/1.0",
          "Microsoft-HTTPAPI/2.0"
        ],
        "X-Content-Type-Options": "nosniff",
        "x-ms-client-request-id": "afae416b6135a329cfed52a03541b8d2",
        "x-ms-request-id": "f56a7dfc-6002-007f-6ed3-775ada000000",
        "x-ms-version": "2019-02-02"
      },
      "ResponseBody": []
    },
    {
      "RequestUri": "https://chrissscratch.table.core.windows.net/testtablehyay63ko?$format=application%2Fjson%3Bodata%3Dminimalmetadata",
      "RequestMethod": "POST",
      "RequestHeaders": {
        "Accept": "application/json",
        "Authorization": "Sanitized",
        "Content-Length": "614",
        "Content-Type": "application/json; odata=nometadata",
        "DataServiceVersion": "3.0",
        "Prefer": "return-no-content",
        "traceparent": "00-ad646b551f0a9748a1d6f1522e92a7af-00ee0d87de28ac48-00",
        "User-Agent": [
          "azsdk-net-Data.Tables/1.0.0-dev.20200821.1",
          "(.NET Core 4.6.29130.01; Microsoft Windows 10.0.18363 )"
        ],
        "x-ms-client-request-id": "71d427361941fc042c7c5cae33dff628",
        "x-ms-date": "Fri, 21 Aug 2020 15:54:28 GMT",
        "x-ms-return-client-request-id": "true",
        "x-ms-version": "2019-02-02"
      },
      "RequestBody": {
        "PartitionKey": "somPartition",
        "RowKey": "03",
        "SomeStringProperty": "This is table entity number 03",
        "SomeDateProperty": "2020-01-01T01:04:00.0000000Z",
        "SomeDateProperty@odata.type": "Edm.DateTime",
        "SomeGuidProperty": "0d391d16-97f1-4b9a-be68-4cc871f90003",
        "SomeGuidProperty@odata.type": "Edm.Guid",
        "SomeBinaryProperty": "AQIDBAU=",
        "SomeBinaryProperty@odata.type": "Edm.Binary",
        "SomeInt64Property": "3",
        "SomeInt64Property@odata.type": "Edm.Int64",
        "SomeDoubleProperty0": 3,
        "SomeDoubleProperty0@odata.type": "Edm.Double",
        "SomeDoubleProperty1": 3.1000000000000001,
        "SomeDoubleProperty1@odata.type": "Edm.Double",
        "SomeIntProperty": 3
      },
      "StatusCode": 204,
      "ResponseHeaders": {
        "Cache-Control": "no-cache",
        "Content-Length": "0",
        "DataServiceId": "https://chrissscratch.table.core.windows.net/testtablehyay63ko(PartitionKey=\u0027somPartition\u0027,RowKey=\u002703\u0027)",
        "Date": "Fri, 21 Aug 2020 15:54:27 GMT",
        "ETag": "W/\u0022datetime\u00272020-08-21T15%3A54%3A28.555514Z\u0027\u0022",
        "Location": "https://chrissscratch.table.core.windows.net/testtablehyay63ko(PartitionKey=\u0027somPartition\u0027,RowKey=\u002703\u0027)",
        "Preference-Applied": "return-no-content",
        "Server": [
          "Windows-Azure-Table/1.0",
          "Microsoft-HTTPAPI/2.0"
        ],
        "X-Content-Type-Options": "nosniff",
        "x-ms-client-request-id": "71d427361941fc042c7c5cae33dff628",
        "x-ms-request-id": "f56a7e03-6002-007f-74d3-775ada000000",
        "x-ms-version": "2019-02-02"
      },
      "ResponseBody": []
    },
    {
      "RequestUri": "https://chrissscratch.table.core.windows.net/testtablehyay63ko?$format=application%2Fjson%3Bodata%3Dminimalmetadata",
      "RequestMethod": "POST",
      "RequestHeaders": {
        "Accept": "application/json",
        "Authorization": "Sanitized",
        "Content-Length": "614",
        "Content-Type": "application/json; odata=nometadata",
        "DataServiceVersion": "3.0",
        "Prefer": "return-no-content",
        "traceparent": "00-732b9c0a93a1054db118ce6d7505c920-bbe008dc28c1b84c-00",
        "User-Agent": [
          "azsdk-net-Data.Tables/1.0.0-dev.20200821.1",
          "(.NET Core 4.6.29130.01; Microsoft Windows 10.0.18363 )"
        ],
        "x-ms-client-request-id": "963f8187cf22532eb35394f25b5bbd04",
        "x-ms-date": "Fri, 21 Aug 2020 15:54:28 GMT",
        "x-ms-return-client-request-id": "true",
        "x-ms-version": "2019-02-02"
      },
      "RequestBody": {
        "PartitionKey": "somPartition",
        "RowKey": "04",
        "SomeStringProperty": "This is table entity number 04",
        "SomeDateProperty": "2020-01-01T01:05:00.0000000Z",
        "SomeDateProperty@odata.type": "Edm.DateTime",
        "SomeGuidProperty": "0d391d16-97f1-4b9a-be68-4cc871f90004",
        "SomeGuidProperty@odata.type": "Edm.Guid",
        "SomeBinaryProperty": "AQIDBAU=",
        "SomeBinaryProperty@odata.type": "Edm.Binary",
        "SomeInt64Property": "4",
        "SomeInt64Property@odata.type": "Edm.Int64",
        "SomeDoubleProperty0": 4,
        "SomeDoubleProperty0@odata.type": "Edm.Double",
        "SomeDoubleProperty1": 4.0999999999999996,
        "SomeDoubleProperty1@odata.type": "Edm.Double",
        "SomeIntProperty": 4
      },
      "StatusCode": 204,
      "ResponseHeaders": {
        "Cache-Control": "no-cache",
        "Content-Length": "0",
        "DataServiceId": "https://chrissscratch.table.core.windows.net/testtablehyay63ko(PartitionKey=\u0027somPartition\u0027,RowKey=\u002704\u0027)",
        "Date": "Fri, 21 Aug 2020 15:54:27 GMT",
        "ETag": "W/\u0022datetime\u00272020-08-21T15%3A54%3A28.6025523Z\u0027\u0022",
        "Location": "https://chrissscratch.table.core.windows.net/testtablehyay63ko(PartitionKey=\u0027somPartition\u0027,RowKey=\u002704\u0027)",
        "Preference-Applied": "return-no-content",
        "Server": [
          "Windows-Azure-Table/1.0",
          "Microsoft-HTTPAPI/2.0"
        ],
        "X-Content-Type-Options": "nosniff",
        "x-ms-client-request-id": "963f8187cf22532eb35394f25b5bbd04",
        "x-ms-request-id": "f56a7e0c-6002-007f-7dd3-775ada000000",
        "x-ms-version": "2019-02-02"
      },
      "ResponseBody": []
    },
    {
      "RequestUri": "https://chrissscratch.table.core.windows.net/testtablehyay63ko?$format=application%2Fjson%3Bodata%3Dminimalmetadata",
      "RequestMethod": "POST",
      "RequestHeaders": {
        "Accept": "application/json",
        "Authorization": "Sanitized",
        "Content-Length": "614",
        "Content-Type": "application/json; odata=nometadata",
        "DataServiceVersion": "3.0",
        "Prefer": "return-no-content",
        "traceparent": "00-b6e5f8fb2b551340be2f4fecf37809bd-a59c35e59f8f0d46-00",
        "User-Agent": [
          "azsdk-net-Data.Tables/1.0.0-dev.20200821.1",
          "(.NET Core 4.6.29130.01; Microsoft Windows 10.0.18363 )"
        ],
        "x-ms-client-request-id": "102c85e6fd6c52953db282b9057b70ef",
        "x-ms-date": "Fri, 21 Aug 2020 15:54:28 GMT",
        "x-ms-return-client-request-id": "true",
        "x-ms-version": "2019-02-02"
      },
      "RequestBody": {
        "PartitionKey": "somPartition",
        "RowKey": "05",
        "SomeStringProperty": "This is table entity number 05",
        "SomeDateProperty": "2020-01-01T01:06:00.0000000Z",
        "SomeDateProperty@odata.type": "Edm.DateTime",
        "SomeGuidProperty": "0d391d16-97f1-4b9a-be68-4cc871f90005",
        "SomeGuidProperty@odata.type": "Edm.Guid",
        "SomeBinaryProperty": "AQIDBAU=",
        "SomeBinaryProperty@odata.type": "Edm.Binary",
        "SomeInt64Property": "5",
        "SomeInt64Property@odata.type": "Edm.Int64",
        "SomeDoubleProperty0": 5,
        "SomeDoubleProperty0@odata.type": "Edm.Double",
        "SomeDoubleProperty1": 5.0999999999999996,
        "SomeDoubleProperty1@odata.type": "Edm.Double",
        "SomeIntProperty": 5
      },
      "StatusCode": 204,
      "ResponseHeaders": {
        "Cache-Control": "no-cache",
        "Content-Length": "0",
        "DataServiceId": "https://chrissscratch.table.core.windows.net/testtablehyay63ko(PartitionKey=\u0027somPartition\u0027,RowKey=\u002705\u0027)",
        "Date": "Fri, 21 Aug 2020 15:54:27 GMT",
        "ETag": "W/\u0022datetime\u00272020-08-21T15%3A54%3A28.657598Z\u0027\u0022",
        "Location": "https://chrissscratch.table.core.windows.net/testtablehyay63ko(PartitionKey=\u0027somPartition\u0027,RowKey=\u002705\u0027)",
        "Preference-Applied": "return-no-content",
        "Server": [
          "Windows-Azure-Table/1.0",
          "Microsoft-HTTPAPI/2.0"
        ],
        "X-Content-Type-Options": "nosniff",
        "x-ms-client-request-id": "102c85e6fd6c52953db282b9057b70ef",
        "x-ms-request-id": "f56a7e19-6002-007f-0ad3-775ada000000",
        "x-ms-version": "2019-02-02"
      },
      "ResponseBody": []
    },
    {
      "RequestUri": "https://chrissscratch.table.core.windows.net/testtablehyay63ko?$format=application%2Fjson%3Bodata%3Dminimalmetadata",
      "RequestMethod": "POST",
      "RequestHeaders": {
        "Accept": "application/json",
        "Authorization": "Sanitized",
        "Content-Length": "614",
        "Content-Type": "application/json; odata=nometadata",
        "DataServiceVersion": "3.0",
        "Prefer": "return-no-content",
        "traceparent": "00-b4a2b2e5f8f0bf419bf7cfd330f65c1b-d6c71e042ba9b745-00",
        "User-Agent": [
          "azsdk-net-Data.Tables/1.0.0-dev.20200821.1",
          "(.NET Core 4.6.29130.01; Microsoft Windows 10.0.18363 )"
        ],
        "x-ms-client-request-id": "b3192af7210267aff981beee8411a0d0",
        "x-ms-date": "Fri, 21 Aug 2020 15:54:28 GMT",
        "x-ms-return-client-request-id": "true",
        "x-ms-version": "2019-02-02"
      },
      "RequestBody": {
        "PartitionKey": "somPartition",
        "RowKey": "06",
        "SomeStringProperty": "This is table entity number 06",
        "SomeDateProperty": "2020-01-01T01:07:00.0000000Z",
        "SomeDateProperty@odata.type": "Edm.DateTime",
        "SomeGuidProperty": "0d391d16-97f1-4b9a-be68-4cc871f90006",
        "SomeGuidProperty@odata.type": "Edm.Guid",
        "SomeBinaryProperty": "AQIDBAU=",
        "SomeBinaryProperty@odata.type": "Edm.Binary",
        "SomeInt64Property": "6",
        "SomeInt64Property@odata.type": "Edm.Int64",
        "SomeDoubleProperty0": 6,
        "SomeDoubleProperty0@odata.type": "Edm.Double",
        "SomeDoubleProperty1": 6.0999999999999996,
        "SomeDoubleProperty1@odata.type": "Edm.Double",
        "SomeIntProperty": 6
      },
      "StatusCode": 204,
      "ResponseHeaders": {
        "Cache-Control": "no-cache",
        "Content-Length": "0",
        "DataServiceId": "https://chrissscratch.table.core.windows.net/testtablehyay63ko(PartitionKey=\u0027somPartition\u0027,RowKey=\u002706\u0027)",
        "Date": "Fri, 21 Aug 2020 15:54:27 GMT",
        "ETag": "W/\u0022datetime\u00272020-08-21T15%3A54%3A28.7046372Z\u0027\u0022",
        "Location": "https://chrissscratch.table.core.windows.net/testtablehyay63ko(PartitionKey=\u0027somPartition\u0027,RowKey=\u002706\u0027)",
        "Preference-Applied": "return-no-content",
        "Server": [
          "Windows-Azure-Table/1.0",
          "Microsoft-HTTPAPI/2.0"
        ],
        "X-Content-Type-Options": "nosniff",
        "x-ms-client-request-id": "b3192af7210267aff981beee8411a0d0",
        "x-ms-request-id": "f56a7e2b-6002-007f-1cd3-775ada000000",
        "x-ms-version": "2019-02-02"
      },
      "ResponseBody": []
    },
    {
      "RequestUri": "https://chrissscratch.table.core.windows.net/testtablehyay63ko?$format=application%2Fjson%3Bodata%3Dminimalmetadata",
      "RequestMethod": "POST",
      "RequestHeaders": {
        "Accept": "application/json",
        "Authorization": "Sanitized",
        "Content-Length": "614",
        "Content-Type": "application/json; odata=nometadata",
        "DataServiceVersion": "3.0",
        "Prefer": "return-no-content",
        "traceparent": "00-3c8b610a6a3f144f848a109f8d7034a8-25b36f7190c8d84d-00",
        "User-Agent": [
          "azsdk-net-Data.Tables/1.0.0-dev.20200821.1",
          "(.NET Core 4.6.29130.01; Microsoft Windows 10.0.18363 )"
        ],
        "x-ms-client-request-id": "aec757bee5b28abbebec59704d744e37",
        "x-ms-date": "Fri, 21 Aug 2020 15:54:28 GMT",
        "x-ms-return-client-request-id": "true",
        "x-ms-version": "2019-02-02"
      },
      "RequestBody": {
        "PartitionKey": "somPartition",
        "RowKey": "07",
        "SomeStringProperty": "This is table entity number 07",
        "SomeDateProperty": "2020-01-01T01:08:00.0000000Z",
        "SomeDateProperty@odata.type": "Edm.DateTime",
        "SomeGuidProperty": "0d391d16-97f1-4b9a-be68-4cc871f90007",
        "SomeGuidProperty@odata.type": "Edm.Guid",
        "SomeBinaryProperty": "AQIDBAU=",
        "SomeBinaryProperty@odata.type": "Edm.Binary",
        "SomeInt64Property": "7",
        "SomeInt64Property@odata.type": "Edm.Int64",
        "SomeDoubleProperty0": 7,
        "SomeDoubleProperty0@odata.type": "Edm.Double",
        "SomeDoubleProperty1": 7.0999999999999996,
        "SomeDoubleProperty1@odata.type": "Edm.Double",
        "SomeIntProperty": 7
      },
      "StatusCode": 204,
      "ResponseHeaders": {
        "Cache-Control": "no-cache",
        "Content-Length": "0",
        "DataServiceId": "https://chrissscratch.table.core.windows.net/testtablehyay63ko(PartitionKey=\u0027somPartition\u0027,RowKey=\u002707\u0027)",
        "Date": "Fri, 21 Aug 2020 15:54:27 GMT",
        "ETag": "W/\u0022datetime\u00272020-08-21T15%3A54%3A28.7546792Z\u0027\u0022",
        "Location": "https://chrissscratch.table.core.windows.net/testtablehyay63ko(PartitionKey=\u0027somPartition\u0027,RowKey=\u002707\u0027)",
        "Preference-Applied": "return-no-content",
        "Server": [
          "Windows-Azure-Table/1.0",
          "Microsoft-HTTPAPI/2.0"
        ],
        "X-Content-Type-Options": "nosniff",
        "x-ms-client-request-id": "aec757bee5b28abbebec59704d744e37",
        "x-ms-request-id": "f56a7e3c-6002-007f-2cd3-775ada000000",
        "x-ms-version": "2019-02-02"
      },
      "ResponseBody": []
    },
    {
      "RequestUri": "https://chrissscratch.table.core.windows.net/testtablehyay63ko?$format=application%2Fjson%3Bodata%3Dminimalmetadata",
      "RequestMethod": "POST",
      "RequestHeaders": {
        "Accept": "application/json",
        "Authorization": "Sanitized",
        "Content-Length": "614",
        "Content-Type": "application/json; odata=nometadata",
        "DataServiceVersion": "3.0",
        "Prefer": "return-no-content",
        "traceparent": "00-1738de190e239243b6fe606f686644ee-14c010d1cbd8c14d-00",
        "User-Agent": [
          "azsdk-net-Data.Tables/1.0.0-dev.20200821.1",
          "(.NET Core 4.6.29130.01; Microsoft Windows 10.0.18363 )"
        ],
        "x-ms-client-request-id": "31fba4e20a42c502d5c517eb3ea7cd2b",
        "x-ms-date": "Fri, 21 Aug 2020 15:54:28 GMT",
        "x-ms-return-client-request-id": "true",
        "x-ms-version": "2019-02-02"
      },
      "RequestBody": {
        "PartitionKey": "somPartition",
        "RowKey": "08",
        "SomeStringProperty": "This is table entity number 08",
        "SomeDateProperty": "2020-01-01T01:09:00.0000000Z",
        "SomeDateProperty@odata.type": "Edm.DateTime",
        "SomeGuidProperty": "0d391d16-97f1-4b9a-be68-4cc871f90008",
        "SomeGuidProperty@odata.type": "Edm.Guid",
        "SomeBinaryProperty": "AQIDBAU=",
        "SomeBinaryProperty@odata.type": "Edm.Binary",
        "SomeInt64Property": "8",
        "SomeInt64Property@odata.type": "Edm.Int64",
        "SomeDoubleProperty0": 8,
        "SomeDoubleProperty0@odata.type": "Edm.Double",
        "SomeDoubleProperty1": 8.0999999999999996,
        "SomeDoubleProperty1@odata.type": "Edm.Double",
        "SomeIntProperty": 8
      },
      "StatusCode": 204,
      "ResponseHeaders": {
        "Cache-Control": "no-cache",
        "Content-Length": "0",
        "DataServiceId": "https://chrissscratch.table.core.windows.net/testtablehyay63ko(PartitionKey=\u0027somPartition\u0027,RowKey=\u002708\u0027)",
        "Date": "Fri, 21 Aug 2020 15:54:27 GMT",
        "ETag": "W/\u0022datetime\u00272020-08-21T15%3A54%3A28.7967138Z\u0027\u0022",
        "Location": "https://chrissscratch.table.core.windows.net/testtablehyay63ko(PartitionKey=\u0027somPartition\u0027,RowKey=\u002708\u0027)",
        "Preference-Applied": "return-no-content",
        "Server": [
          "Windows-Azure-Table/1.0",
          "Microsoft-HTTPAPI/2.0"
        ],
        "X-Content-Type-Options": "nosniff",
        "x-ms-client-request-id": "31fba4e20a42c502d5c517eb3ea7cd2b",
        "x-ms-request-id": "f56a7e44-6002-007f-34d3-775ada000000",
        "x-ms-version": "2019-02-02"
      },
      "ResponseBody": []
    },
    {
      "RequestUri": "https://chrissscratch.table.core.windows.net/testtablehyay63ko?$format=application%2Fjson%3Bodata%3Dminimalmetadata",
      "RequestMethod": "POST",
      "RequestHeaders": {
        "Accept": "application/json",
        "Authorization": "Sanitized",
        "Content-Length": "614",
        "Content-Type": "application/json; odata=nometadata",
        "DataServiceVersion": "3.0",
        "Prefer": "return-no-content",
        "traceparent": "00-0ab46bfa3260c0449b6478f393b85566-5d46e4f4c9784e4c-00",
        "User-Agent": [
          "azsdk-net-Data.Tables/1.0.0-dev.20200821.1",
          "(.NET Core 4.6.29130.01; Microsoft Windows 10.0.18363 )"
        ],
        "x-ms-client-request-id": "adfbb111c2b4113d6f8ec715c83f1984",
        "x-ms-date": "Fri, 21 Aug 2020 15:54:28 GMT",
        "x-ms-return-client-request-id": "true",
        "x-ms-version": "2019-02-02"
      },
      "RequestBody": {
        "PartitionKey": "somPartition",
        "RowKey": "09",
        "SomeStringProperty": "This is table entity number 09",
        "SomeDateProperty": "2020-01-01T01:10:00.0000000Z",
        "SomeDateProperty@odata.type": "Edm.DateTime",
        "SomeGuidProperty": "0d391d16-97f1-4b9a-be68-4cc871f90009",
        "SomeGuidProperty@odata.type": "Edm.Guid",
        "SomeBinaryProperty": "AQIDBAU=",
        "SomeBinaryProperty@odata.type": "Edm.Binary",
        "SomeInt64Property": "9",
        "SomeInt64Property@odata.type": "Edm.Int64",
        "SomeDoubleProperty0": 9,
        "SomeDoubleProperty0@odata.type": "Edm.Double",
        "SomeDoubleProperty1": 9.0999999999999996,
        "SomeDoubleProperty1@odata.type": "Edm.Double",
        "SomeIntProperty": 9
      },
      "StatusCode": 204,
      "ResponseHeaders": {
        "Cache-Control": "no-cache",
        "Content-Length": "0",
        "DataServiceId": "https://chrissscratch.table.core.windows.net/testtablehyay63ko(PartitionKey=\u0027somPartition\u0027,RowKey=\u002709\u0027)",
        "Date": "Fri, 21 Aug 2020 15:54:27 GMT",
        "ETag": "W/\u0022datetime\u00272020-08-21T15%3A54%3A28.8387487Z\u0027\u0022",
        "Location": "https://chrissscratch.table.core.windows.net/testtablehyay63ko(PartitionKey=\u0027somPartition\u0027,RowKey=\u002709\u0027)",
        "Preference-Applied": "return-no-content",
        "Server": [
          "Windows-Azure-Table/1.0",
          "Microsoft-HTTPAPI/2.0"
        ],
        "X-Content-Type-Options": "nosniff",
        "x-ms-client-request-id": "adfbb111c2b4113d6f8ec715c83f1984",
        "x-ms-request-id": "f56a7e4d-6002-007f-3cd3-775ada000000",
        "x-ms-version": "2019-02-02"
      },
      "ResponseBody": []
    },
    {
      "RequestUri": "https://chrissscratch.table.core.windows.net/testtablehyay63ko?$format=application%2Fjson%3Bodata%3Dminimalmetadata",
      "RequestMethod": "POST",
      "RequestHeaders": {
        "Accept": "application/json",
        "Authorization": "Sanitized",
        "Content-Length": "603",
        "Content-Type": "application/json; odata=nometadata",
        "DataServiceVersion": "3.0",
        "Prefer": "return-no-content",
        "traceparent": "00-a55180cb22c761428795762464ca6b8e-020282fa7235274d-00",
        "User-Agent": [
          "azsdk-net-Data.Tables/1.0.0-dev.20200821.1",
          "(.NET Core 4.6.29130.01; Microsoft Windows 10.0.18363 )"
        ],
        "x-ms-client-request-id": "df0b86326f16b38e5501d9eccecf4b44",
        "x-ms-date": "Fri, 21 Aug 2020 15:54:29 GMT",
        "x-ms-return-client-request-id": "true",
        "x-ms-version": "2019-02-02"
      },
      "RequestBody": {
        "PartitionKey": "somPartition",
        "RowKey": "10",
        "SomeStringProperty": "This is table entity number 10",
        "SomeDateProperty": "2020-01-01T01:11:00.0000000Z",
        "SomeDateProperty@odata.type": "Edm.DateTime",
        "SomeGuidProperty": "0d391d16-97f1-4b9a-be68-4cc871f90010",
        "SomeGuidProperty@odata.type": "Edm.Guid",
        "SomeBinaryProperty": "AQIDBAU=",
        "SomeBinaryProperty@odata.type": "Edm.Binary",
        "SomeInt64Property": "10",
        "SomeInt64Property@odata.type": "Edm.Int64",
        "SomeDoubleProperty0": 10,
        "SomeDoubleProperty0@odata.type": "Edm.Double",
        "SomeDoubleProperty1": 10.1,
        "SomeDoubleProperty1@odata.type": "Edm.Double",
        "SomeIntProperty": 10
      },
      "StatusCode": 204,
      "ResponseHeaders": {
        "Cache-Control": "no-cache",
        "Content-Length": "0",
        "DataServiceId": "https://chrissscratch.table.core.windows.net/testtablehyay63ko(PartitionKey=\u0027somPartition\u0027,RowKey=\u002710\u0027)",
        "Date": "Fri, 21 Aug 2020 15:54:27 GMT",
        "ETag": "W/\u0022datetime\u00272020-08-21T15%3A54%3A28.8977983Z\u0027\u0022",
        "Location": "https://chrissscratch.table.core.windows.net/testtablehyay63ko(PartitionKey=\u0027somPartition\u0027,RowKey=\u002710\u0027)",
        "Preference-Applied": "return-no-content",
        "Server": [
          "Windows-Azure-Table/1.0",
          "Microsoft-HTTPAPI/2.0"
        ],
        "X-Content-Type-Options": "nosniff",
        "x-ms-client-request-id": "df0b86326f16b38e5501d9eccecf4b44",
        "x-ms-request-id": "f56a7e61-6002-007f-4fd3-775ada000000",
        "x-ms-version": "2019-02-02"
      },
      "ResponseBody": []
    },
    {
      "RequestUri": "https://chrissscratch.table.core.windows.net/testtablehyay63ko?$format=application%2Fjson%3Bodata%3Dminimalmetadata",
      "RequestMethod": "POST",
      "RequestHeaders": {
        "Accept": "application/json",
        "Authorization": "Sanitized",
        "Content-Length": "603",
        "Content-Type": "application/json; odata=nometadata",
        "DataServiceVersion": "3.0",
        "Prefer": "return-no-content",
        "traceparent": "00-2d6ec8f4e4659340ad6ee1bc403751d4-9322b02845869d49-00",
        "User-Agent": [
          "azsdk-net-Data.Tables/1.0.0-dev.20200821.1",
          "(.NET Core 4.6.29130.01; Microsoft Windows 10.0.18363 )"
        ],
        "x-ms-client-request-id": "9b5e2e1fa079208367e9c2b342edfd95",
        "x-ms-date": "Fri, 21 Aug 2020 15:54:29 GMT",
        "x-ms-return-client-request-id": "true",
        "x-ms-version": "2019-02-02"
      },
      "RequestBody": {
        "PartitionKey": "somPartition",
        "RowKey": "11",
        "SomeStringProperty": "This is table entity number 11",
        "SomeDateProperty": "2020-01-01T01:12:00.0000000Z",
        "SomeDateProperty@odata.type": "Edm.DateTime",
        "SomeGuidProperty": "0d391d16-97f1-4b9a-be68-4cc871f90011",
        "SomeGuidProperty@odata.type": "Edm.Guid",
        "SomeBinaryProperty": "AQIDBAU=",
        "SomeBinaryProperty@odata.type": "Edm.Binary",
        "SomeInt64Property": "11",
        "SomeInt64Property@odata.type": "Edm.Int64",
        "SomeDoubleProperty0": 11,
        "SomeDoubleProperty0@odata.type": "Edm.Double",
        "SomeDoubleProperty1": 11.1,
        "SomeDoubleProperty1@odata.type": "Edm.Double",
        "SomeIntProperty": 11
      },
      "StatusCode": 204,
      "ResponseHeaders": {
        "Cache-Control": "no-cache",
        "Content-Length": "0",
        "DataServiceId": "https://chrissscratch.table.core.windows.net/testtablehyay63ko(PartitionKey=\u0027somPartition\u0027,RowKey=\u002711\u0027)",
        "Date": "Fri, 21 Aug 2020 15:54:27 GMT",
        "ETag": "W/\u0022datetime\u00272020-08-21T15%3A54%3A28.9408345Z\u0027\u0022",
        "Location": "https://chrissscratch.table.core.windows.net/testtablehyay63ko(PartitionKey=\u0027somPartition\u0027,RowKey=\u002711\u0027)",
        "Preference-Applied": "return-no-content",
        "Server": [
          "Windows-Azure-Table/1.0",
          "Microsoft-HTTPAPI/2.0"
        ],
        "X-Content-Type-Options": "nosniff",
        "x-ms-client-request-id": "9b5e2e1fa079208367e9c2b342edfd95",
        "x-ms-request-id": "f56a7e6c-6002-007f-5ad3-775ada000000",
        "x-ms-version": "2019-02-02"
      },
      "ResponseBody": []
    },
    {
      "RequestUri": "https://chrissscratch.table.core.windows.net/testtablehyay63ko?$format=application%2Fjson%3Bodata%3Dminimalmetadata",
      "RequestMethod": "POST",
      "RequestHeaders": {
        "Accept": "application/json",
        "Authorization": "Sanitized",
        "Content-Length": "603",
        "Content-Type": "application/json; odata=nometadata",
        "DataServiceVersion": "3.0",
        "Prefer": "return-no-content",
        "traceparent": "00-31012933bd271f4a9ee24e4767c48577-82e004ea0cc3454a-00",
        "User-Agent": [
          "azsdk-net-Data.Tables/1.0.0-dev.20200821.1",
          "(.NET Core 4.6.29130.01; Microsoft Windows 10.0.18363 )"
        ],
        "x-ms-client-request-id": "b8b892abee9ca215234758b2e851429f",
        "x-ms-date": "Fri, 21 Aug 2020 15:54:29 GMT",
        "x-ms-return-client-request-id": "true",
        "x-ms-version": "2019-02-02"
      },
      "RequestBody": {
        "PartitionKey": "somPartition",
        "RowKey": "12",
        "SomeStringProperty": "This is table entity number 12",
        "SomeDateProperty": "2020-01-01T01:13:00.0000000Z",
        "SomeDateProperty@odata.type": "Edm.DateTime",
        "SomeGuidProperty": "0d391d16-97f1-4b9a-be68-4cc871f90012",
        "SomeGuidProperty@odata.type": "Edm.Guid",
        "SomeBinaryProperty": "AQIDBAU=",
        "SomeBinaryProperty@odata.type": "Edm.Binary",
        "SomeInt64Property": "12",
        "SomeInt64Property@odata.type": "Edm.Int64",
        "SomeDoubleProperty0": 12,
        "SomeDoubleProperty0@odata.type": "Edm.Double",
        "SomeDoubleProperty1": 12.1,
        "SomeDoubleProperty1@odata.type": "Edm.Double",
        "SomeIntProperty": 12
      },
      "StatusCode": 204,
      "ResponseHeaders": {
        "Cache-Control": "no-cache",
        "Content-Length": "0",
        "DataServiceId": "https://chrissscratch.table.core.windows.net/testtablehyay63ko(PartitionKey=\u0027somPartition\u0027,RowKey=\u002712\u0027)",
        "Date": "Fri, 21 Aug 2020 15:54:28 GMT",
        "ETag": "W/\u0022datetime\u00272020-08-21T15%3A54%3A28.9918765Z\u0027\u0022",
        "Location": "https://chrissscratch.table.core.windows.net/testtablehyay63ko(PartitionKey=\u0027somPartition\u0027,RowKey=\u002712\u0027)",
        "Preference-Applied": "return-no-content",
        "Server": [
          "Windows-Azure-Table/1.0",
          "Microsoft-HTTPAPI/2.0"
        ],
        "X-Content-Type-Options": "nosniff",
        "x-ms-client-request-id": "b8b892abee9ca215234758b2e851429f",
        "x-ms-request-id": "f56a7e77-6002-007f-64d3-775ada000000",
        "x-ms-version": "2019-02-02"
      },
      "ResponseBody": []
    },
    {
      "RequestUri": "https://chrissscratch.table.core.windows.net/testtablehyay63ko?$format=application%2Fjson%3Bodata%3Dminimalmetadata",
      "RequestMethod": "POST",
      "RequestHeaders": {
        "Accept": "application/json",
        "Authorization": "Sanitized",
        "Content-Length": "603",
        "Content-Type": "application/json; odata=nometadata",
        "DataServiceVersion": "3.0",
        "Prefer": "return-no-content",
        "traceparent": "00-ac8d05c796e4b44da4c2caa90e56dc10-3deac39fe1552d40-00",
        "User-Agent": [
          "azsdk-net-Data.Tables/1.0.0-dev.20200821.1",
          "(.NET Core 4.6.29130.01; Microsoft Windows 10.0.18363 )"
        ],
        "x-ms-client-request-id": "99f683437ee0920b02ea782cacda7167",
        "x-ms-date": "Fri, 21 Aug 2020 15:54:29 GMT",
        "x-ms-return-client-request-id": "true",
        "x-ms-version": "2019-02-02"
      },
      "RequestBody": {
        "PartitionKey": "somPartition",
        "RowKey": "13",
        "SomeStringProperty": "This is table entity number 13",
        "SomeDateProperty": "2020-01-01T01:14:00.0000000Z",
        "SomeDateProperty@odata.type": "Edm.DateTime",
        "SomeGuidProperty": "0d391d16-97f1-4b9a-be68-4cc871f90013",
        "SomeGuidProperty@odata.type": "Edm.Guid",
        "SomeBinaryProperty": "AQIDBAU=",
        "SomeBinaryProperty@odata.type": "Edm.Binary",
        "SomeInt64Property": "13",
        "SomeInt64Property@odata.type": "Edm.Int64",
        "SomeDoubleProperty0": 13,
        "SomeDoubleProperty0@odata.type": "Edm.Double",
        "SomeDoubleProperty1": 13.1,
        "SomeDoubleProperty1@odata.type": "Edm.Double",
        "SomeIntProperty": 13
      },
      "StatusCode": 204,
      "ResponseHeaders": {
        "Cache-Control": "no-cache",
        "Content-Length": "0",
        "DataServiceId": "https://chrissscratch.table.core.windows.net/testtablehyay63ko(PartitionKey=\u0027somPartition\u0027,RowKey=\u002713\u0027)",
        "Date": "Fri, 21 Aug 2020 15:54:28 GMT",
        "ETag": "W/\u0022datetime\u00272020-08-21T15%3A54%3A29.0309094Z\u0027\u0022",
        "Location": "https://chrissscratch.table.core.windows.net/testtablehyay63ko(PartitionKey=\u0027somPartition\u0027,RowKey=\u002713\u0027)",
        "Preference-Applied": "return-no-content",
        "Server": [
          "Windows-Azure-Table/1.0",
          "Microsoft-HTTPAPI/2.0"
        ],
        "X-Content-Type-Options": "nosniff",
        "x-ms-client-request-id": "99f683437ee0920b02ea782cacda7167",
        "x-ms-request-id": "f56a7e7d-6002-007f-69d3-775ada000000",
        "x-ms-version": "2019-02-02"
      },
      "ResponseBody": []
    },
    {
      "RequestUri": "https://chrissscratch.table.core.windows.net/testtablehyay63ko?$format=application%2Fjson%3Bodata%3Dminimalmetadata",
      "RequestMethod": "POST",
      "RequestHeaders": {
        "Accept": "application/json",
        "Authorization": "Sanitized",
        "Content-Length": "603",
        "Content-Type": "application/json; odata=nometadata",
        "DataServiceVersion": "3.0",
        "Prefer": "return-no-content",
        "traceparent": "00-aaae2e993d1d2b4793a890f509ed8647-92a5e32116033144-00",
        "User-Agent": [
          "azsdk-net-Data.Tables/1.0.0-dev.20200821.1",
          "(.NET Core 4.6.29130.01; Microsoft Windows 10.0.18363 )"
        ],
        "x-ms-client-request-id": "3c404304931630a819bb783248d13815",
        "x-ms-date": "Fri, 21 Aug 2020 15:54:29 GMT",
        "x-ms-return-client-request-id": "true",
        "x-ms-version": "2019-02-02"
      },
      "RequestBody": {
        "PartitionKey": "somPartition",
        "RowKey": "14",
        "SomeStringProperty": "This is table entity number 14",
        "SomeDateProperty": "2020-01-01T01:15:00.0000000Z",
        "SomeDateProperty@odata.type": "Edm.DateTime",
        "SomeGuidProperty": "0d391d16-97f1-4b9a-be68-4cc871f90014",
        "SomeGuidProperty@odata.type": "Edm.Guid",
        "SomeBinaryProperty": "AQIDBAU=",
        "SomeBinaryProperty@odata.type": "Edm.Binary",
        "SomeInt64Property": "14",
        "SomeInt64Property@odata.type": "Edm.Int64",
        "SomeDoubleProperty0": 14,
        "SomeDoubleProperty0@odata.type": "Edm.Double",
        "SomeDoubleProperty1": 14.1,
        "SomeDoubleProperty1@odata.type": "Edm.Double",
        "SomeIntProperty": 14
      },
      "StatusCode": 204,
      "ResponseHeaders": {
        "Cache-Control": "no-cache",
        "Content-Length": "0",
        "DataServiceId": "https://chrissscratch.table.core.windows.net/testtablehyay63ko(PartitionKey=\u0027somPartition\u0027,RowKey=\u002714\u0027)",
        "Date": "Fri, 21 Aug 2020 15:54:28 GMT",
        "ETag": "W/\u0022datetime\u00272020-08-21T15%3A54%3A29.0729448Z\u0027\u0022",
        "Location": "https://chrissscratch.table.core.windows.net/testtablehyay63ko(PartitionKey=\u0027somPartition\u0027,RowKey=\u002714\u0027)",
        "Preference-Applied": "return-no-content",
        "Server": [
          "Windows-Azure-Table/1.0",
          "Microsoft-HTTPAPI/2.0"
        ],
        "X-Content-Type-Options": "nosniff",
        "x-ms-client-request-id": "3c404304931630a819bb783248d13815",
        "x-ms-request-id": "f56a7e84-6002-007f-70d3-775ada000000",
        "x-ms-version": "2019-02-02"
      },
      "ResponseBody": []
    },
    {
      "RequestUri": "https://chrissscratch.table.core.windows.net/testtablehyay63ko?$format=application%2Fjson%3Bodata%3Dminimalmetadata",
      "RequestMethod": "POST",
      "RequestHeaders": {
        "Accept": "application/json",
        "Authorization": "Sanitized",
        "Content-Length": "603",
        "Content-Type": "application/json; odata=nometadata",
        "DataServiceVersion": "3.0",
        "Prefer": "return-no-content",
        "traceparent": "00-57cd3ea9ed684546970ad024fd7da9a9-d762883f96c4f24a-00",
        "User-Agent": [
          "azsdk-net-Data.Tables/1.0.0-dev.20200821.1",
          "(.NET Core 4.6.29130.01; Microsoft Windows 10.0.18363 )"
        ],
        "x-ms-client-request-id": "bf7022a663f72db58726b5b175e8f548",
        "x-ms-date": "Fri, 21 Aug 2020 15:54:29 GMT",
        "x-ms-return-client-request-id": "true",
        "x-ms-version": "2019-02-02"
      },
      "RequestBody": {
        "PartitionKey": "somPartition",
        "RowKey": "15",
        "SomeStringProperty": "This is table entity number 15",
        "SomeDateProperty": "2020-01-01T01:16:00.0000000Z",
        "SomeDateProperty@odata.type": "Edm.DateTime",
        "SomeGuidProperty": "0d391d16-97f1-4b9a-be68-4cc871f90015",
        "SomeGuidProperty@odata.type": "Edm.Guid",
        "SomeBinaryProperty": "AQIDBAU=",
        "SomeBinaryProperty@odata.type": "Edm.Binary",
        "SomeInt64Property": "15",
        "SomeInt64Property@odata.type": "Edm.Int64",
        "SomeDoubleProperty0": 15,
        "SomeDoubleProperty0@odata.type": "Edm.Double",
        "SomeDoubleProperty1": 15.1,
        "SomeDoubleProperty1@odata.type": "Edm.Double",
        "SomeIntProperty": 15
      },
      "StatusCode": 204,
      "ResponseHeaders": {
        "Cache-Control": "no-cache",
        "Content-Length": "0",
        "DataServiceId": "https://chrissscratch.table.core.windows.net/testtablehyay63ko(PartitionKey=\u0027somPartition\u0027,RowKey=\u002715\u0027)",
        "Date": "Fri, 21 Aug 2020 15:54:28 GMT",
        "ETag": "W/\u0022datetime\u00272020-08-21T15%3A54%3A29.1129773Z\u0027\u0022",
        "Location": "https://chrissscratch.table.core.windows.net/testtablehyay63ko(PartitionKey=\u0027somPartition\u0027,RowKey=\u002715\u0027)",
        "Preference-Applied": "return-no-content",
        "Server": [
          "Windows-Azure-Table/1.0",
          "Microsoft-HTTPAPI/2.0"
        ],
        "X-Content-Type-Options": "nosniff",
        "x-ms-client-request-id": "bf7022a663f72db58726b5b175e8f548",
        "x-ms-request-id": "f56a7e95-6002-007f-7fd3-775ada000000",
        "x-ms-version": "2019-02-02"
      },
      "ResponseBody": []
    },
    {
      "RequestUri": "https://chrissscratch.table.core.windows.net/testtablehyay63ko?$format=application%2Fjson%3Bodata%3Dminimalmetadata",
      "RequestMethod": "POST",
      "RequestHeaders": {
        "Accept": "application/json",
        "Authorization": "Sanitized",
        "Content-Length": "617",
        "Content-Type": "application/json; odata=nometadata",
        "DataServiceVersion": "3.0",
        "Prefer": "return-no-content",
        "traceparent": "00-a5731aecf8ea2b439c98be7ac4672495-d7bba1a0f3086f49-00",
        "User-Agent": [
          "azsdk-net-Data.Tables/1.0.0-dev.20200821.1",
          "(.NET Core 4.6.29130.01; Microsoft Windows 10.0.18363 )"
        ],
        "x-ms-client-request-id": "a5adf0d50610af89dac5802405d84931",
        "x-ms-date": "Fri, 21 Aug 2020 15:54:29 GMT",
        "x-ms-return-client-request-id": "true",
        "x-ms-version": "2019-02-02"
      },
      "RequestBody": {
        "PartitionKey": "somPartition",
        "RowKey": "16",
        "SomeStringProperty": "This is table entity number 16",
        "SomeDateProperty": "2020-01-01T01:17:00.0000000Z",
        "SomeDateProperty@odata.type": "Edm.DateTime",
        "SomeGuidProperty": "0d391d16-97f1-4b9a-be68-4cc871f90016",
        "SomeGuidProperty@odata.type": "Edm.Guid",
        "SomeBinaryProperty": "AQIDBAU=",
        "SomeBinaryProperty@odata.type": "Edm.Binary",
        "SomeInt64Property": "16",
        "SomeInt64Property@odata.type": "Edm.Int64",
        "SomeDoubleProperty0": 16,
        "SomeDoubleProperty0@odata.type": "Edm.Double",
        "SomeDoubleProperty1": 16.100000000000001,
        "SomeDoubleProperty1@odata.type": "Edm.Double",
        "SomeIntProperty": 16
      },
      "StatusCode": 204,
      "ResponseHeaders": {
        "Cache-Control": "no-cache",
        "Content-Length": "0",
        "DataServiceId": "https://chrissscratch.table.core.windows.net/testtablehyay63ko(PartitionKey=\u0027somPartition\u0027,RowKey=\u002716\u0027)",
        "Date": "Fri, 21 Aug 2020 15:54:28 GMT",
        "ETag": "W/\u0022datetime\u00272020-08-21T15%3A54%3A29.1710256Z\u0027\u0022",
        "Location": "https://chrissscratch.table.core.windows.net/testtablehyay63ko(PartitionKey=\u0027somPartition\u0027,RowKey=\u002716\u0027)",
        "Preference-Applied": "return-no-content",
        "Server": [
          "Windows-Azure-Table/1.0",
          "Microsoft-HTTPAPI/2.0"
        ],
        "X-Content-Type-Options": "nosniff",
        "x-ms-client-request-id": "a5adf0d50610af89dac5802405d84931",
        "x-ms-request-id": "f56a7ea0-6002-007f-0ad3-775ada000000",
        "x-ms-version": "2019-02-02"
      },
      "ResponseBody": []
    },
    {
      "RequestUri": "https://chrissscratch.table.core.windows.net/testtablehyay63ko?$format=application%2Fjson%3Bodata%3Dminimalmetadata",
      "RequestMethod": "POST",
      "RequestHeaders": {
        "Accept": "application/json",
        "Authorization": "Sanitized",
        "Content-Length": "617",
        "Content-Type": "application/json; odata=nometadata",
        "DataServiceVersion": "3.0",
        "Prefer": "return-no-content",
        "traceparent": "00-326971f0f3197e42afda2e56478ccb19-a6b9510f7b86ff48-00",
        "User-Agent": [
          "azsdk-net-Data.Tables/1.0.0-dev.20200821.1",
          "(.NET Core 4.6.29130.01; Microsoft Windows 10.0.18363 )"
        ],
        "x-ms-client-request-id": "8a8562b2b16aa1708e12b5f0def6bb30",
        "x-ms-date": "Fri, 21 Aug 2020 15:54:29 GMT",
        "x-ms-return-client-request-id": "true",
        "x-ms-version": "2019-02-02"
      },
      "RequestBody": {
        "PartitionKey": "somPartition",
        "RowKey": "17",
        "SomeStringProperty": "This is table entity number 17",
        "SomeDateProperty": "2020-01-01T01:18:00.0000000Z",
        "SomeDateProperty@odata.type": "Edm.DateTime",
        "SomeGuidProperty": "0d391d16-97f1-4b9a-be68-4cc871f90017",
        "SomeGuidProperty@odata.type": "Edm.Guid",
        "SomeBinaryProperty": "AQIDBAU=",
        "SomeBinaryProperty@odata.type": "Edm.Binary",
        "SomeInt64Property": "17",
        "SomeInt64Property@odata.type": "Edm.Int64",
        "SomeDoubleProperty0": 17,
        "SomeDoubleProperty0@odata.type": "Edm.Double",
        "SomeDoubleProperty1": 17.100000000000001,
        "SomeDoubleProperty1@odata.type": "Edm.Double",
        "SomeIntProperty": 17
      },
      "StatusCode": 204,
      "ResponseHeaders": {
        "Cache-Control": "no-cache",
        "Content-Length": "0",
        "DataServiceId": "https://chrissscratch.table.core.windows.net/testtablehyay63ko(PartitionKey=\u0027somPartition\u0027,RowKey=\u002717\u0027)",
        "Date": "Fri, 21 Aug 2020 15:54:28 GMT",
        "ETag": "W/\u0022datetime\u00272020-08-21T15%3A54%3A29.2190664Z\u0027\u0022",
        "Location": "https://chrissscratch.table.core.windows.net/testtablehyay63ko(PartitionKey=\u0027somPartition\u0027,RowKey=\u002717\u0027)",
        "Preference-Applied": "return-no-content",
        "Server": [
          "Windows-Azure-Table/1.0",
          "Microsoft-HTTPAPI/2.0"
        ],
        "X-Content-Type-Options": "nosniff",
        "x-ms-client-request-id": "8a8562b2b16aa1708e12b5f0def6bb30",
        "x-ms-request-id": "f56a7eb2-6002-007f-1cd3-775ada000000",
        "x-ms-version": "2019-02-02"
      },
      "ResponseBody": []
    },
    {
      "RequestUri": "https://chrissscratch.table.core.windows.net/testtablehyay63ko?$format=application%2Fjson%3Bodata%3Dminimalmetadata",
      "RequestMethod": "POST",
      "RequestHeaders": {
        "Accept": "application/json",
        "Authorization": "Sanitized",
        "Content-Length": "617",
        "Content-Type": "application/json; odata=nometadata",
        "DataServiceVersion": "3.0",
        "Prefer": "return-no-content",
        "traceparent": "00-1a6a4c1e07abc740a257fdd4a123194b-5013ed3d3c4f9a43-00",
        "User-Agent": [
          "azsdk-net-Data.Tables/1.0.0-dev.20200821.1",
          "(.NET Core 4.6.29130.01; Microsoft Windows 10.0.18363 )"
        ],
        "x-ms-client-request-id": "575c30c69224a00599c0e432e29028ae",
        "x-ms-date": "Fri, 21 Aug 2020 15:54:29 GMT",
        "x-ms-return-client-request-id": "true",
        "x-ms-version": "2019-02-02"
      },
      "RequestBody": {
        "PartitionKey": "somPartition",
        "RowKey": "18",
        "SomeStringProperty": "This is table entity number 18",
        "SomeDateProperty": "2020-01-01T01:19:00.0000000Z",
        "SomeDateProperty@odata.type": "Edm.DateTime",
        "SomeGuidProperty": "0d391d16-97f1-4b9a-be68-4cc871f90018",
        "SomeGuidProperty@odata.type": "Edm.Guid",
        "SomeBinaryProperty": "AQIDBAU=",
        "SomeBinaryProperty@odata.type": "Edm.Binary",
        "SomeInt64Property": "18",
        "SomeInt64Property@odata.type": "Edm.Int64",
        "SomeDoubleProperty0": 18,
        "SomeDoubleProperty0@odata.type": "Edm.Double",
        "SomeDoubleProperty1": 18.100000000000001,
        "SomeDoubleProperty1@odata.type": "Edm.Double",
        "SomeIntProperty": 18
      },
      "StatusCode": 204,
      "ResponseHeaders": {
        "Cache-Control": "no-cache",
        "Content-Length": "0",
        "DataServiceId": "https://chrissscratch.table.core.windows.net/testtablehyay63ko(PartitionKey=\u0027somPartition\u0027,RowKey=\u002718\u0027)",
        "Date": "Fri, 21 Aug 2020 15:54:28 GMT",
        "ETag": "W/\u0022datetime\u00272020-08-21T15%3A54%3A29.2671051Z\u0027\u0022",
        "Location": "https://chrissscratch.table.core.windows.net/testtablehyay63ko(PartitionKey=\u0027somPartition\u0027,RowKey=\u002718\u0027)",
        "Preference-Applied": "return-no-content",
        "Server": [
          "Windows-Azure-Table/1.0",
          "Microsoft-HTTPAPI/2.0"
        ],
        "X-Content-Type-Options": "nosniff",
        "x-ms-client-request-id": "575c30c69224a00599c0e432e29028ae",
        "x-ms-request-id": "f56a7ec0-6002-007f-2ad3-775ada000000",
        "x-ms-version": "2019-02-02"
      },
      "ResponseBody": []
    },
    {
      "RequestUri": "https://chrissscratch.table.core.windows.net/testtablehyay63ko?$format=application%2Fjson%3Bodata%3Dminimalmetadata",
      "RequestMethod": "POST",
      "RequestHeaders": {
        "Accept": "application/json",
        "Authorization": "Sanitized",
        "Content-Length": "617",
        "Content-Type": "application/json; odata=nometadata",
        "DataServiceVersion": "3.0",
        "Prefer": "return-no-content",
        "traceparent": "00-1192da707377694694193699e79f5af1-364192e867d03243-00",
        "User-Agent": [
          "azsdk-net-Data.Tables/1.0.0-dev.20200821.1",
          "(.NET Core 4.6.29130.01; Microsoft Windows 10.0.18363 )"
        ],
        "x-ms-client-request-id": "12ff84dc6b6224dd800b16fd5199d1e4",
        "x-ms-date": "Fri, 21 Aug 2020 15:54:29 GMT",
        "x-ms-return-client-request-id": "true",
        "x-ms-version": "2019-02-02"
      },
      "RequestBody": {
        "PartitionKey": "somPartition",
        "RowKey": "19",
        "SomeStringProperty": "This is table entity number 19",
        "SomeDateProperty": "2020-01-01T01:20:00.0000000Z",
        "SomeDateProperty@odata.type": "Edm.DateTime",
        "SomeGuidProperty": "0d391d16-97f1-4b9a-be68-4cc871f90019",
        "SomeGuidProperty@odata.type": "Edm.Guid",
        "SomeBinaryProperty": "AQIDBAU=",
        "SomeBinaryProperty@odata.type": "Edm.Binary",
        "SomeInt64Property": "19",
        "SomeInt64Property@odata.type": "Edm.Int64",
        "SomeDoubleProperty0": 19,
        "SomeDoubleProperty0@odata.type": "Edm.Double",
        "SomeDoubleProperty1": 19.100000000000001,
        "SomeDoubleProperty1@odata.type": "Edm.Double",
        "SomeIntProperty": 19
      },
      "StatusCode": 204,
      "ResponseHeaders": {
        "Cache-Control": "no-cache",
        "Content-Length": "0",
        "DataServiceId": "https://chrissscratch.table.core.windows.net/testtablehyay63ko(PartitionKey=\u0027somPartition\u0027,RowKey=\u002719\u0027)",
        "Date": "Fri, 21 Aug 2020 15:54:28 GMT",
        "ETag": "W/\u0022datetime\u00272020-08-21T15%3A54%3A29.3181484Z\u0027\u0022",
        "Location": "https://chrissscratch.table.core.windows.net/testtablehyay63ko(PartitionKey=\u0027somPartition\u0027,RowKey=\u002719\u0027)",
        "Preference-Applied": "return-no-content",
        "Server": [
          "Windows-Azure-Table/1.0",
          "Microsoft-HTTPAPI/2.0"
        ],
        "X-Content-Type-Options": "nosniff",
        "x-ms-client-request-id": "12ff84dc6b6224dd800b16fd5199d1e4",
        "x-ms-request-id": "f56a7ecc-6002-007f-36d3-775ada000000",
        "x-ms-version": "2019-02-02"
      },
      "ResponseBody": []
    },
    {
      "RequestUri": "https://chrissscratch.table.core.windows.net/testtablehyay63ko?$format=application%2Fjson%3Bodata%3Dminimalmetadata",
      "RequestMethod": "POST",
      "RequestHeaders": {
        "Accept": "application/json",
        "Authorization": "Sanitized",
        "Content-Length": "617",
        "Content-Type": "application/json; odata=nometadata",
        "DataServiceVersion": "3.0",
        "Prefer": "return-no-content",
        "traceparent": "00-d058e2ac8dad2c4ba4c0faa5f67dde4b-3160e044a2281d4b-00",
        "User-Agent": [
          "azsdk-net-Data.Tables/1.0.0-dev.20200821.1",
          "(.NET Core 4.6.29130.01; Microsoft Windows 10.0.18363 )"
        ],
        "x-ms-client-request-id": "d55e5009f17b1f0c5de5f1a9cc3dbffd",
        "x-ms-date": "Fri, 21 Aug 2020 15:54:29 GMT",
        "x-ms-return-client-request-id": "true",
        "x-ms-version": "2019-02-02"
      },
      "RequestBody": {
        "PartitionKey": "somPartition",
        "RowKey": "20",
        "SomeStringProperty": "This is table entity number 20",
        "SomeDateProperty": "2020-01-01T01:21:00.0000000Z",
        "SomeDateProperty@odata.type": "Edm.DateTime",
        "SomeGuidProperty": "0d391d16-97f1-4b9a-be68-4cc871f90020",
        "SomeGuidProperty@odata.type": "Edm.Guid",
        "SomeBinaryProperty": "AQIDBAU=",
        "SomeBinaryProperty@odata.type": "Edm.Binary",
        "SomeInt64Property": "20",
        "SomeInt64Property@odata.type": "Edm.Int64",
        "SomeDoubleProperty0": 20,
        "SomeDoubleProperty0@odata.type": "Edm.Double",
        "SomeDoubleProperty1": 20.100000000000001,
        "SomeDoubleProperty1@odata.type": "Edm.Double",
        "SomeIntProperty": 20
      },
      "StatusCode": 204,
      "ResponseHeaders": {
        "Cache-Control": "no-cache",
        "Content-Length": "0",
        "DataServiceId": "https://chrissscratch.table.core.windows.net/testtablehyay63ko(PartitionKey=\u0027somPartition\u0027,RowKey=\u002720\u0027)",
        "Date": "Fri, 21 Aug 2020 15:54:28 GMT",
        "ETag": "W/\u0022datetime\u00272020-08-21T15%3A54%3A29.3601825Z\u0027\u0022",
        "Location": "https://chrissscratch.table.core.windows.net/testtablehyay63ko(PartitionKey=\u0027somPartition\u0027,RowKey=\u002720\u0027)",
        "Preference-Applied": "return-no-content",
        "Server": [
          "Windows-Azure-Table/1.0",
          "Microsoft-HTTPAPI/2.0"
        ],
        "X-Content-Type-Options": "nosniff",
        "x-ms-client-request-id": "d55e5009f17b1f0c5de5f1a9cc3dbffd",
        "x-ms-request-id": "f56a7ed5-6002-007f-3dd3-775ada000000",
        "x-ms-version": "2019-02-02"
      },
      "ResponseBody": []
    },
    {
      "RequestUri": "https://chrissscratch.table.core.windows.net/testtablehyay63ko()?$format=application%2Fjson%3Bodata%3Dminimalmetadata",
      "RequestMethod": "GET",
      "RequestHeaders": {
        "Accept": "application/json",
        "Authorization": "Sanitized",
        "DataServiceVersion": "3.0",
        "User-Agent": [
          "azsdk-net-Data.Tables/1.0.0-dev.20200821.1",
          "(.NET Core 4.6.29130.01; Microsoft Windows 10.0.18363 )"
        ],
        "x-ms-client-request-id": "5a1306eaa9f65acd5238d7187b074eff",
        "x-ms-date": "Fri, 21 Aug 2020 15:54:29 GMT",
        "x-ms-return-client-request-id": "true",
        "x-ms-version": "2019-02-02"
      },
      "RequestBody": null,
      "StatusCode": 200,
      "ResponseHeaders": {
        "Cache-Control": "no-cache",
        "Content-Type": "application/json; odata=minimalmetadata; streaming=true; charset=utf-8",
        "Date": "Fri, 21 Aug 2020 15:54:28 GMT",
        "Server": [
          "Windows-Azure-Table/1.0",
          "Microsoft-HTTPAPI/2.0"
        ],
        "Transfer-Encoding": "chunked",
        "X-Content-Type-Options": "nosniff",
        "x-ms-client-request-id": "5a1306eaa9f65acd5238d7187b074eff",
        "x-ms-request-id": "f56a7ee3-6002-007f-4ad3-775ada000000",
        "x-ms-version": "2019-02-02"
      },
      "ResponseBody": {
        "odata.metadata": "https://chrissscratch.table.core.windows.net/$metadata#testtablehyay63ko",
        "value": [
          {
            "odata.etag": "W/\u0022datetime\u00272020-08-21T15%3A54%3A28.4744465Z\u0027\u0022",
            "PartitionKey": "somPartition",
            "RowKey": "01",
            "Timestamp": "2020-08-21T15:54:28.4744465Z",
            "SomeStringProperty": "This is table entity number 01",
            "SomeDateProperty@odata.type": "Edm.DateTime",
            "SomeDateProperty": "2020-01-01T01:02:00Z",
            "SomeGuidProperty@odata.type": "Edm.Guid",
            "SomeGuidProperty": "0d391d16-97f1-4b9a-be68-4cc871f90001",
            "SomeBinaryProperty@odata.type": "Edm.Binary",
            "SomeBinaryProperty": "AQIDBAU=",
            "SomeInt64Property@odata.type": "Edm.Int64",
            "SomeInt64Property": "1",
            "SomeDoubleProperty0": 1.0,
            "SomeDoubleProperty1": 1.1,
            "SomeIntProperty": 1
          },
          {
            "odata.etag": "W/\u0022datetime\u00272020-08-21T15%3A54%3A28.514479Z\u0027\u0022",
            "PartitionKey": "somPartition",
            "RowKey": "02",
            "Timestamp": "2020-08-21T15:54:28.514479Z",
            "SomeStringProperty": "This is table entity number 02",
            "SomeDateProperty@odata.type": "Edm.DateTime",
            "SomeDateProperty": "2020-01-01T01:03:00Z",
            "SomeGuidProperty@odata.type": "Edm.Guid",
            "SomeGuidProperty": "0d391d16-97f1-4b9a-be68-4cc871f90002",
            "SomeBinaryProperty@odata.type": "Edm.Binary",
            "SomeBinaryProperty": "AQIDBAU=",
            "SomeInt64Property@odata.type": "Edm.Int64",
            "SomeInt64Property": "2",
            "SomeDoubleProperty0": 2.0,
            "SomeDoubleProperty1": 2.1,
            "SomeIntProperty": 2
          },
          {
            "odata.etag": "W/\u0022datetime\u00272020-08-21T15%3A54%3A28.555514Z\u0027\u0022",
            "PartitionKey": "somPartition",
            "RowKey": "03",
            "Timestamp": "2020-08-21T15:54:28.555514Z",
            "SomeStringProperty": "This is table entity number 03",
            "SomeDateProperty@odata.type": "Edm.DateTime",
            "SomeDateProperty": "2020-01-01T01:04:00Z",
            "SomeGuidProperty@odata.type": "Edm.Guid",
            "SomeGuidProperty": "0d391d16-97f1-4b9a-be68-4cc871f90003",
            "SomeBinaryProperty@odata.type": "Edm.Binary",
            "SomeBinaryProperty": "AQIDBAU=",
            "SomeInt64Property@odata.type": "Edm.Int64",
            "SomeInt64Property": "3",
            "SomeDoubleProperty0": 3.0,
            "SomeDoubleProperty1": 3.1,
            "SomeIntProperty": 3
          },
          {
            "odata.etag": "W/\u0022datetime\u00272020-08-21T15%3A54%3A28.6025523Z\u0027\u0022",
            "PartitionKey": "somPartition",
            "RowKey": "04",
            "Timestamp": "2020-08-21T15:54:28.6025523Z",
            "SomeStringProperty": "This is table entity number 04",
            "SomeDateProperty@odata.type": "Edm.DateTime",
            "SomeDateProperty": "2020-01-01T01:05:00Z",
            "SomeGuidProperty@odata.type": "Edm.Guid",
            "SomeGuidProperty": "0d391d16-97f1-4b9a-be68-4cc871f90004",
            "SomeBinaryProperty@odata.type": "Edm.Binary",
            "SomeBinaryProperty": "AQIDBAU=",
            "SomeInt64Property@odata.type": "Edm.Int64",
            "SomeInt64Property": "4",
            "SomeDoubleProperty0": 4.0,
            "SomeDoubleProperty1": 4.1,
            "SomeIntProperty": 4
          },
          {
            "odata.etag": "W/\u0022datetime\u00272020-08-21T15%3A54%3A28.657598Z\u0027\u0022",
            "PartitionKey": "somPartition",
            "RowKey": "05",
            "Timestamp": "2020-08-21T15:54:28.657598Z",
            "SomeStringProperty": "This is table entity number 05",
            "SomeDateProperty@odata.type": "Edm.DateTime",
            "SomeDateProperty": "2020-01-01T01:06:00Z",
            "SomeGuidProperty@odata.type": "Edm.Guid",
            "SomeGuidProperty": "0d391d16-97f1-4b9a-be68-4cc871f90005",
            "SomeBinaryProperty@odata.type": "Edm.Binary",
            "SomeBinaryProperty": "AQIDBAU=",
            "SomeInt64Property@odata.type": "Edm.Int64",
            "SomeInt64Property": "5",
            "SomeDoubleProperty0": 5.0,
            "SomeDoubleProperty1": 5.1,
            "SomeIntProperty": 5
          },
          {
            "odata.etag": "W/\u0022datetime\u00272020-08-21T15%3A54%3A28.7046372Z\u0027\u0022",
            "PartitionKey": "somPartition",
            "RowKey": "06",
            "Timestamp": "2020-08-21T15:54:28.7046372Z",
            "SomeStringProperty": "This is table entity number 06",
            "SomeDateProperty@odata.type": "Edm.DateTime",
            "SomeDateProperty": "2020-01-01T01:07:00Z",
            "SomeGuidProperty@odata.type": "Edm.Guid",
            "SomeGuidProperty": "0d391d16-97f1-4b9a-be68-4cc871f90006",
            "SomeBinaryProperty@odata.type": "Edm.Binary",
            "SomeBinaryProperty": "AQIDBAU=",
            "SomeInt64Property@odata.type": "Edm.Int64",
            "SomeInt64Property": "6",
            "SomeDoubleProperty0": 6.0,
            "SomeDoubleProperty1": 6.1,
            "SomeIntProperty": 6
          },
          {
            "odata.etag": "W/\u0022datetime\u00272020-08-21T15%3A54%3A28.7546792Z\u0027\u0022",
            "PartitionKey": "somPartition",
            "RowKey": "07",
            "Timestamp": "2020-08-21T15:54:28.7546792Z",
            "SomeStringProperty": "This is table entity number 07",
            "SomeDateProperty@odata.type": "Edm.DateTime",
            "SomeDateProperty": "2020-01-01T01:08:00Z",
            "SomeGuidProperty@odata.type": "Edm.Guid",
            "SomeGuidProperty": "0d391d16-97f1-4b9a-be68-4cc871f90007",
            "SomeBinaryProperty@odata.type": "Edm.Binary",
            "SomeBinaryProperty": "AQIDBAU=",
            "SomeInt64Property@odata.type": "Edm.Int64",
            "SomeInt64Property": "7",
            "SomeDoubleProperty0": 7.0,
            "SomeDoubleProperty1": 7.1,
            "SomeIntProperty": 7
          },
          {
            "odata.etag": "W/\u0022datetime\u00272020-08-21T15%3A54%3A28.7967138Z\u0027\u0022",
            "PartitionKey": "somPartition",
            "RowKey": "08",
            "Timestamp": "2020-08-21T15:54:28.7967138Z",
            "SomeStringProperty": "This is table entity number 08",
            "SomeDateProperty@odata.type": "Edm.DateTime",
            "SomeDateProperty": "2020-01-01T01:09:00Z",
            "SomeGuidProperty@odata.type": "Edm.Guid",
            "SomeGuidProperty": "0d391d16-97f1-4b9a-be68-4cc871f90008",
            "SomeBinaryProperty@odata.type": "Edm.Binary",
            "SomeBinaryProperty": "AQIDBAU=",
            "SomeInt64Property@odata.type": "Edm.Int64",
            "SomeInt64Property": "8",
            "SomeDoubleProperty0": 8.0,
            "SomeDoubleProperty1": 8.1,
            "SomeIntProperty": 8
          },
          {
            "odata.etag": "W/\u0022datetime\u00272020-08-21T15%3A54%3A28.8387487Z\u0027\u0022",
            "PartitionKey": "somPartition",
            "RowKey": "09",
            "Timestamp": "2020-08-21T15:54:28.8387487Z",
            "SomeStringProperty": "This is table entity number 09",
            "SomeDateProperty@odata.type": "Edm.DateTime",
            "SomeDateProperty": "2020-01-01T01:10:00Z",
            "SomeGuidProperty@odata.type": "Edm.Guid",
            "SomeGuidProperty": "0d391d16-97f1-4b9a-be68-4cc871f90009",
            "SomeBinaryProperty@odata.type": "Edm.Binary",
            "SomeBinaryProperty": "AQIDBAU=",
            "SomeInt64Property@odata.type": "Edm.Int64",
            "SomeInt64Property": "9",
            "SomeDoubleProperty0": 9.0,
            "SomeDoubleProperty1": 9.1,
            "SomeIntProperty": 9
          },
          {
            "odata.etag": "W/\u0022datetime\u00272020-08-21T15%3A54%3A28.8977983Z\u0027\u0022",
            "PartitionKey": "somPartition",
            "RowKey": "10",
            "Timestamp": "2020-08-21T15:54:28.8977983Z",
            "SomeStringProperty": "This is table entity number 10",
            "SomeDateProperty@odata.type": "Edm.DateTime",
            "SomeDateProperty": "2020-01-01T01:11:00Z",
            "SomeGuidProperty@odata.type": "Edm.Guid",
            "SomeGuidProperty": "0d391d16-97f1-4b9a-be68-4cc871f90010",
            "SomeBinaryProperty@odata.type": "Edm.Binary",
            "SomeBinaryProperty": "AQIDBAU=",
            "SomeInt64Property@odata.type": "Edm.Int64",
            "SomeInt64Property": "10",
            "SomeDoubleProperty0": 10.0,
            "SomeDoubleProperty1": 10.1,
            "SomeIntProperty": 10
          },
          {
            "odata.etag": "W/\u0022datetime\u00272020-08-21T15%3A54%3A28.9408345Z\u0027\u0022",
            "PartitionKey": "somPartition",
            "RowKey": "11",
            "Timestamp": "2020-08-21T15:54:28.9408345Z",
            "SomeStringProperty": "This is table entity number 11",
            "SomeDateProperty@odata.type": "Edm.DateTime",
            "SomeDateProperty": "2020-01-01T01:12:00Z",
            "SomeGuidProperty@odata.type": "Edm.Guid",
            "SomeGuidProperty": "0d391d16-97f1-4b9a-be68-4cc871f90011",
            "SomeBinaryProperty@odata.type": "Edm.Binary",
            "SomeBinaryProperty": "AQIDBAU=",
            "SomeInt64Property@odata.type": "Edm.Int64",
            "SomeInt64Property": "11",
            "SomeDoubleProperty0": 11.0,
            "SomeDoubleProperty1": 11.1,
            "SomeIntProperty": 11
          },
          {
            "odata.etag": "W/\u0022datetime\u00272020-08-21T15%3A54%3A28.9918765Z\u0027\u0022",
            "PartitionKey": "somPartition",
            "RowKey": "12",
            "Timestamp": "2020-08-21T15:54:28.9918765Z",
            "SomeStringProperty": "This is table entity number 12",
            "SomeDateProperty@odata.type": "Edm.DateTime",
            "SomeDateProperty": "2020-01-01T01:13:00Z",
            "SomeGuidProperty@odata.type": "Edm.Guid",
            "SomeGuidProperty": "0d391d16-97f1-4b9a-be68-4cc871f90012",
            "SomeBinaryProperty@odata.type": "Edm.Binary",
            "SomeBinaryProperty": "AQIDBAU=",
            "SomeInt64Property@odata.type": "Edm.Int64",
            "SomeInt64Property": "12",
            "SomeDoubleProperty0": 12.0,
            "SomeDoubleProperty1": 12.1,
            "SomeIntProperty": 12
          },
          {
            "odata.etag": "W/\u0022datetime\u00272020-08-21T15%3A54%3A29.0309094Z\u0027\u0022",
            "PartitionKey": "somPartition",
            "RowKey": "13",
            "Timestamp": "2020-08-21T15:54:29.0309094Z",
            "SomeStringProperty": "This is table entity number 13",
            "SomeDateProperty@odata.type": "Edm.DateTime",
            "SomeDateProperty": "2020-01-01T01:14:00Z",
            "SomeGuidProperty@odata.type": "Edm.Guid",
            "SomeGuidProperty": "0d391d16-97f1-4b9a-be68-4cc871f90013",
            "SomeBinaryProperty@odata.type": "Edm.Binary",
            "SomeBinaryProperty": "AQIDBAU=",
            "SomeInt64Property@odata.type": "Edm.Int64",
            "SomeInt64Property": "13",
            "SomeDoubleProperty0": 13.0,
            "SomeDoubleProperty1": 13.1,
            "SomeIntProperty": 13
          },
          {
            "odata.etag": "W/\u0022datetime\u00272020-08-21T15%3A54%3A29.0729448Z\u0027\u0022",
            "PartitionKey": "somPartition",
            "RowKey": "14",
            "Timestamp": "2020-08-21T15:54:29.0729448Z",
            "SomeStringProperty": "This is table entity number 14",
            "SomeDateProperty@odata.type": "Edm.DateTime",
            "SomeDateProperty": "2020-01-01T01:15:00Z",
            "SomeGuidProperty@odata.type": "Edm.Guid",
            "SomeGuidProperty": "0d391d16-97f1-4b9a-be68-4cc871f90014",
            "SomeBinaryProperty@odata.type": "Edm.Binary",
            "SomeBinaryProperty": "AQIDBAU=",
            "SomeInt64Property@odata.type": "Edm.Int64",
            "SomeInt64Property": "14",
            "SomeDoubleProperty0": 14.0,
            "SomeDoubleProperty1": 14.1,
            "SomeIntProperty": 14
          },
          {
            "odata.etag": "W/\u0022datetime\u00272020-08-21T15%3A54%3A29.1129773Z\u0027\u0022",
            "PartitionKey": "somPartition",
            "RowKey": "15",
            "Timestamp": "2020-08-21T15:54:29.1129773Z",
            "SomeStringProperty": "This is table entity number 15",
            "SomeDateProperty@odata.type": "Edm.DateTime",
            "SomeDateProperty": "2020-01-01T01:16:00Z",
            "SomeGuidProperty@odata.type": "Edm.Guid",
            "SomeGuidProperty": "0d391d16-97f1-4b9a-be68-4cc871f90015",
            "SomeBinaryProperty@odata.type": "Edm.Binary",
            "SomeBinaryProperty": "AQIDBAU=",
            "SomeInt64Property@odata.type": "Edm.Int64",
            "SomeInt64Property": "15",
            "SomeDoubleProperty0": 15.0,
            "SomeDoubleProperty1": 15.1,
            "SomeIntProperty": 15
          },
          {
            "odata.etag": "W/\u0022datetime\u00272020-08-21T15%3A54%3A29.1710256Z\u0027\u0022",
            "PartitionKey": "somPartition",
            "RowKey": "16",
            "Timestamp": "2020-08-21T15:54:29.1710256Z",
            "SomeStringProperty": "This is table entity number 16",
            "SomeDateProperty@odata.type": "Edm.DateTime",
            "SomeDateProperty": "2020-01-01T01:17:00Z",
            "SomeGuidProperty@odata.type": "Edm.Guid",
            "SomeGuidProperty": "0d391d16-97f1-4b9a-be68-4cc871f90016",
            "SomeBinaryProperty@odata.type": "Edm.Binary",
            "SomeBinaryProperty": "AQIDBAU=",
            "SomeInt64Property@odata.type": "Edm.Int64",
            "SomeInt64Property": "16",
            "SomeDoubleProperty0": 16.0,
            "SomeDoubleProperty1": 16.1,
            "SomeIntProperty": 16
          },
          {
            "odata.etag": "W/\u0022datetime\u00272020-08-21T15%3A54%3A29.2190664Z\u0027\u0022",
            "PartitionKey": "somPartition",
            "RowKey": "17",
            "Timestamp": "2020-08-21T15:54:29.2190664Z",
            "SomeStringProperty": "This is table entity number 17",
            "SomeDateProperty@odata.type": "Edm.DateTime",
            "SomeDateProperty": "2020-01-01T01:18:00Z",
            "SomeGuidProperty@odata.type": "Edm.Guid",
            "SomeGuidProperty": "0d391d16-97f1-4b9a-be68-4cc871f90017",
            "SomeBinaryProperty@odata.type": "Edm.Binary",
            "SomeBinaryProperty": "AQIDBAU=",
            "SomeInt64Property@odata.type": "Edm.Int64",
            "SomeInt64Property": "17",
            "SomeDoubleProperty0": 17.0,
            "SomeDoubleProperty1": 17.1,
            "SomeIntProperty": 17
          },
          {
            "odata.etag": "W/\u0022datetime\u00272020-08-21T15%3A54%3A29.2671051Z\u0027\u0022",
            "PartitionKey": "somPartition",
            "RowKey": "18",
            "Timestamp": "2020-08-21T15:54:29.2671051Z",
            "SomeStringProperty": "This is table entity number 18",
            "SomeDateProperty@odata.type": "Edm.DateTime",
            "SomeDateProperty": "2020-01-01T01:19:00Z",
            "SomeGuidProperty@odata.type": "Edm.Guid",
            "SomeGuidProperty": "0d391d16-97f1-4b9a-be68-4cc871f90018",
            "SomeBinaryProperty@odata.type": "Edm.Binary",
            "SomeBinaryProperty": "AQIDBAU=",
            "SomeInt64Property@odata.type": "Edm.Int64",
            "SomeInt64Property": "18",
            "SomeDoubleProperty0": 18.0,
            "SomeDoubleProperty1": 18.1,
            "SomeIntProperty": 18
          },
          {
            "odata.etag": "W/\u0022datetime\u00272020-08-21T15%3A54%3A29.3181484Z\u0027\u0022",
            "PartitionKey": "somPartition",
            "RowKey": "19",
            "Timestamp": "2020-08-21T15:54:29.3181484Z",
            "SomeStringProperty": "This is table entity number 19",
            "SomeDateProperty@odata.type": "Edm.DateTime",
            "SomeDateProperty": "2020-01-01T01:20:00Z",
            "SomeGuidProperty@odata.type": "Edm.Guid",
            "SomeGuidProperty": "0d391d16-97f1-4b9a-be68-4cc871f90019",
            "SomeBinaryProperty@odata.type": "Edm.Binary",
            "SomeBinaryProperty": "AQIDBAU=",
            "SomeInt64Property@odata.type": "Edm.Int64",
            "SomeInt64Property": "19",
            "SomeDoubleProperty0": 19.0,
            "SomeDoubleProperty1": 19.1,
            "SomeIntProperty": 19
          },
          {
            "odata.etag": "W/\u0022datetime\u00272020-08-21T15%3A54%3A29.3601825Z\u0027\u0022",
            "PartitionKey": "somPartition",
            "RowKey": "20",
            "Timestamp": "2020-08-21T15:54:29.3601825Z",
            "SomeStringProperty": "This is table entity number 20",
            "SomeDateProperty@odata.type": "Edm.DateTime",
            "SomeDateProperty": "2020-01-01T01:21:00Z",
            "SomeGuidProperty@odata.type": "Edm.Guid",
            "SomeGuidProperty": "0d391d16-97f1-4b9a-be68-4cc871f90020",
            "SomeBinaryProperty@odata.type": "Edm.Binary",
            "SomeBinaryProperty": "AQIDBAU=",
            "SomeInt64Property@odata.type": "Edm.Int64",
            "SomeInt64Property": "20",
            "SomeDoubleProperty0": 20.0,
            "SomeDoubleProperty1": 20.1,
            "SomeIntProperty": 20
          }
        ]
      }
    },
    {
      "RequestUri": "https://chrissscratch.table.core.windows.net/Tables(\u0027testtablehyay63ko\u0027)",
      "RequestMethod": "DELETE",
      "RequestHeaders": {
        "Accept": "application/json",
        "Authorization": "Sanitized",
        "traceparent": "00-5942aac7232caa48ace280f7f2a6b00c-a6555ca7ee0c784f-00",
        "User-Agent": [
          "azsdk-net-Data.Tables/1.0.0-dev.20200821.1",
          "(.NET Core 4.6.29130.01; Microsoft Windows 10.0.18363 )"
        ],
        "x-ms-client-request-id": "912800ef5331eb3277e0b47d79335742",
        "x-ms-date": "Fri, 21 Aug 2020 15:54:29 GMT",
        "x-ms-return-client-request-id": "true",
        "x-ms-version": "2019-02-02"
      },
      "RequestBody": null,
      "StatusCode": 204,
      "ResponseHeaders": {
        "Cache-Control": "no-cache",
        "Content-Length": "0",
        "Date": "Fri, 21 Aug 2020 15:54:28 GMT",
        "Server": [
          "Windows-Azure-Table/1.0",
          "Microsoft-HTTPAPI/2.0"
        ],
        "X-Content-Type-Options": "nosniff",
        "x-ms-client-request-id": "912800ef5331eb3277e0b47d79335742",
        "x-ms-request-id": "f56a7efd-6002-007f-64d3-775ada000000",
        "x-ms-version": "2019-02-02"
      },
      "ResponseBody": []
    }
  ],
  "Variables": {
    "RandomSeed": "1444744060",
    "TABLES_PRIMARY_STORAGE_ACCOUNT_KEY": "Kg==",
    "TABLES_STORAGE_ACCOUNT_NAME": "chrissscratch"
  }
}
