{
  "Entries": [
    {
      "RequestUri": "https://azsdknet-test-ta.cognitiveservices.azure.com/text/analytics/v3.1-preview.1/sentiment?showStats=false",
      "RequestMethod": "POST",
      "RequestHeaders": {
        "Content-Length": "64",
        "Content-Type": "application/json",
        "Ocp-Apim-Subscription-Key": "Sanitized",
        "traceparent": "00-2d9a537b17d5f54d8cb33ae4c6eb0729-a9ecea0e2d5b9744-00",
        "User-Agent": [
          "azsdk-net-AI.TextAnalytics/5.1.0-dev.20200818.1",
          "(.NET Core 4.6.29017.01; Microsoft Windows 10.0.18363 )"
        ],
        "x-ms-client-request-id": "783335c35e3bb92de2b34d8ffb643c24",
        "x-ms-return-client-request-id": "true"
      },
      "RequestBody": {
        "documents": [
          {
            "id": null,
            "text": "Hello world",
            "language": "en"
          }
        ]
      },
      "StatusCode": 400,
      "ResponseHeaders": {
        "apim-request-id": "ad4ce0d5-73dc-44bf-b4f6-401448d993a4",
        "Content-Type": "application/json; charset=utf-8",
        "Date": "Wed, 19 Aug 2020 03:21:02 GMT",
        "Strict-Transport-Security": "max-age=31536000; includeSubDomains; preload",
        "Transfer-Encoding": "chunked",
        "X-Content-Type-Options": "nosniff",
        "x-envoy-upstream-service-time": "6"
      },
      "ResponseBody": {
        "error": {
          "code": "InvalidRequest",
          "message": "Invalid document in request.",
          "innererror": {
            "code": "InvalidDocument",
            "message": "At least one document is missing an Id attribute."
          }
        }
      }
    }
  ],
  "Variables": {
    "RandomSeed": "1309077633",
    "TEXT_ANALYTICS_API_KEY": "Sanitized",
    "TEXT_ANALYTICS_ENDPOINT": "https://azsdknet-test-ta.cognitiveservices.azure.com/"
  }
}