{
  "Entries": [
    {
      "RequestUri": "https://azsdknet-test-ta.cognitiveservices.azure.com/text/analytics/v3.1-preview.1/sentiment?showStats=true",
      "RequestMethod": "POST",
      "RequestHeaders": {
        "Content-Length": "224",
        "Content-Type": "application/json",
        "Ocp-Apim-Subscription-Key": "Sanitized",
        "traceparent": "00-7dc8667b2272c24bb232f2e3bf83a0e7-eb49deeaed181a4c-00",
        "User-Agent": [
          "azsdk-net-AI.TextAnalytics/5.1.0-dev.20200817.1",
          "(.NET Core 4.6.29017.01; Microsoft Windows 10.0.18363 )"
        ],
        "x-ms-client-request-id": "2336fc0a08eb7d752dd471cc0bc5a23b",
        "x-ms-return-client-request-id": "true"
      },
      "RequestBody": {
        "documents": [
          {
            "id": "1",
            "text": "Pike Place Market is my favorite Seattle attraction.  We had so much fun there.",
            "language": "en"
          },
          {
            "id": "2",
            "text": "Esta comida no me gusta. Siempre que la como me enfermo.",
            "language": "es"
          }
        ]
      },
      "StatusCode": 200,
      "ResponseHeaders": {
        "apim-request-id": "ddf39391-cc75-44e8-a42c-ae9864b81d50",
        "Content-Type": "application/json; charset=utf-8",
        "csp-billing-usage": "CognitiveServices.TextAnalytics.BatchScoring=2",
        "Date": "Mon, 17 Aug 2020 20:11:07 GMT",
        "Strict-Transport-Security": "max-age=31536000; includeSubDomains; preload",
        "Transfer-Encoding": "chunked",
        "X-Content-Type-Options": "nosniff",
        "x-envoy-upstream-service-time": "1120"
      },
      "ResponseBody": {
        "statistics": {
          "documentsCount": 2,
          "validDocumentsCount": 2,
          "erroneousDocumentsCount": 0,
          "transactionsCount": 2
        },
        "documents": [
          {
            "id": "1",
            "sentiment": "positive",
            "statistics": {
              "charactersCount": 79,
              "transactionsCount": 1
            },
            "confidenceScores": {
              "positive": 1.0,
              "neutral": 0.0,
              "negative": 0.0
            },
            "sentences": [
              {
                "sentiment": "positive",
                "confidenceScores": {
                  "positive": 1.0,
                  "neutral": 0.0,
                  "negative": 0.0
                },
                "offset": 0,
                "length": 52,
                "text": "Pike Place Market is my favorite Seattle attraction."
              },
              {
                "sentiment": "positive",
                "confidenceScores": {
                  "positive": 1.0,
                  "neutral": 0.0,
                  "negative": 0.0
                },
                "offset": 54,
                "length": 25,
                "text": "We had so much fun there."
              }
            ],
            "warnings": []
          },
          {
            "id": "2",
            "sentiment": "negative",
            "statistics": {
              "charactersCount": 56,
              "transactionsCount": 1
            },
            "confidenceScores": {
              "positive": 0.06,
              "neutral": 0.1,
              "negative": 0.84
            },
            "sentences": [
              {
                "sentiment": "negative",
                "confidenceScores": {
                  "positive": 0.11,
                  "neutral": 0.18,
                  "negative": 0.71
                },
                "offset": 0,
                "length": 24,
                "text": "Esta comida no me gusta."
              },
              {
                "sentiment": "negative",
                "confidenceScores": {
                  "positive": 0.01,
                  "neutral": 0.01,
                  "negative": 0.98
                },
                "offset": 25,
                "length": 31,
                "text": "Siempre que la como me enfermo."
              }
            ],
            "warnings": []
          }
        ],
        "errors": [],
        "modelVersion": "2020-04-01"
      }
    }
  ],
  "Variables": {
    "RandomSeed": "599440323",
    "TEXT_ANALYTICS_API_KEY": "Sanitized",
    "TEXT_ANALYTICS_ENDPOINT": "https://azsdknet-test-ta.cognitiveservices.azure.com/"
  }
}