{
  "Entries": [
    {
      "RequestUri": "https://azsdknet-test-ta.cognitiveservices.azure.com/text/analytics/v3.1-preview.1/sentiment?showStats=true",
      "RequestMethod": "POST",
      "RequestHeaders": {
        "Content-Length": "222",
        "Content-Type": "application/json",
        "Ocp-Apim-Subscription-Key": "Sanitized",
        "traceparent": "00-4a1b7e84f0010d498754172d4709a667-44ec5367202ee746-00",
        "User-Agent": [
          "azsdk-net-AI.TextAnalytics/5.1.0-dev.20200817.1",
          "(.NET Core 4.6.29017.01; Microsoft Windows 10.0.18363 )"
        ],
        "x-ms-client-request-id": "579c804c95affd5d48f58ca7c824669c",
        "x-ms-return-client-request-id": "true"
      },
      "RequestBody": {
        "documents": [
          {
            "id": "0",
            "text": "That was the best day of my life!. I had a lot of fun at the park.",
            "language": "en"
          },
          {
            "id": "1",
            "text": "I\u0027m not sure how I feel about this product. It is complicated.",
            "language": "en"
          }
        ]
      },
      "StatusCode": 200,
      "ResponseHeaders": {
        "apim-request-id": "a1cb4cb4-b55e-4de8-b4a1-89f93ad24a79",
        "Content-Type": "application/json; charset=utf-8",
        "csp-billing-usage": "CognitiveServices.TextAnalytics.BatchScoring=2",
        "Date": "Mon, 17 Aug 2020 20:11:03 GMT",
        "Strict-Transport-Security": "max-age=31536000; includeSubDomains; preload",
        "Transfer-Encoding": "chunked",
        "X-Content-Type-Options": "nosniff",
        "x-envoy-upstream-service-time": "940"
      },
      "ResponseBody": {
        "statistics": {
          "documentsCount": 2,
          "validDocumentsCount": 2,
          "erroneousDocumentsCount": 0,
          "transactionsCount": 2
        },
        "documents": [
          {
            "id": "0",
            "sentiment": "positive",
            "statistics": {
              "charactersCount": 66,
              "transactionsCount": 1
            },
            "confidenceScores": {
              "positive": 1.0,
              "neutral": 0.0,
              "negative": 0.0
            },
            "sentences": [
              {
                "sentiment": "positive",
                "confidenceScores": {
                  "positive": 1.0,
                  "neutral": 0.0,
                  "negative": 0.0
                },
                "offset": 0,
                "length": 34,
                "text": "That was the best day of my life!."
              },
              {
                "sentiment": "positive",
                "confidenceScores": {
                  "positive": 1.0,
                  "neutral": 0.0,
                  "negative": 0.0
                },
                "offset": 35,
                "length": 31,
                "text": "I had a lot of fun at the park."
              }
            ],
            "warnings": []
          },
          {
            "id": "1",
            "sentiment": "negative",
            "statistics": {
              "charactersCount": 62,
              "transactionsCount": 1
            },
            "confidenceScores": {
              "positive": 0.0,
              "neutral": 0.0,
              "negative": 1.0
            },
            "sentences": [
              {
                "sentiment": "neutral",
                "confidenceScores": {
                  "positive": 0.02,
                  "neutral": 0.85,
                  "negative": 0.13
                },
                "offset": 0,
                "length": 43,
                "text": "I\u0027m not sure how I feel about this product."
              },
              {
                "sentiment": "negative",
                "confidenceScores": {
                  "positive": 0.0,
                  "neutral": 0.0,
                  "negative": 1.0
                },
                "offset": 44,
                "length": 18,
                "text": "It is complicated."
              }
            ],
            "warnings": []
          }
        ],
        "errors": [],
        "modelVersion": "2020-04-01"
      }
    }
  ],
  "Variables": {
    "RandomSeed": "521540654",
    "TEXT_ANALYTICS_API_KEY": "Sanitized",
    "TEXT_ANALYTICS_ENDPOINT": "https://azsdknet-test-ta.cognitiveservices.azure.com/"
  }
}