{
  "Entries": [
    {
      "RequestUri": "https://azsdknet-test-ta.cognitiveservices.azure.com/text/analytics/v3.1-preview.1/languages",
      "RequestMethod": "POST",
      "RequestHeaders": {
        "Content-Length": "82",
        "Content-Type": "application/json",
        "Ocp-Apim-Subscription-Key": "Sanitized",
        "traceparent": "00-55f4f5c3c558f444a6ea34aa57bbf43a-ced79a0b7e4a2041-00",
        "User-Agent": [
          "azsdk-net-AI.TextAnalytics/5.1.0-dev.20200804.1",
          "(.NET Core 4.6.28516.03; Microsoft Windows 10.0.18363 )"
        ],
        "x-ms-client-request-id": "d1d0502c8322f815b1082c313ab172c6",
        "x-ms-return-client-request-id": "true"
      },
      "RequestBody": {
        "documents": [
          {
            "id": "0",
            "text": "This is written in English.",
            "countryHint": "us"
          }
        ]
      },
      "StatusCode": 200,
      "ResponseHeaders": {
        "apim-request-id": "f14425c0-5151-4826-adb1-c70d1069056f",
        "Content-Type": "application/json; charset=utf-8",
        "csp-billing-usage": "CognitiveServices.TextAnalytics.BatchScoring=1",
        "Date": "Tue, 04 Aug 2020 21:29:56 GMT",
        "Strict-Transport-Security": "max-age=31536000; includeSubDomains; preload",
        "Transfer-Encoding": "chunked",
        "X-Content-Type-Options": "nosniff",
        "x-envoy-upstream-service-time": "15"
      },
      "ResponseBody": {
        "documents": [
          {
            "id": "0",
            "detectedLanguage": {
              "name": "Portuguese",
              "iso6391Name": "pt",
              "confidenceScore": 0.41
            },
            "warnings": []
          }
        ],
        "errors": [],
        "modelVersion": "2020-07-01"
      }
    }
  ],
  "Variables": {
    "RandomSeed": "430074927",
    "TEXT_ANALYTICS_API_KEY": "Sanitized",
    "TEXT_ANALYTICS_ENDPOINT": "https://azsdknet-test-ta.cognitiveservices.azure.com/"
  }
}