{
  "Entries": [
    {
      "RequestUri": "https://azsdknet-test-ta.cognitiveservices.azure.com/text/analytics/v3.1-preview.1/languages",
      "RequestMethod": "POST",
      "RequestHeaders": {
        "Content-Length": "95",
        "Content-Type": "application/json",
        "Ocp-Apim-Subscription-Key": "Sanitized",
        "traceparent": "00-2444c4d1a594cf46b2444e6814de5f50-bde13f19d2be784b-00",
        "User-Agent": [
          "azsdk-net-AI.TextAnalytics/5.1.0-dev.20200804.1",
          "(.NET Core 4.6.28516.03; Microsoft Windows 10.0.18363 )"
        ],
        "x-ms-client-request-id": "1507ae4f174d87bbe34c3242b0c40057",
        "x-ms-return-client-request-id": "true"
      },
      "RequestBody": {
        "documents": [
          {
            "id": "0",
            "text": "Este documento est\u00E1 en espa\u00F1ol",
            "countryHint": "CO"
          }
        ]
      },
      "StatusCode": 200,
      "ResponseHeaders": {
        "apim-request-id": "d33f7dd7-98c4-4e30-8d58-eb1c113e86a9",
        "Content-Type": "application/json; charset=utf-8",
        "csp-billing-usage": "CognitiveServices.TextAnalytics.BatchScoring=1",
        "Date": "Tue, 04 Aug 2020 21:30:17 GMT",
        "Strict-Transport-Security": "max-age=31536000; includeSubDomains; preload",
        "Transfer-Encoding": "chunked",
        "X-Content-Type-Options": "nosniff",
        "x-envoy-upstream-service-time": "8"
      },
      "ResponseBody": {
        "documents": [
          {
            "id": "0",
            "detectedLanguage": {
              "name": "Spanish",
              "iso6391Name": "es",
              "confidenceScore": 1.0
            },
            "warnings": []
          }
        ],
        "errors": [],
        "modelVersion": "2020-07-01"
      }
    }
  ],
  "Variables": {
    "RandomSeed": "1898129415",
    "TEXT_ANALYTICS_API_KEY": "Sanitized",
    "TEXT_ANALYTICS_ENDPOINT": "https://azsdknet-test-ta.cognitiveservices.azure.com/"
  }
}