{
  "Entries": [
    {
      "RequestUri": "https://azsdknet-test-ta.cognitiveservices.azure.com/text/analytics/v3.1-preview.1/keyPhrases",
      "RequestMethod": "POST",
      "RequestHeaders": {
        "Content-Length": "88",
        "Content-Type": "application/json",
        "Ocp-Apim-Subscription-Key": "Sanitized",
        "traceparent": "00-6f05a7c37efc2843b6b48fc9056420ce-4a8e0ae4c6a0e049-00",
        "User-Agent": [
          "azsdk-net-AI.TextAnalytics/5.1.0-dev.20200818.1",
          "(.NET Core 4.6.29017.01; Microsoft Windows 10.0.18363 )"
        ],
        "x-ms-client-request-id": "e551d8114b9e8ab4cf548d21ea063f29",
        "x-ms-return-client-request-id": "true"
      },
      "RequestBody": {
        "documents": [
          {
            "id": "0",
            "text": "Mi perro est\u00E1 en el veterinario",
            "language": "es"
          }
        ]
      },
      "StatusCode": 200,
      "ResponseHeaders": {
        "apim-request-id": "16e1adcb-1a4d-4b0d-b214-f4e16691526a",
        "Content-Type": "application/json; charset=utf-8",
        "csp-billing-usage": "CognitiveServices.TextAnalytics.BatchScoring=1",
        "Date": "Wed, 19 Aug 2020 02:51:23 GMT",
        "Strict-Transport-Security": "max-age=31536000; includeSubDomains; preload",
        "Transfer-Encoding": "chunked",
        "X-Content-Type-Options": "nosniff",
        "x-envoy-upstream-service-time": "7"
      },
      "ResponseBody": {
        "documents": [
          {
            "id": "0",
            "keyPhrases": [
              "perro",
              "veterinario"
            ],
            "warnings": []
          }
        ],
        "errors": [],
        "modelVersion": "2020-07-01"
      }
    }
  ],
  "Variables": {
    "RandomSeed": "421135054",
    "TEXT_ANALYTICS_API_KEY": "Sanitized",
    "TEXT_ANALYTICS_ENDPOINT": "https://azsdknet-test-ta.cognitiveservices.azure.com/"
  }
}