{
  "Entries": [
    {
      "RequestUri": "https://amandadev2.blob.core.windows.net/test-container-623da416-db63-72bf-cc82-4fc2e03038ed?restype=container",
      "RequestMethod": "PUT",
      "RequestHeaders": {
        "Authorization": "Sanitized",
        "traceparent": "00-af65b934455c8a4eaf395ddac072d5fc-378442f2d0c6e44b-00",
        "User-Agent": [
          "azsdk-net-Storage.Blobs/12.5.0-dev.20200803.1",
          "(.NET Core 4.6.29017.01; Microsoft Windows 10.0.18363 )"
        ],
        "x-ms-client-request-id": "4c1e32ca-5c80-49d4-8ccf-ddb75abbe768",
        "x-ms-date": "Mon, 03 Aug 2020 17:53:49 GMT",
        "x-ms-return-client-request-id": "true",
        "x-ms-version": "2019-12-12"
      },
      "RequestBody": null,
      "StatusCode": 201,
      "ResponseHeaders": {
        "Content-Length": "0",
        "Date": "Mon, 03 Aug 2020 17:53:49 GMT",
        "ETag": "\u00220x8D837D62D59C441\u0022",
        "Last-Modified": "Mon, 03 Aug 2020 17:53:49 GMT",
        "Server": [
          "Windows-Azure-Blob/1.0",
          "Microsoft-HTTPAPI/2.0"
        ],
        "x-ms-client-request-id": "4c1e32ca-5c80-49d4-8ccf-ddb75abbe768",
        "x-ms-request-id": "45a51613-d01e-0079-02bf-69fb51000000",
        "x-ms-version": "2019-12-12"
      },
      "ResponseBody": []
    },
    {
      "RequestUri": "https://amandadev2.blob.core.windows.net/test-container-623da416-db63-72bf-cc82-4fc2e03038ed?restype=container\u0026comp=acl",
      "RequestMethod": "PUT",
      "RequestHeaders": {
        "Authorization": "Sanitized",
        "Content-Length": "249",
        "Content-Type": "application/xml",
        "traceparent": "00-c685b9ddcffac2469f400b55b3119eec-f32b5f1d79e8824c-00",
        "User-Agent": [
          "azsdk-net-Storage.Blobs/12.5.0-dev.20200803.1",
          "(.NET Core 4.6.29017.01; Microsoft Windows 10.0.18363 )"
        ],
        "x-ms-blob-public-access": "container",
        "x-ms-client-request-id": "31e18a77-7474-50a9-0421-0c503fb103c0",
        "x-ms-date": "Mon, 03 Aug 2020 17:53:49 GMT",
        "x-ms-return-client-request-id": "true",
        "x-ms-version": "2019-12-12"
      },
      "RequestBody": "\u003CSignedIdentifiers\u003E\u003CSignedIdentifier\u003E\u003CId\u003Eibdcsxjqywtuskgehlpt\u003C/Id\u003E\u003CAccessPolicy\u003E\u003CStart\u003E2020-08-03T16:53:49.4699924Z\u003C/Start\u003E\u003CExpiry\u003E2020-08-03T18:53:49.4699924Z\u003C/Expiry\u003E\u003CPermission\u003Erw\u003C/Permission\u003E\u003C/AccessPolicy\u003E\u003C/SignedIdentifier\u003E\u003C/SignedIdentifiers\u003E",
      "StatusCode": 200,
      "ResponseHeaders": {
        "Content-Length": "0",
        "Date": "Mon, 03 Aug 2020 17:53:49 GMT",
        "ETag": "\u00220x8D837D62D610A9B\u0022",
        "Last-Modified": "Mon, 03 Aug 2020 17:53:49 GMT",
        "Server": [
          "Windows-Azure-Blob/1.0",
          "Microsoft-HTTPAPI/2.0"
        ],
        "x-ms-client-request-id": "31e18a77-7474-50a9-0421-0c503fb103c0",
        "x-ms-request-id": "45a51640-d01e-0079-28bf-69fb51000000",
        "x-ms-version": "2019-12-12"
      },
      "ResponseBody": []
    },
    {
      "RequestUri": "https://amandadev2.blob.core.windows.net/test-container-623da416-db63-72bf-cc82-4fc2e03038ed?restype=container",
      "RequestMethod": "DELETE",
      "RequestHeaders": {
        "Authorization": "Sanitized",
        "traceparent": "00-de0f739bf753474ba4c1c0f370f30d2c-59d172b6bf58a84a-00",
        "User-Agent": [
          "azsdk-net-Storage.Blobs/12.5.0-dev.20200803.1",
          "(.NET Core 4.6.29017.01; Microsoft Windows 10.0.18363 )"
        ],
        "x-ms-client-request-id": "28b4c59f-c6b7-9e39-421b-c4f15ec2bbdd",
        "x-ms-date": "Mon, 03 Aug 2020 17:53:49 GMT",
        "x-ms-return-client-request-id": "true",
        "x-ms-version": "2019-12-12"
      },
      "RequestBody": null,
      "StatusCode": 202,
      "ResponseHeaders": {
        "Content-Length": "0",
        "Date": "Mon, 03 Aug 2020 17:53:49 GMT",
        "Server": [
          "Windows-Azure-Blob/1.0",
          "Microsoft-HTTPAPI/2.0"
        ],
        "x-ms-client-request-id": "28b4c59f-c6b7-9e39-421b-c4f15ec2bbdd",
        "x-ms-request-id": "45a5166c-d01e-0079-52bf-69fb51000000",
        "x-ms-version": "2019-12-12"
      },
      "ResponseBody": []
    },
    {
      "RequestUri": "https://amandadev2.blob.core.windows.net/test-container-908cf246-a2e0-1620-5977-abb25951d4fc?restype=container",
      "RequestMethod": "PUT",
      "RequestHeaders": {
        "Authorization": "Sanitized",
        "traceparent": "00-3f83847f1a0d574cb9f8ba7c66559921-a656d74c47ea304a-00",
        "User-Agent": [
          "azsdk-net-Storage.Blobs/12.5.0-dev.20200803.1",
          "(.NET Core 4.6.29017.01; Microsoft Windows 10.0.18363 )"
        ],
        "x-ms-client-request-id": "89123d07-587b-fd28-a59e-cf401a8744f1",
        "x-ms-date": "Mon, 03 Aug 2020 17:53:49 GMT",
        "x-ms-return-client-request-id": "true",
        "x-ms-version": "2019-12-12"
      },
      "RequestBody": null,
      "StatusCode": 201,
      "ResponseHeaders": {
        "Content-Length": "0",
        "Date": "Mon, 03 Aug 2020 17:53:49 GMT",
        "ETag": "\u00220x8D837D62D84B66F\u0022",
        "Last-Modified": "Mon, 03 Aug 2020 17:53:49 GMT",
        "Server": [
          "Windows-Azure-Blob/1.0",
          "Microsoft-HTTPAPI/2.0"
        ],
        "x-ms-client-request-id": "89123d07-587b-fd28-a59e-cf401a8744f1",
        "x-ms-request-id": "9cbd0573-b01e-0100-03bf-69d44e000000",
        "x-ms-version": "2019-12-12"
      },
      "ResponseBody": []
    },
    {
      "RequestUri": "https://amandadev2.blob.core.windows.net/test-container-908cf246-a2e0-1620-5977-abb25951d4fc?restype=container\u0026comp=acl",
      "RequestMethod": "PUT",
      "RequestHeaders": {
        "Authorization": "Sanitized",
        "Content-Length": "249",
        "Content-Type": "application/xml",
        "If-Modified-Since": "Sun, 02 Aug 2020 17:53:49 GMT",
        "traceparent": "00-0cf8c8d6bc3e9548a3ed88d4a7bd96e6-54fac2b8a38f404a-00",
        "User-Agent": [
          "azsdk-net-Storage.Blobs/12.5.0-dev.20200803.1",
          "(.NET Core 4.6.29017.01; Microsoft Windows 10.0.18363 )"
        ],
        "x-ms-blob-public-access": "container",
        "x-ms-client-request-id": "c5b1b186-a65c-eca0-c6ff-121423b5d432",
        "x-ms-date": "Mon, 03 Aug 2020 17:53:49 GMT",
        "x-ms-return-client-request-id": "true",
        "x-ms-version": "2019-12-12"
      },
      "RequestBody": "\u003CSignedIdentifiers\u003E\u003CSignedIdentifier\u003E\u003CId\u003Ernckpnqcqfhmbhitojwr\u003C/Id\u003E\u003CAccessPolicy\u003E\u003CStart\u003E2020-08-03T16:53:49.4699924Z\u003C/Start\u003E\u003CExpiry\u003E2020-08-03T18:53:49.4699924Z\u003C/Expiry\u003E\u003CPermission\u003Erw\u003C/Permission\u003E\u003C/AccessPolicy\u003E\u003C/SignedIdentifier\u003E\u003C/SignedIdentifiers\u003E",
      "StatusCode": 200,
      "ResponseHeaders": {
        "Content-Length": "0",
        "Date": "Mon, 03 Aug 2020 17:53:49 GMT",
        "ETag": "\u00220x8D837D62D8C1A26\u0022",
        "Last-Modified": "Mon, 03 Aug 2020 17:53:49 GMT",
        "Server": [
          "Windows-Azure-Blob/1.0",
          "Microsoft-HTTPAPI/2.0"
        ],
        "x-ms-client-request-id": "c5b1b186-a65c-eca0-c6ff-121423b5d432",
        "x-ms-request-id": "9cbd05aa-b01e-0100-35bf-69d44e000000",
        "x-ms-version": "2019-12-12"
      },
      "ResponseBody": []
    },
    {
      "RequestUri": "https://amandadev2.blob.core.windows.net/test-container-908cf246-a2e0-1620-5977-abb25951d4fc?restype=container",
      "RequestMethod": "DELETE",
      "RequestHeaders": {
        "Authorization": "Sanitized",
        "traceparent": "00-dfe9c87ff1099846a2f1ffd595a30fc7-05f66eacda7fba4e-00",
        "User-Agent": [
          "azsdk-net-Storage.Blobs/12.5.0-dev.20200803.1",
          "(.NET Core 4.6.29017.01; Microsoft Windows 10.0.18363 )"
        ],
        "x-ms-client-request-id": "ba93a54a-e536-98c0-a995-19dca1c03a57",
        "x-ms-date": "Mon, 03 Aug 2020 17:53:49 GMT",
        "x-ms-return-client-request-id": "true",
        "x-ms-version": "2019-12-12"
      },
      "RequestBody": null,
      "StatusCode": 202,
      "ResponseHeaders": {
        "Content-Length": "0",
        "Date": "Mon, 03 Aug 2020 17:53:49 GMT",
        "Server": [
          "Windows-Azure-Blob/1.0",
          "Microsoft-HTTPAPI/2.0"
        ],
        "x-ms-client-request-id": "ba93a54a-e536-98c0-a995-19dca1c03a57",
        "x-ms-request-id": "9cbd05dd-b01e-0100-67bf-69d44e000000",
        "x-ms-version": "2019-12-12"
      },
      "ResponseBody": []
    },
    {
      "RequestUri": "https://amandadev2.blob.core.windows.net/test-container-4b99b0f3-4914-ad8e-3253-58da487f3faa?restype=container",
      "RequestMethod": "PUT",
      "RequestHeaders": {
        "Authorization": "Sanitized",
        "traceparent": "00-c41abc7c7a59df4a901a77a79c36668a-2bcf2bd8c54f8542-00",
        "User-Agent": [
          "azsdk-net-Storage.Blobs/12.5.0-dev.20200803.1",
          "(.NET Core 4.6.29017.01; Microsoft Windows 10.0.18363 )"
        ],
        "x-ms-client-request-id": "fb2c0747-6981-000d-16e5-87e28ce54f2a",
        "x-ms-date": "Mon, 03 Aug 2020 17:53:50 GMT",
        "x-ms-return-client-request-id": "true",
        "x-ms-version": "2019-12-12"
      },
      "RequestBody": null,
      "StatusCode": 201,
      "ResponseHeaders": {
        "Content-Length": "0",
        "Date": "Mon, 03 Aug 2020 17:53:49 GMT",
        "ETag": "\u00220x8D837D62DB0CF37\u0022",
        "Last-Modified": "Mon, 03 Aug 2020 17:53:50 GMT",
        "Server": [
          "Windows-Azure-Blob/1.0",
          "Microsoft-HTTPAPI/2.0"
        ],
        "x-ms-client-request-id": "fb2c0747-6981-000d-16e5-87e28ce54f2a",
        "x-ms-request-id": "50e55cd6-c01e-0000-15bf-69921b000000",
        "x-ms-version": "2019-12-12"
      },
      "ResponseBody": []
    },
    {
      "RequestUri": "https://amandadev2.blob.core.windows.net/test-container-4b99b0f3-4914-ad8e-3253-58da487f3faa?restype=container\u0026comp=acl",
      "RequestMethod": "PUT",
      "RequestHeaders": {
        "Authorization": "Sanitized",
        "Content-Length": "249",
        "Content-Type": "application/xml",
        "If-Unmodified-Since": "Tue, 04 Aug 2020 17:53:49 GMT",
        "traceparent": "00-3844eac9d3453a4184788a71b624b217-bfc0a93ac8623c43-00",
        "User-Agent": [
          "azsdk-net-Storage.Blobs/12.5.0-dev.20200803.1",
          "(.NET Core 4.6.29017.01; Microsoft Windows 10.0.18363 )"
        ],
        "x-ms-blob-public-access": "container",
        "x-ms-client-request-id": "8bb50b10-53d2-df46-8513-0a39f7f64be0",
        "x-ms-date": "Mon, 03 Aug 2020 17:53:50 GMT",
        "x-ms-return-client-request-id": "true",
        "x-ms-version": "2019-12-12"
      },
      "RequestBody": "\u003CSignedIdentifiers\u003E\u003CSignedIdentifier\u003E\u003CId\u003Elfxxpfwjmgiswofqhgtl\u003C/Id\u003E\u003CAccessPolicy\u003E\u003CStart\u003E2020-08-03T16:53:49.4699924Z\u003C/Start\u003E\u003CExpiry\u003E2020-08-03T18:53:49.4699924Z\u003C/Expiry\u003E\u003CPermission\u003Erw\u003C/Permission\u003E\u003C/AccessPolicy\u003E\u003C/SignedIdentifier\u003E\u003C/SignedIdentifiers\u003E",
      "StatusCode": 200,
      "ResponseHeaders": {
        "Content-Length": "0",
        "Date": "Mon, 03 Aug 2020 17:53:49 GMT",
        "ETag": "\u00220x8D837D62DB81438\u0022",
        "Last-Modified": "Mon, 03 Aug 2020 17:53:50 GMT",
        "Server": [
          "Windows-Azure-Blob/1.0",
          "Microsoft-HTTPAPI/2.0"
        ],
        "x-ms-client-request-id": "8bb50b10-53d2-df46-8513-0a39f7f64be0",
        "x-ms-request-id": "50e55cf2-c01e-0000-2ebf-69921b000000",
        "x-ms-version": "2019-12-12"
      },
      "ResponseBody": []
    },
    {
      "RequestUri": "https://amandadev2.blob.core.windows.net/test-container-4b99b0f3-4914-ad8e-3253-58da487f3faa?restype=container",
      "RequestMethod": "DELETE",
      "RequestHeaders": {
        "Authorization": "Sanitized",
        "traceparent": "00-10e04a05d1dcfe44a347b727838ab8b4-3eea91fcb55ae340-00",
        "User-Agent": [
          "azsdk-net-Storage.Blobs/12.5.0-dev.20200803.1",
          "(.NET Core 4.6.29017.01; Microsoft Windows 10.0.18363 )"
        ],
        "x-ms-client-request-id": "8b809e82-07f6-fe6d-fe49-5bcebe2e459c",
        "x-ms-date": "Mon, 03 Aug 2020 17:53:50 GMT",
        "x-ms-return-client-request-id": "true",
        "x-ms-version": "2019-12-12"
      },
      "RequestBody": null,
      "StatusCode": 202,
      "ResponseHeaders": {
        "Content-Length": "0",
        "Date": "Mon, 03 Aug 2020 17:53:49 GMT",
        "Server": [
          "Windows-Azure-Blob/1.0",
          "Microsoft-HTTPAPI/2.0"
        ],
        "x-ms-client-request-id": "8b809e82-07f6-fe6d-fe49-5bcebe2e459c",
        "x-ms-request-id": "50e55d07-c01e-0000-40bf-69921b000000",
        "x-ms-version": "2019-12-12"
      },
      "ResponseBody": []
    },
    {
      "RequestUri": "https://amandadev2.blob.core.windows.net/test-container-bb2e8bcd-4a50-5f09-3c88-36da0da9a822?restype=container",
      "RequestMethod": "PUT",
      "RequestHeaders": {
        "Authorization": "Sanitized",
        "traceparent": "00-6f6f9e1e92cd094cbe13dd7a7f784bb8-3031f369e44b1c4a-00",
        "User-Agent": [
          "azsdk-net-Storage.Blobs/12.5.0-dev.20200803.1",
          "(.NET Core 4.6.29017.01; Microsoft Windows 10.0.18363 )"
        ],
        "x-ms-client-request-id": "abcfa8b3-7534-377b-9421-4e6dd093f154",
        "x-ms-date": "Mon, 03 Aug 2020 17:53:50 GMT",
        "x-ms-return-client-request-id": "true",
        "x-ms-version": "2019-12-12"
      },
      "RequestBody": null,
      "StatusCode": 201,
      "ResponseHeaders": {
        "Content-Length": "0",
        "Date": "Mon, 03 Aug 2020 17:53:49 GMT",
        "ETag": "\u00220x8D837D62DDC7F76\u0022",
        "Last-Modified": "Mon, 03 Aug 2020 17:53:50 GMT",
        "Server": [
          "Windows-Azure-Blob/1.0",
          "Microsoft-HTTPAPI/2.0"
        ],
        "x-ms-client-request-id": "abcfa8b3-7534-377b-9421-4e6dd093f154",
        "x-ms-request-id": "5d566855-a01e-0010-32bf-69a4fd000000",
        "x-ms-version": "2019-12-12"
      },
      "ResponseBody": []
    },
    {
      "RequestUri": "https://amandadev2.blob.core.windows.net/test-container-bb2e8bcd-4a50-5f09-3c88-36da0da9a822?comp=lease\u0026restype=container",
      "RequestMethod": "PUT",
      "RequestHeaders": {
        "Authorization": "Sanitized",
        "traceparent": "00-7a2bff7e6fe91a41a7411bebac757735-d9376ae1c6ce264d-00",
        "User-Agent": [
          "azsdk-net-Storage.Blobs/12.5.0-dev.20200803.1",
          "(.NET Core 4.6.29017.01; Microsoft Windows 10.0.18363 )"
        ],
        "x-ms-client-request-id": "a57b8c6b-7e4b-f7be-26d1-9b25670a8f78",
        "x-ms-date": "Mon, 03 Aug 2020 17:53:50 GMT",
        "x-ms-lease-action": "acquire",
        "x-ms-lease-duration": "-1",
        "x-ms-proposed-lease-id": "6dedfcd9-7fc2-54c5-717b-7a0ee8be5a1c",
        "x-ms-return-client-request-id": "true",
        "x-ms-version": "2019-12-12"
      },
      "RequestBody": null,
      "StatusCode": 201,
      "ResponseHeaders": {
        "Content-Length": "0",
        "Date": "Mon, 03 Aug 2020 17:53:49 GMT",
        "ETag": "\u00220x8D837D62DDC7F76\u0022",
        "Last-Modified": "Mon, 03 Aug 2020 17:53:50 GMT",
        "Server": [
          "Windows-Azure-Blob/1.0",
          "Microsoft-HTTPAPI/2.0"
        ],
        "x-ms-client-request-id": "a57b8c6b-7e4b-f7be-26d1-9b25670a8f78",
        "x-ms-lease-id": "6dedfcd9-7fc2-54c5-717b-7a0ee8be5a1c",
        "x-ms-request-id": "5d566880-a01e-0010-54bf-69a4fd000000",
        "x-ms-version": "2019-12-12"
      },
      "ResponseBody": []
    },
    {
      "RequestUri": "https://amandadev2.blob.core.windows.net/test-container-bb2e8bcd-4a50-5f09-3c88-36da0da9a822?restype=container\u0026comp=acl",
      "RequestMethod": "PUT",
      "RequestHeaders": {
        "Authorization": "Sanitized",
        "Content-Length": "249",
        "Content-Type": "application/xml",
        "traceparent": "00-3e4377c306667f4590f772c95ae3b6dc-e0b28a119c888e46-00",
        "User-Agent": [
          "azsdk-net-Storage.Blobs/12.5.0-dev.20200803.1",
          "(.NET Core 4.6.29017.01; Microsoft Windows 10.0.18363 )"
        ],
        "x-ms-blob-public-access": "container",
        "x-ms-client-request-id": "5ca2b928-b542-94d1-2fb8-a0b026e5ea51",
        "x-ms-date": "Mon, 03 Aug 2020 17:53:50 GMT",
        "x-ms-lease-id": "6dedfcd9-7fc2-54c5-717b-7a0ee8be5a1c",
        "x-ms-return-client-request-id": "true",
        "x-ms-version": "2019-12-12"
      },
      "RequestBody": "\u003CSignedIdentifiers\u003E\u003CSignedIdentifier\u003E\u003CId\u003Epaeuravcjnhmwshcdtmr\u003C/Id\u003E\u003CAccessPolicy\u003E\u003CStart\u003E2020-08-03T16:53:49.4699924Z\u003C/Start\u003E\u003CExpiry\u003E2020-08-03T18:53:49.4699924Z\u003C/Expiry\u003E\u003CPermission\u003Erw\u003C/Permission\u003E\u003C/AccessPolicy\u003E\u003C/SignedIdentifier\u003E\u003C/SignedIdentifiers\u003E",
      "StatusCode": 200,
      "ResponseHeaders": {
        "Content-Length": "0",
        "Date": "Mon, 03 Aug 2020 17:53:49 GMT",
        "ETag": "\u00220x8D837D62DEDACF6\u0022",
        "Last-Modified": "Mon, 03 Aug 2020 17:53:50 GMT",
        "Server": [
          "Windows-Azure-Blob/1.0",
          "Microsoft-HTTPAPI/2.0"
        ],
        "x-ms-client-request-id": "5ca2b928-b542-94d1-2fb8-a0b026e5ea51",
        "x-ms-request-id": "5d5668a7-a01e-0010-76bf-69a4fd000000",
        "x-ms-version": "2019-12-12"
      },
      "ResponseBody": []
    },
    {
      "RequestUri": "https://amandadev2.blob.core.windows.net/test-container-bb2e8bcd-4a50-5f09-3c88-36da0da9a822?restype=container",
      "RequestMethod": "DELETE",
      "RequestHeaders": {
        "Authorization": "Sanitized",
        "traceparent": "00-9dc7f818d98ebf4394a656cb7bd2d500-2ee0a2c906ceba47-00",
        "User-Agent": [
          "azsdk-net-Storage.Blobs/12.5.0-dev.20200803.1",
          "(.NET Core 4.6.29017.01; Microsoft Windows 10.0.18363 )"
        ],
        "x-ms-client-request-id": "aefd3c94-3267-fd35-1b94-fda6c032ef0c",
        "x-ms-date": "Mon, 03 Aug 2020 17:53:50 GMT",
        "x-ms-lease-id": "6dedfcd9-7fc2-54c5-717b-7a0ee8be5a1c",
        "x-ms-return-client-request-id": "true",
        "x-ms-version": "2019-12-12"
      },
      "RequestBody": null,
      "StatusCode": 202,
      "ResponseHeaders": {
        "Content-Length": "0",
        "Date": "Mon, 03 Aug 2020 17:53:49 GMT",
        "Server": [
          "Windows-Azure-Blob/1.0",
          "Microsoft-HTTPAPI/2.0"
        ],
        "x-ms-client-request-id": "aefd3c94-3267-fd35-1b94-fda6c032ef0c",
        "x-ms-request-id": "5d5668d0-a01e-0010-1bbf-69a4fd000000",
        "x-ms-version": "2019-12-12"
      },
      "ResponseBody": []
    }
  ],
  "Variables": {
    "DateTimeOffsetNow": "2020-08-03T10:53:49.4699924-07:00",
    "RandomSeed": "545615882",
    "Storage_TestConfigDefault": "ProductionTenant\namandadev2\nU2FuaXRpemVk\nhttps://amandadev2.blob.core.windows.net\nhttps://amandadev2.file.core.windows.net\nhttps://amandadev2.queue.core.windows.net\nhttps://amandadev2.table.core.windows.net\n\n\n\n\nhttps://amandadev2-secondary.blob.core.windows.net\nhttps://amandadev2-secondary.file.core.windows.net\nhttps://amandadev2-secondary.queue.core.windows.net\nhttps://amandadev2-secondary.table.core.windows.net\n\nSanitized\n\n\nCloud\nBlobEndpoint=https://amandadev2.blob.core.windows.net/;QueueEndpoint=https://amandadev2.queue.core.windows.net/;FileEndpoint=https://amandadev2.file.core.windows.net/;BlobSecondaryEndpoint=https://amandadev2-secondary.blob.core.windows.net/;QueueSecondaryEndpoint=https://amandadev2-secondary.queue.core.windows.net/;FileSecondaryEndpoint=https://amandadev2-secondary.file.core.windows.net/;AccountName=amandadev2;AccountKey=Kg==;\n"
  }
}