{
  "Entries": [
    {
      "RequestUri": "https://seanmccprodca.blob.core.windows.net/test-container-0ea2e431-13a9-11b4-16f5-f3f13c19bc26?restype=container",
      "RequestMethod": "PUT",
      "RequestHeaders": {
        "Authorization": "Sanitized",
        "traceparent": "00-728833a212284942a675028144cba131-76e597a3dfe7414f-00",
        "User-Agent": [
          "azsdk-net-Storage.Blobs/12.5.0-dev.20200728.1",
          "(.NET Core 4.6.29017.01; Microsoft Windows 10.0.18362 )"
        ],
        "x-ms-blob-public-access": "container",
        "x-ms-client-request-id": "fd31221c-500d-0f7c-92e5-6b8596a56e95",
        "x-ms-date": "Tue, 28 Jul 2020 16:43:54 GMT",
        "x-ms-return-client-request-id": "true",
        "x-ms-version": "2019-12-12"
      },
      "RequestBody": null,
      "StatusCode": 201,
      "ResponseHeaders": {
        "Content-Length": "0",
        "Date": "Tue, 28 Jul 2020 16:43:54 GMT",
        "ETag": "\u00220x8D833156AC8995A\u0022",
        "Last-Modified": "Tue, 28 Jul 2020 16:43:55 GMT",
        "Server": [
          "Windows-Azure-Blob/1.0",
          "Microsoft-HTTPAPI/2.0"
        ],
        "x-ms-client-request-id": "fd31221c-500d-0f7c-92e5-6b8596a56e95",
        "x-ms-request-id": "5b778446-201e-0039-2ffe-646a9e000000",
        "x-ms-version": "2019-12-12"
      },
      "ResponseBody": []
    },
    {
      "RequestUri": "https://seanmccprodca.blob.core.windows.net/test-container-0ea2e431-13a9-11b4-16f5-f3f13c19bc26/test-blob-cbc99f93-da2e-c1b0-0dfd-c20c06da04de",
      "RequestMethod": "PUT",
      "RequestHeaders": {
        "Authorization": "Sanitized",
        "Content-Length": "0",
        "traceparent": "00-75122a65a4f60045bac7b1cc8c58bfdf-e60b87b7f1e92147-00",
        "User-Agent": [
          "azsdk-net-Storage.Blobs/12.5.0-dev.20200728.1",
          "(.NET Core 4.6.29017.01; Microsoft Windows 10.0.18362 )"
        ],
        "x-ms-blob-content-length": "4096",
        "x-ms-blob-sequence-number": "0",
        "x-ms-blob-type": "PageBlob",
        "x-ms-client-request-id": "6d45772d-196f-41f7-7270-ef108e6f09b8",
        "x-ms-date": "Tue, 28 Jul 2020 16:43:54 GMT",
        "x-ms-return-client-request-id": "true",
        "x-ms-version": "2019-12-12"
      },
      "RequestBody": null,
      "StatusCode": 201,
      "ResponseHeaders": {
        "Content-Length": "0",
        "Date": "Tue, 28 Jul 2020 16:43:54 GMT",
        "ETag": "\u00220x8D833156AD1E364\u0022",
        "Last-Modified": "Tue, 28 Jul 2020 16:43:55 GMT",
        "Server": [
          "Windows-Azure-Blob/1.0",
          "Microsoft-HTTPAPI/2.0"
        ],
        "x-ms-client-request-id": "6d45772d-196f-41f7-7270-ef108e6f09b8",
        "x-ms-request-id": "5b778465-201e-0039-48fe-646a9e000000",
        "x-ms-request-server-encrypted": "true",
        "x-ms-version": "2019-12-12",
        "x-ms-version-id": "2020-07-28T16:43:55.2395108Z"
      },
      "ResponseBody": []
    },
    {
      "RequestUri": "https://seanmccprodca.blob.core.windows.net/test-container-0ea2e431-13a9-11b4-16f5-f3f13c19bc26/test-blob-cbc99f93-da2e-c1b0-0dfd-c20c06da04de?comp=page",
      "RequestMethod": "PUT",
      "RequestHeaders": {
        "Authorization": "Sanitized",
        "Content-Length": "0",
        "traceparent": "00-eb88d1472102294686964690b8f98e83-57e2032323da6e4d-00",
        "User-Agent": [
          "azsdk-net-Storage.Blobs/12.5.0-dev.20200728.1",
          "(.NET Core 4.6.29017.01; Microsoft Windows 10.0.18362 )"
        ],
        "x-ms-client-request-id": "8edf1bee-9694-f76e-d693-a778cf077b4d",
        "x-ms-date": "Tue, 28 Jul 2020 16:43:54 GMT",
        "x-ms-if-tags": "\u0022coolTag\u0022 = \u0027true\u0027",
        "x-ms-page-write": "clear",
        "x-ms-range": "bytes=0-1023",
        "x-ms-return-client-request-id": "true",
        "x-ms-version": "2019-12-12"
      },
      "RequestBody": null,
      "StatusCode": 412,
      "ResponseHeaders": {
        "Content-Length": "252",
        "Content-Type": "application/xml",
        "Date": "Tue, 28 Jul 2020 16:43:54 GMT",
        "Server": [
          "Windows-Azure-Blob/1.0",
          "Microsoft-HTTPAPI/2.0"
        ],
        "x-ms-client-request-id": "8edf1bee-9694-f76e-d693-a778cf077b4d",
        "x-ms-error-code": "ConditionNotMet",
        "x-ms-request-id": "5b778488-201e-0039-68fe-646a9e000000",
        "x-ms-version": "2019-12-12"
      },
      "ResponseBody": [
        "\uFEFF\u003C?xml version=\u00221.0\u0022 encoding=\u0022utf-8\u0022?\u003E\u003CError\u003E\u003CCode\u003EConditionNotMet\u003C/Code\u003E\u003CMessage\u003EThe condition specified using HTTP conditional header(s) is not met.\n",
        "RequestId:5b778488-201e-0039-68fe-646a9e000000\n",
        "Time:2020-07-28T16:43:55.3107262Z\u003C/Message\u003E\u003C/Error\u003E"
      ]
    },
    {
      "RequestUri": "https://seanmccprodca.blob.core.windows.net/test-container-0ea2e431-13a9-11b4-16f5-f3f13c19bc26?restype=container",
      "RequestMethod": "DELETE",
      "RequestHeaders": {
        "Authorization": "Sanitized",
        "traceparent": "00-b1b81705e55ad54c90586232cd389025-ac2b1bcceb40484b-00",
        "User-Agent": [
          "azsdk-net-Storage.Blobs/12.5.0-dev.20200728.1",
          "(.NET Core 4.6.29017.01; Microsoft Windows 10.0.18362 )"
        ],
        "x-ms-client-request-id": "722234b4-7a90-4a23-1e7d-f13cac34057e",
        "x-ms-date": "Tue, 28 Jul 2020 16:43:54 GMT",
        "x-ms-return-client-request-id": "true",
        "x-ms-version": "2019-12-12"
      },
      "RequestBody": null,
      "StatusCode": 202,
      "ResponseHeaders": {
        "Content-Length": "0",
        "Date": "Tue, 28 Jul 2020 16:43:54 GMT",
        "Server": [
          "Windows-Azure-Blob/1.0",
          "Microsoft-HTTPAPI/2.0"
        ],
        "x-ms-client-request-id": "722234b4-7a90-4a23-1e7d-f13cac34057e",
        "x-ms-request-id": "5b7784a3-201e-0039-7efe-646a9e000000",
        "x-ms-version": "2019-12-12"
      },
      "ResponseBody": []
    }
  ],
  "Variables": {
    "RandomSeed": "941528448",
    "Storage_TestConfigDefault": "ProductionTenant\nseanmccprodca\nU2FuaXRpemVk\nhttps://seanmccprodca.blob.core.windows.net\nhttps://seanmccprodca.file.core.windows.net\nhttps://seanmccprodca.queue.core.windows.net\nhttps://seanmccprodca.table.core.windows.net\n\n\n\n\nhttps://seanmccprodca-secondary.blob.core.windows.net\nhttps://seanmccprodca-secondary.file.core.windows.net\nhttps://seanmccprodca-secondary.queue.core.windows.net\nhttps://seanmccprodca-secondary.table.core.windows.net\n\nSanitized\n\n\nCloud\nBlobEndpoint=https://seanmccprodca.blob.core.windows.net/;QueueEndpoint=https://seanmccprodca.queue.core.windows.net/;FileEndpoint=https://seanmccprodca.file.core.windows.net/;BlobSecondaryEndpoint=https://seanmccprodca-secondary.blob.core.windows.net/;QueueSecondaryEndpoint=https://seanmccprodca-secondary.queue.core.windows.net/;FileSecondaryEndpoint=https://seanmccprodca-secondary.file.core.windows.net/;AccountName=seanmccprodca;AccountKey=Kg==;\nseanscope1"
  }
}