{
  "Entries": [
    {
      "RequestUri": "https://seandevtest.blob.core.windows.net/test-container-75e8b2f2-1069-d462-0b9e-b2a57b1e442f?restype=container",
      "RequestMethod": "PUT",
      "RequestHeaders": {
        "Authorization": "Sanitized",
        "traceparent": "00-181ab7c9818ee646a3dd612b6846650c-8c18aa3296a68845-00",
        "User-Agent": [
          "azsdk-net-Storage.Blobs/12.5.0-dev.20200709.1",
          "(.NET Core 4.6.28801.04; Microsoft Windows 10.0.18362 )"
        ],
        "x-ms-blob-public-access": "container",
        "x-ms-client-request-id": "c32ef131-93fb-6e47-acf6-1920eb8a3e00",
        "x-ms-date": "Thu, 09 Jul 2020 16:14:14 GMT",
        "x-ms-return-client-request-id": "true",
        "x-ms-version": "2019-12-12"
      },
      "RequestBody": null,
      "StatusCode": 201,
      "ResponseHeaders": {
        "Content-Length": "0",
        "Date": "Thu, 09 Jul 2020 16:14:13 GMT",
        "ETag": "\u00220x8D824231FA05C04\u0022",
        "Last-Modified": "Thu, 09 Jul 2020 16:14:14 GMT",
        "Server": [
          "Windows-Azure-Blob/1.0",
          "Microsoft-HTTPAPI/2.0"
        ],
        "x-ms-client-request-id": "c32ef131-93fb-6e47-acf6-1920eb8a3e00",
        "x-ms-request-id": "91632bf9-401e-000c-610b-56e4fb000000",
        "x-ms-version": "2019-12-12"
      },
      "ResponseBody": []
    },
    {
      "RequestUri": "https://seandevtest.blob.core.windows.net/test-container-75e8b2f2-1069-d462-0b9e-b2a57b1e442f/test-blob-fc9d1753-3505-6fb8-e63b-6a582e81ce76",
      "RequestMethod": "PUT",
      "RequestHeaders": {
        "Authorization": "Sanitized",
        "Content-Length": "1024",
        "traceparent": "00-e44be52b2588064c91daf23289f61208-efe5f334fa9c1a4b-00",
        "User-Agent": [
          "azsdk-net-Storage.Blobs/12.5.0-dev.20200709.1",
          "(.NET Core 4.6.28801.04; Microsoft Windows 10.0.18362 )"
        ],
        "x-ms-blob-type": "BlockBlob",
        "x-ms-client-request-id": "1c553138-1941-9267-c4bb-63b064890d80",
        "x-ms-date": "Thu, 09 Jul 2020 16:14:14 GMT",
        "x-ms-return-client-request-id": "true",
        "x-ms-version": "2019-12-12"
      },
      "RequestBody": "W6Mmu\u002Bhf8lcM\u002BY4FOBsUt7eZdInwgTQMwy7FH4GFA1wl1\u002BscLSwx0f/XtgEEQjaQ4mJpUhW1ENpuGfi6mdLWh/Ux32Ew\u002BIqKZ6KKGMozB4D3ND0fHLFHcMYQrRM0dzgtAC8L02LUYOnX3upyK/cQOxJ3wmSUt2pE6m\u002BaIEp3Vu9qXBebJzQdItRURz7G1ETO/3IAvbXTmUnEx\u002BjzOkCfYIf6CM7gdRTdWZ\u002BQQG8sfRYqzCDYdpk6lsPO1mBMKuiTtOa2zMt27opeI2MVQ1nZmEnSyW0gx\u002Bruv3ILEp6zkS\u002B2/IuJdrFKtN6VeVI1JFNq9D4WemB7c\u002B38xwxZa9zsqpI0X0bNUCGXhxWPik2XuJsfoB1gnBbOO4mdja6l8EkBqc/AAcUMnKMcf/JL6\u002BigZA9xOsq\u002BjA17ZiO8MMNz8pfMjeF91rfVEgN6Qx0kg1Cg/CifNLV\u002BQx3CRZuhT2zfqYxbf10HI41XmyjGREjvVuLTGzOb1L7hTUrEu5EcNMKXmpmRyQPymdmaR5iNuP/U0u64zTM4RNXOeTETQmf7O2dmLqmuXo3f4YJZAIwlVJVL7\u002BijZGaOXlbEw0/S3lZxngwxJ4lVJnRg2eyx3kRIqCWcyFN/WNcA189T6po\u002BDAIr52GA8y0L9clzQop53IARexopNRYD8kY0MU\u002B5AjvZIczphvfiyLX4kNOJDBVMh/pPQW6AFdfsJ/UbS8LdUvKNmSG\u002Bj1aIL7JlMaVDeeYw6KpVacHNWQz0/V4Bxn3zGj7g/HL0jfejxhK7G\u002BMxqK0P62IYiOgxwEAUyZH3h2g1cRdnYn1zO1qysaKvET0pw1Sw8tsa2pFVrzwy4MNlrD\u002BphqnMykYwnK8IZddFgq4C6wY8RpSMGpeFEbJBQFuWTQViBYuUXfgOgFYsEnW6EC2OMPS9KGWrHWsSRrmU71tTcRfS4nwibY4OLsY\u002BXwchywGEsw9n2SWgt\u002BgfgRc/eZH62aFe5y2xa8Jmr/mebb1j8Xq3DztM65fyMiuUA\u002Bx3zrQ0Q4Vmw\u002BPT00dMACorAUoqu5Cch2lVru0Ja7UCHGjW7\u002BBEaik3/S2W5Dz0/\u002BttxjHgakdb2kZK35WYXVcu0bbfdRFJ5pch8r5iBqMtYa4CnKSEIbIgexSZ\u002BoqTn5/WaBKFFInZI\u002BCZv3eI\u002BNSjHX3nlcCyqa8Evvr8r\u002BwMjVMejJ6Qp0wlKHjE6mI7l4NA9twMrAnfI75jgVWP3XPzjTEkams2EnUxwW1I7r5MySZ3vLgP/\u002BFJP2nfLSb2lUsE0F0xFi0XCuRn2\u002BqcljX/F7gvGCC65I5P2ioCVuVPOiwhQx1hG7L5X7HUqCP3rKg03xVtx30qSezO4TsCFbT\u002BF6G\u002Bew==",
      "StatusCode": 201,
      "ResponseHeaders": {
        "Content-Length": "0",
        "Content-MD5": "hDzeciVed6RStdU7VTbavA==",
        "Date": "Thu, 09 Jul 2020 16:14:14 GMT",
        "ETag": "\u00220x8D824231FAC6C21\u0022",
        "Last-Modified": "Thu, 09 Jul 2020 16:14:14 GMT",
        "Server": [
          "Windows-Azure-Blob/1.0",
          "Microsoft-HTTPAPI/2.0"
        ],
        "x-ms-client-request-id": "1c553138-1941-9267-c4bb-63b064890d80",
        "x-ms-content-crc64": "LIhxqGSb7nM=",
        "x-ms-request-id": "91632c58-401e-000c-380b-56e4fb000000",
        "x-ms-request-server-encrypted": "true",
        "x-ms-version": "2019-12-12"
      },
      "ResponseBody": []
    },
    {
      "RequestUri": "https://seandevtest.blob.core.windows.net/test-container-75e8b2f2-1069-d462-0b9e-b2a57b1e442f/test-blob-fc9d1753-3505-6fb8-e63b-6a582e81ce76",
      "RequestMethod": "GET",
      "RequestHeaders": {
        "Authorization": "Sanitized",
        "If-Modified-Since": "Fri, 10 Jul 2020 16:14:14 GMT",
        "User-Agent": [
          "azsdk-net-Storage.Blobs/12.5.0-dev.20200709.1",
          "(.NET Core 4.6.28801.04; Microsoft Windows 10.0.18362 )"
        ],
        "x-ms-client-request-id": "fc1fe8aa-b12c-b534-79e0-e93b96802eb0",
        "x-ms-date": "Thu, 09 Jul 2020 16:14:14 GMT",
        "x-ms-range": "bytes=0-255",
        "x-ms-return-client-request-id": "true",
        "x-ms-version": "2019-12-12"
      },
      "RequestBody": null,
      "StatusCode": 304,
      "ResponseHeaders": {
        "Content-Length": "0",
        "Date": "Thu, 09 Jul 2020 16:14:14 GMT",
        "Server": [
          "Windows-Azure-Blob/1.0",
          "Microsoft-HTTPAPI/2.0"
        ],
        "x-ms-client-request-id": "fc1fe8aa-b12c-b534-79e0-e93b96802eb0",
        "x-ms-error-code": "ConditionNotMet",
        "x-ms-request-id": "91632ca4-401e-000c-010b-56e4fb000000",
        "x-ms-version": "2019-12-12"
      },
      "ResponseBody": []
    },
    {
      "RequestUri": "https://seandevtest.blob.core.windows.net/test-container-75e8b2f2-1069-d462-0b9e-b2a57b1e442f?restype=container",
      "RequestMethod": "DELETE",
      "RequestHeaders": {
        "Authorization": "Sanitized",
        "traceparent": "00-818a624561c3db47bb06cd8cc89e2cbb-b28ebce564eb494a-00",
        "User-Agent": [
          "azsdk-net-Storage.Blobs/12.5.0-dev.20200709.1",
          "(.NET Core 4.6.28801.04; Microsoft Windows 10.0.18362 )"
        ],
        "x-ms-client-request-id": "7c065249-1069-9654-0879-bd4e2649c365",
        "x-ms-date": "Thu, 09 Jul 2020 16:14:14 GMT",
        "x-ms-return-client-request-id": "true",
        "x-ms-version": "2019-12-12"
      },
      "RequestBody": null,
      "StatusCode": 202,
      "ResponseHeaders": {
        "Content-Length": "0",
        "Date": "Thu, 09 Jul 2020 16:14:14 GMT",
        "Server": [
          "Windows-Azure-Blob/1.0",
          "Microsoft-HTTPAPI/2.0"
        ],
        "x-ms-client-request-id": "7c065249-1069-9654-0879-bd4e2649c365",
        "x-ms-request-id": "91632cf4-401e-000c-4b0b-56e4fb000000",
        "x-ms-version": "2019-12-12"
      },
      "ResponseBody": []
    },
    {
      "RequestUri": "https://seandevtest.blob.core.windows.net/test-container-c82612dc-b16c-506a-94f6-50307afd5ea0?restype=container",
      "RequestMethod": "PUT",
      "RequestHeaders": {
        "Authorization": "Sanitized",
        "traceparent": "00-2ea7d7b026d29642b2165ab026cc51e5-a2b227def0e9c54f-00",
        "User-Agent": [
          "azsdk-net-Storage.Blobs/12.5.0-dev.20200709.1",
          "(.NET Core 4.6.28801.04; Microsoft Windows 10.0.18362 )"
        ],
        "x-ms-blob-public-access": "container",
        "x-ms-client-request-id": "445ad139-8bb2-97e9-e8b5-e772c0241b0a",
        "x-ms-date": "Thu, 09 Jul 2020 16:14:14 GMT",
        "x-ms-return-client-request-id": "true",
        "x-ms-version": "2019-12-12"
      },
      "RequestBody": null,
      "StatusCode": 201,
      "ResponseHeaders": {
        "Content-Length": "0",
        "Date": "Thu, 09 Jul 2020 16:14:14 GMT",
        "ETag": "\u00220x8D824231FEF2874\u0022",
        "Last-Modified": "Thu, 09 Jul 2020 16:14:15 GMT",
        "Server": [
          "Windows-Azure-Blob/1.0",
          "Microsoft-HTTPAPI/2.0"
        ],
        "x-ms-client-request-id": "445ad139-8bb2-97e9-e8b5-e772c0241b0a",
        "x-ms-request-id": "7757237f-201e-0017-5b0b-56ca69000000",
        "x-ms-version": "2019-12-12"
      },
      "ResponseBody": []
    },
    {
      "RequestUri": "https://seandevtest.blob.core.windows.net/test-container-c82612dc-b16c-506a-94f6-50307afd5ea0/test-blob-2b46f704-c520-597d-0fb4-aa04430c0d87",
      "RequestMethod": "PUT",
      "RequestHeaders": {
        "Authorization": "Sanitized",
        "Content-Length": "1024",
        "traceparent": "00-f937a3fac2fce24581f9d4f2dbdd3194-7811c46f3147d342-00",
        "User-Agent": [
          "azsdk-net-Storage.Blobs/12.5.0-dev.20200709.1",
          "(.NET Core 4.6.28801.04; Microsoft Windows 10.0.18362 )"
        ],
        "x-ms-blob-type": "BlockBlob",
        "x-ms-client-request-id": "df5988f3-a822-d2ef-8041-fa77bab11930",
        "x-ms-date": "Thu, 09 Jul 2020 16:14:14 GMT",
        "x-ms-return-client-request-id": "true",
        "x-ms-version": "2019-12-12"
      },
      "RequestBody": "GxzBkld/6yrLzab/\u002Bj6zj/Tt9qmjGu4BqlpbxcrTl/1QrBCAQ28LueUweOTl6ZyqAVd\u002B0i1yZwEtwOj8JCZf9zaor00tMkyE4j3Dc6EJG8C\u002BscNyVcXQ3kUPU4KHDpS/0ICuPTpOfM4L\u002BvDwr/RfI6QnPnNi7KJw2NAIHd/J/NSoA6IgW96GbzT1Z1rV4C5Qry/dYM8hXeTePWRpRl/uQv4bR6xRP8jGoM8/bYVHm/eit22w65wEh6a\u002BQh55HSnUBiRcuZiC/3BnF78A4u9elqFtx47xPldhF8AFkv2pTIOmamdg6\u002BJfH7j9SdPdBKS2X6t8DFab48jM\u002BqLYfGxzvco8WneI/aq\u002BDafV9PSEhBIbTzJRLUAtCoeflPBAhqJLiYwIoaktLmEAvf6uxe7TSHaPvC05IpCKDk/w6Wm6focEiWpoe\u002BNo7iDQUG9BfkWYy0t6scl1Emf7fZJaPUX4Rj93qTuDasyTJs4MaNEhSZAKVx0dQM29j3cDbf5RDrHb2AkvytUJFWF\u002B54r7aKmW2jQBUOUn2gZyuhnEgP3OQRgdMJDH8X\u002B6AEG7n1lCwSbObZLJT73Ls/4DvQ\u002B7RJVksKVy3TcZzum0Rk\u002BkbDutL/jz9hNqBPJaUn2RxDRv/7ysVu6z0OPutZ6pFAhuJkfDVo4Xx06B\u002BauzGIu6hwm0RUeT9xVM\u002BV8UBEF0we/p6ys1zm6lVzdtKl1DALdYNC2V9M/B2i8xdl0uA8MNDTi7ySxghLmbD\u002B0PJcy4Cfinu9AT38wgKBD8A1cRd1R0Xx0khzeK\u002BK90\u002BeXisbRieW1khkfz\u002Bi5rm6EbY4FhipeYm8avk4HBHcMgnuXnPnZcmYrqrPANgGXuueyVbpQuE25NSRbusuXrommD0ltIg10qv8r2d96nixpgwdqVK64v8ot2mvRfbeak/gmGia0KpTWPa67KN5yQpb77jvELVne7VODP0uloy1LjUnjUIQFtVRulBcD/Zbvv5fQ2Y971maeSyzXNO9NLJ59c5uUjvIS8jjnWZlG2u\u002B8k3\u002Bz1MWd07rjRQlbMnxlIWd4go37WzClwedWlHjNW2w9FqFzmVvU46PgsUnou8O8gjQxylhhwThPDhLeRz8\u002BFemZGhva9YQLo6LuGqXmvQYnmhJAm40X31FpII9E9phgoptcU52n4YiwKia1d6qWZFEMuq0o\u002BX5YgT7GcdD0wqkGiXgKimlkf7SJkHFqXmeq1rg\u002BOD/rO6UdA85i4XO3u2d5su4yi93npDr4n2kI8iLXH58YuoptG03S7YafBZ5E0dUJ7Kt5eEraWpQA8pw8EBGrj8HQnwDdDJucX55bRKKcs8mT/wF3WaNQPl/2aCSxktlw93XYcDbQLOA==",
      "StatusCode": 201,
      "ResponseHeaders": {
        "Content-Length": "0",
        "Content-MD5": "loFSmzfH2kdHTBkLGrRydQ==",
        "Date": "Thu, 09 Jul 2020 16:14:14 GMT",
        "ETag": "\u00220x8D824231FFB5DB5\u0022",
        "Last-Modified": "Thu, 09 Jul 2020 16:14:15 GMT",
        "Server": [
          "Windows-Azure-Blob/1.0",
          "Microsoft-HTTPAPI/2.0"
        ],
        "x-ms-client-request-id": "df5988f3-a822-d2ef-8041-fa77bab11930",
        "x-ms-content-crc64": "shtkyhevteE=",
        "x-ms-request-id": "775723e2-201e-0017-330b-56ca69000000",
        "x-ms-request-server-encrypted": "true",
        "x-ms-version": "2019-12-12"
      },
      "ResponseBody": []
    },
    {
      "RequestUri": "https://seandevtest.blob.core.windows.net/test-container-c82612dc-b16c-506a-94f6-50307afd5ea0/test-blob-2b46f704-c520-597d-0fb4-aa04430c0d87",
      "RequestMethod": "GET",
      "RequestHeaders": {
        "Authorization": "Sanitized",
        "If-Unmodified-Since": "Wed, 08 Jul 2020 16:14:14 GMT",
        "User-Agent": [
          "azsdk-net-Storage.Blobs/12.5.0-dev.20200709.1",
          "(.NET Core 4.6.28801.04; Microsoft Windows 10.0.18362 )"
        ],
        "x-ms-client-request-id": "ba10facf-2db3-f765-2856-b9672143f97f",
        "x-ms-date": "Thu, 09 Jul 2020 16:14:15 GMT",
        "x-ms-range": "bytes=0-255",
        "x-ms-return-client-request-id": "true",
        "x-ms-version": "2019-12-12"
      },
      "RequestBody": null,
      "StatusCode": 412,
      "ResponseHeaders": {
        "Content-Length": "252",
        "Content-Type": "application/xml",
        "Date": "Thu, 09 Jul 2020 16:14:14 GMT",
        "Server": [
          "Windows-Azure-Blob/1.0",
          "Microsoft-HTTPAPI/2.0"
        ],
        "x-ms-client-request-id": "ba10facf-2db3-f765-2856-b9672143f97f",
        "x-ms-error-code": "ConditionNotMet",
        "x-ms-request-id": "77572447-201e-0017-100b-56ca69000000",
        "x-ms-version": "2019-12-12"
      },
      "ResponseBody": [
        "\uFEFF\u003C?xml version=\u00221.0\u0022 encoding=\u0022utf-8\u0022?\u003E\u003CError\u003E\u003CCode\u003EConditionNotMet\u003C/Code\u003E\u003CMessage\u003EThe condition specified using HTTP conditional header(s) is not met.\n",
        "RequestId:77572447-201e-0017-100b-56ca69000000\n",
        "Time:2020-07-09T16:14:15.2708730Z\u003C/Message\u003E\u003C/Error\u003E"
      ]
    },
    {
      "RequestUri": "https://seandevtest.blob.core.windows.net/test-container-c82612dc-b16c-506a-94f6-50307afd5ea0?restype=container",
      "RequestMethod": "DELETE",
      "RequestHeaders": {
        "Authorization": "Sanitized",
        "traceparent": "00-777d00580877f649b4130a1149c5e596-80982ac60efc8242-00",
        "User-Agent": [
          "azsdk-net-Storage.Blobs/12.5.0-dev.20200709.1",
          "(.NET Core 4.6.28801.04; Microsoft Windows 10.0.18362 )"
        ],
        "x-ms-client-request-id": "bfa8fa18-5ea0-a27d-8985-cc341728c6f7",
        "x-ms-date": "Thu, 09 Jul 2020 16:14:15 GMT",
        "x-ms-return-client-request-id": "true",
        "x-ms-version": "2019-12-12"
      },
      "RequestBody": null,
      "StatusCode": 202,
      "ResponseHeaders": {
        "Content-Length": "0",
        "Date": "Thu, 09 Jul 2020 16:14:14 GMT",
        "Server": [
          "Windows-Azure-Blob/1.0",
          "Microsoft-HTTPAPI/2.0"
        ],
        "x-ms-client-request-id": "bfa8fa18-5ea0-a27d-8985-cc341728c6f7",
        "x-ms-request-id": "775724b0-201e-0017-710b-56ca69000000",
        "x-ms-version": "2019-12-12"
      },
      "ResponseBody": []
    },
    {
      "RequestUri": "https://seandevtest.blob.core.windows.net/test-container-cdc67b9a-e6b8-df6b-d5ee-c1428ad64920?restype=container",
      "RequestMethod": "PUT",
      "RequestHeaders": {
        "Authorization": "Sanitized",
        "traceparent": "00-15803d911b4f0e4a99de66ce26d415db-9b64c043156f5045-00",
        "User-Agent": [
          "azsdk-net-Storage.Blobs/12.5.0-dev.20200709.1",
          "(.NET Core 4.6.28801.04; Microsoft Windows 10.0.18362 )"
        ],
        "x-ms-blob-public-access": "container",
        "x-ms-client-request-id": "33f4abaa-d442-3194-8ec9-e9b19d3a18b2",
        "x-ms-date": "Thu, 09 Jul 2020 16:14:15 GMT",
        "x-ms-return-client-request-id": "true",
        "x-ms-version": "2019-12-12"
      },
      "RequestBody": null,
      "StatusCode": 201,
      "ResponseHeaders": {
        "Content-Length": "0",
        "Date": "Thu, 09 Jul 2020 16:14:15 GMT",
        "ETag": "\u00220x8D82423203F11B9\u0022",
        "Last-Modified": "Thu, 09 Jul 2020 16:14:15 GMT",
        "Server": [
          "Windows-Azure-Blob/1.0",
          "Microsoft-HTTPAPI/2.0"
        ],
        "x-ms-client-request-id": "33f4abaa-d442-3194-8ec9-e9b19d3a18b2",
        "x-ms-request-id": "018f5b77-401e-0043-7e0b-5620e3000000",
        "x-ms-version": "2019-12-12"
      },
      "ResponseBody": []
    },
    {
      "RequestUri": "https://seandevtest.blob.core.windows.net/test-container-cdc67b9a-e6b8-df6b-d5ee-c1428ad64920/test-blob-8cb88c68-7302-2963-719d-6288508a6026",
      "RequestMethod": "PUT",
      "RequestHeaders": {
        "Authorization": "Sanitized",
        "Content-Length": "1024",
        "traceparent": "00-4fc65b14aabbc84085487f22b6ec2588-75949f1fb801f947-00",
        "User-Agent": [
          "azsdk-net-Storage.Blobs/12.5.0-dev.20200709.1",
          "(.NET Core 4.6.28801.04; Microsoft Windows 10.0.18362 )"
        ],
        "x-ms-blob-type": "BlockBlob",
        "x-ms-client-request-id": "9d2d5dd5-5cee-16f6-febf-f036096a31df",
        "x-ms-date": "Thu, 09 Jul 2020 16:14:15 GMT",
        "x-ms-return-client-request-id": "true",
        "x-ms-version": "2019-12-12"
      },
      "RequestBody": "O6x/q9mfXWCbBObiLl285eTwmN7iFt7g2B2Y0U8uJKu9BdJ2cF73Ck6Tlz7tsgMxDATMrKI60CXOn9O8BosRbd87JCmKRnWG\u002BI2PT36f8iUaZsRLYXcIgzWtqNGLOwPCgilesY3apsaORrQVqoGmLqytop/GxQxnM6Hz3Z6j\u002Br2JzMxVQUCYQMD\u002BvBvD89i0Bnkl3Zhj/Lwd9n7s5sgo60v2i920Ue1rFWLfyAjwpD/IP9ckfh0kJdAPN0rCq1n31tHPzGf6/7WLucg2hDO0LFI/JKfxA2wu0WYMpBmjqWkI5/I3IdfYzT8hmMVV7qCdWwr4goeyBdJkofsA7Vub6A9eLZxBfQt6ZlZnz2qn2ePFb0gOqybiVuIf0n/c19/jhq\u002B19sAEXN7/fRwwSjVnvcgYO34SjD3pe9e6IaqMno92hEm78uIiwRNqDy0KsQusuBS2xJxh0Plyy3rpSTszct6MucbsrMvm9XprqH0Q38rMDmiW1drzFbNQSSZnOXfYNpxOffdEwAtI0M4h9Sh7YeywHTvSnJ0EmaQTm2OlfrwDk3LgwWHSh05dTQQL0R\u002BL1Oc5thw7BZn/SuNTMSSoo1ISHmK1m6CL3pXtdU\u002BY\u002BMiEh8Z8a8efx43Y4XZ\u002BflUptKqy\u002BbO91TlGrtiGTpBKZlIbz6leLDeKclbV3bkqDF9Aw8Ck5f8Ux7KMNb3uGXn8jXskYq\u002Bry4hyKIZd5/eAHKF5RYrPpYBTBgj30fZ5m1nc2U89Baqwlfg4Mr14t9\u002B6DBkcddPvLOj60Vums/qR\u002BYwtgA6oQhb3yLCSl3PD2k8oPMXdXSWF7axnQzNOCeH\u002BpjkwSzbREskCJKwiXJR0N/YMfXc1tJtmp5NhQP/jqL/PlPA6ko8ZVyr72zl4YpAX8gs9QotpyfKdyaOib9HKH3vtU8ikOqVn8yZNOdli7UQDSk7zpWYzZcr\u002BnMjrduhYMLu9iw/Hc7dm1U5lHI8ZO9tfniSD1nkVuu39pZ7ce3w99QkdpGI0PNeWjdAYzUg75WDsjNfD1FpCqNAhyc4ZiVrRJyeG\u002B5d4KmJN7Eip/Oylwr898O6leiCv2/ySE3MIfQR1RqYhterJc2J0degRmavjfAcO3JlrLK0H1yCa5hbvRG9EM7ZGgwzVc3yMMAQ4nUFRrpZr\u002BqBrCRr4Gt7JLo1LhTF4zGX0nPj6OGgc3/uozjneSTeAg0rO2CmcTWkuC0TuQKvTv9HcXBKeccI4TioeUEul6\u002BVVywLnqfM8WE6PyywjLp9Q1Q5nAu0l4hGHlor/ff0diCBfmHWp7BbdnwTDDqWVFCCKzno8Pen4MOnwXxNpPNpRcUIMxJUpp\u002Bn4imLoYtNr8oFqdK\u002BC4Es2Zg==",
      "StatusCode": 201,
      "ResponseHeaders": {
        "Content-Length": "0",
        "Content-MD5": "AoGYPO/wmWaZJ5Lh32/BNw==",
        "Date": "Thu, 09 Jul 2020 16:14:15 GMT",
        "ETag": "\u00220x8D82423204B12C3\u0022",
        "Last-Modified": "Thu, 09 Jul 2020 16:14:15 GMT",
        "Server": [
          "Windows-Azure-Blob/1.0",
          "Microsoft-HTTPAPI/2.0"
        ],
        "x-ms-client-request-id": "9d2d5dd5-5cee-16f6-febf-f036096a31df",
        "x-ms-content-crc64": "wKJgCrRVInA=",
        "x-ms-request-id": "018f5bec-401e-0043-6e0b-5620e3000000",
        "x-ms-request-server-encrypted": "true",
        "x-ms-version": "2019-12-12"
      },
      "ResponseBody": []
    },
    {
      "RequestUri": "https://seandevtest.blob.core.windows.net/test-container-cdc67b9a-e6b8-df6b-d5ee-c1428ad64920/test-blob-8cb88c68-7302-2963-719d-6288508a6026",
      "RequestMethod": "GET",
      "RequestHeaders": {
        "Authorization": "Sanitized",
        "If-Match": "\u0022garbage\u0022",
        "User-Agent": [
          "azsdk-net-Storage.Blobs/12.5.0-dev.20200709.1",
          "(.NET Core 4.6.28801.04; Microsoft Windows 10.0.18362 )"
        ],
        "x-ms-client-request-id": "f2b36b0c-c35d-3437-4d9c-884fdedf7b02",
        "x-ms-date": "Thu, 09 Jul 2020 16:14:15 GMT",
        "x-ms-range": "bytes=0-255",
        "x-ms-return-client-request-id": "true",
        "x-ms-version": "2019-12-12"
      },
      "RequestBody": null,
      "StatusCode": 412,
      "ResponseHeaders": {
        "Content-Length": "252",
        "Content-Type": "application/xml",
        "Date": "Thu, 09 Jul 2020 16:14:15 GMT",
        "Server": [
          "Windows-Azure-Blob/1.0",
          "Microsoft-HTTPAPI/2.0"
        ],
        "x-ms-client-request-id": "f2b36b0c-c35d-3437-4d9c-884fdedf7b02",
        "x-ms-error-code": "ConditionNotMet",
        "x-ms-request-id": "018f5c68-401e-0043-650b-5620e3000000",
        "x-ms-version": "2019-12-12"
      },
      "ResponseBody": [
        "\uFEFF\u003C?xml version=\u00221.0\u0022 encoding=\u0022utf-8\u0022?\u003E\u003CError\u003E\u003CCode\u003EConditionNotMet\u003C/Code\u003E\u003CMessage\u003EThe condition specified using HTTP conditional header(s) is not met.\n",
        "RequestId:018f5c68-401e-0043-650b-5620e3000000\n",
        "Time:2020-07-09T16:14:15.7915778Z\u003C/Message\u003E\u003C/Error\u003E"
      ]
    },
    {
      "RequestUri": "https://seandevtest.blob.core.windows.net/test-container-cdc67b9a-e6b8-df6b-d5ee-c1428ad64920?restype=container",
      "RequestMethod": "DELETE",
      "RequestHeaders": {
        "Authorization": "Sanitized",
        "traceparent": "00-a1839017baa64c41a3347643e46d1fd0-18b9f3e44744de4b-00",
        "User-Agent": [
          "azsdk-net-Storage.Blobs/12.5.0-dev.20200709.1",
          "(.NET Core 4.6.28801.04; Microsoft Windows 10.0.18362 )"
        ],
        "x-ms-client-request-id": "9d294cc0-3eb7-5081-51bc-4efc2707ba97",
        "x-ms-date": "Thu, 09 Jul 2020 16:14:15 GMT",
        "x-ms-return-client-request-id": "true",
        "x-ms-version": "2019-12-12"
      },
      "RequestBody": null,
      "StatusCode": 202,
      "ResponseHeaders": {
        "Content-Length": "0",
        "Date": "Thu, 09 Jul 2020 16:14:15 GMT",
        "Server": [
          "Windows-Azure-Blob/1.0",
          "Microsoft-HTTPAPI/2.0"
        ],
        "x-ms-client-request-id": "9d294cc0-3eb7-5081-51bc-4efc2707ba97",
        "x-ms-request-id": "018f5cf1-401e-0043-610b-5620e3000000",
        "x-ms-version": "2019-12-12"
      },
      "ResponseBody": []
    },
    {
      "RequestUri": "https://seandevtest.blob.core.windows.net/test-container-55111eb8-5ce7-19c6-0c8d-ecc99b7df8c9?restype=container",
      "RequestMethod": "PUT",
      "RequestHeaders": {
        "Authorization": "Sanitized",
        "traceparent": "00-7d3bcab849ee444c8cbccb429cb27578-d82ff2734779434b-00",
        "User-Agent": [
          "azsdk-net-Storage.Blobs/12.5.0-dev.20200709.1",
          "(.NET Core 4.6.28801.04; Microsoft Windows 10.0.18362 )"
        ],
        "x-ms-blob-public-access": "container",
        "x-ms-client-request-id": "1d018fd8-4b73-647b-860f-902952b8b4d4",
        "x-ms-date": "Thu, 09 Jul 2020 16:14:15 GMT",
        "x-ms-return-client-request-id": "true",
        "x-ms-version": "2019-12-12"
      },
      "RequestBody": null,
      "StatusCode": 201,
      "ResponseHeaders": {
        "Content-Length": "0",
        "Date": "Thu, 09 Jul 2020 16:14:15 GMT",
        "ETag": "\u00220x8D82423208FB780\u0022",
        "Last-Modified": "Thu, 09 Jul 2020 16:14:16 GMT",
        "Server": [
          "Windows-Azure-Blob/1.0",
          "Microsoft-HTTPAPI/2.0"
        ],
        "x-ms-client-request-id": "1d018fd8-4b73-647b-860f-902952b8b4d4",
        "x-ms-request-id": "d39c1e8c-e01e-0028-350b-567db5000000",
        "x-ms-version": "2019-12-12"
      },
      "ResponseBody": []
    },
    {
      "RequestUri": "https://seandevtest.blob.core.windows.net/test-container-55111eb8-5ce7-19c6-0c8d-ecc99b7df8c9/test-blob-4c5727d7-54e2-b9e3-e915-52528b11a0dd",
      "RequestMethod": "PUT",
      "RequestHeaders": {
        "Authorization": "Sanitized",
        "Content-Length": "1024",
        "traceparent": "00-ebb02882494521479f0bf186d1d1be07-125789b7eba6b24a-00",
        "User-Agent": [
          "azsdk-net-Storage.Blobs/12.5.0-dev.20200709.1",
          "(.NET Core 4.6.28801.04; Microsoft Windows 10.0.18362 )"
        ],
        "x-ms-blob-type": "BlockBlob",
        "x-ms-client-request-id": "efad4018-0c19-f541-45fa-1e9c06f89a87",
        "x-ms-date": "Thu, 09 Jul 2020 16:14:16 GMT",
        "x-ms-return-client-request-id": "true",
        "x-ms-version": "2019-12-12"
      },
      "RequestBody": "w4UBAngp4NvS8LiFDKZ0qo7u8Ax72lWuqSsLpkwhzuWtfFweYPyFr68mSoKT9lffm\u002BabY8eoWOgwUlhNHTqOsSLT149KVUmSaUFcVJDTG7PTKwtmhmsdBCNz7g2jOJJ0mJlgwB/HlUWcCPqGSwNYXDekevEuKCu2tdJs12c87jCv6Lz2cluUC5bGyX1wl7ggGpHW/r2gRm9uqQpMW73dYBrJ12NGYurbEG5aaF6tRh0ZS73VZe9yDqJMiMlRR6/Z6Ghjp8BV2ben\u002Bu5PRd0RwGPsMw8ACPsqVsjB\u002Bdogisi\u002BgX/1Sp5dxHIFLWoBI8jEO8dmZBSg2OBtOFD4k9/dh3AlkMNeG3XEj2\u002Bd\u002B9qQKDL//b4Suia0HqmehxFNZTCTKKb63JMFZiBRodWkAt0G3Q8e\u002BJYhys1KcHEav5Njdik\u002BCtIzlUyf\u002BpaewBhQDxzLmKoCL2yacV3ZsGsi6qeM7SqrZvgK0kfDf/7/ggm0\u002BWBVTibpYUe9pJh1WuXgfA/vEtPtpakjwcViPrBtmu9TJLcLzZuAoovj7sFglHhi4gLuD3A2x1S2MYxghiKXTwmpIjUu1a90b29HCrbowy1NAFyuf4p\u002BHF1iVJsOIBtpTJ63tnJCNA1SeqAB77ydzm1fEobG6dB\u002BKgXYy4AUZU5T3b4YMA26CsxPWwTqfCygxYUurg2VomLOOItsamiMPhVRrhH\u002BhZ5gpQi6d43LlK3YOAb75bZBvjtbSfeBTaBjwx3vmM4boT/nzQkE2ivVAqTdkzJikFhfD\u002B/Wozun31dnV7Rv3PzfvZbGExisPOMPhUZTo7luATLFj4jfRP4DQO6ynYN3Zian/tabnHxAstMLxh31Uzyd\u002BVWCqkxz/3iXwtMp\u002Bp9gmB8gq6Tj0mW1hd21037hDuyyFKQt9bvZM/5dBNmpFrczqy391aiXuSbwzCVvviz6trPnd\u002BX7MqNkRnelhs6LC28lgSdQ4zhEGlp9PSiWanXSYk0lwZ7ROHiKmY8w8jNYZMG2STwFqtJ6o12LffV6zdsB0yOAZUrQU0muxUmpEycnJdhn4CE4zLh7qh5ARrqDD8uzLh8Q1/925fXzVuSI0ZA2Y1gdE\u002B26yAZrBborkAyPK7V99eQHF03Y8PorRXXT8tmOCuJhZfze\u002BWUYpdJESlXoYyovC9urLkwKRCPzjoOQlxPhnYYpLca5n/t\u002B73F7lKWlQuJLpOf94tuWVyDZ62viiA2/YqzOvjZkdWvfLT/aj699TUugRfMr47uqk9al4LSQm2ZkvDL41oOr5i57HrScu8hxW50fQUIak37xJCtgv5W3T5LYdtJ9hHbI9V/FsMUHDtgNM4QWcVkkSiizB7JYSyaYxM4iw0T18w==",
      "StatusCode": 201,
      "ResponseHeaders": {
        "Content-Length": "0",
        "Content-MD5": "F0e3Wz980NzPS4Anacls9Q==",
        "Date": "Thu, 09 Jul 2020 16:14:15 GMT",
        "ETag": "\u00220x8D82423209B8B3E\u0022",
        "Last-Modified": "Thu, 09 Jul 2020 16:14:16 GMT",
        "Server": [
          "Windows-Azure-Blob/1.0",
          "Microsoft-HTTPAPI/2.0"
        ],
        "x-ms-client-request-id": "efad4018-0c19-f541-45fa-1e9c06f89a87",
        "x-ms-content-crc64": "gdULO3aIw9M=",
        "x-ms-request-id": "d39c1ee3-e01e-0028-020b-567db5000000",
        "x-ms-request-server-encrypted": "true",
        "x-ms-version": "2019-12-12"
      },
      "ResponseBody": []
    },
    {
      "RequestUri": "https://seandevtest.blob.core.windows.net/test-container-55111eb8-5ce7-19c6-0c8d-ecc99b7df8c9/test-blob-4c5727d7-54e2-b9e3-e915-52528b11a0dd",
      "RequestMethod": "HEAD",
      "RequestHeaders": {
        "Authorization": "Sanitized",
        "traceparent": "00-1d667e93f121bc48adc896d498ad7269-7a2ce5d9b84aae42-00",
        "User-Agent": [
          "azsdk-net-Storage.Blobs/12.5.0-dev.20200709.1",
          "(.NET Core 4.6.28801.04; Microsoft Windows 10.0.18362 )"
        ],
        "x-ms-client-request-id": "4b3abecb-b163-2bc3-7237-64d05e2769b1",
        "x-ms-date": "Thu, 09 Jul 2020 16:14:16 GMT",
        "x-ms-return-client-request-id": "true",
        "x-ms-version": "2019-12-12"
      },
      "RequestBody": null,
      "StatusCode": 200,
      "ResponseHeaders": {
        "Accept-Ranges": "bytes",
        "Content-Length": "0",
        "Content-MD5": "F0e3Wz980NzPS4Anacls9Q==",
        "Content-Type": "application/octet-stream",
        "Date": "Thu, 09 Jul 2020 16:14:15 GMT",
        "ETag": "\u00220x8D82423209B8B3E\u0022",
        "Last-Modified": "Thu, 09 Jul 2020 16:14:16 GMT",
        "Server": [
          "Windows-Azure-Blob/1.0",
          "Microsoft-HTTPAPI/2.0"
        ],
        "x-ms-access-tier": "Hot",
        "x-ms-access-tier-inferred": "true",
        "x-ms-blob-type": "BlockBlob",
        "x-ms-client-request-id": "4b3abecb-b163-2bc3-7237-64d05e2769b1",
        "x-ms-creation-time": "Thu, 09 Jul 2020 16:14:16 GMT",
        "x-ms-lease-state": "available",
        "x-ms-lease-status": "unlocked",
        "x-ms-request-id": "d39c1f46-e01e-0028-5e0b-567db5000000",
        "x-ms-server-encrypted": "true",
        "x-ms-version": "2019-12-12"
      },
      "ResponseBody": []
    },
    {
      "RequestUri": "https://seandevtest.blob.core.windows.net/test-container-55111eb8-5ce7-19c6-0c8d-ecc99b7df8c9/test-blob-4c5727d7-54e2-b9e3-e915-52528b11a0dd",
      "RequestMethod": "GET",
      "RequestHeaders": {
        "Authorization": "Sanitized",
        "If-None-Match": "\u00220x8D82423209B8B3E\u0022",
        "User-Agent": [
          "azsdk-net-Storage.Blobs/12.5.0-dev.20200709.1",
          "(.NET Core 4.6.28801.04; Microsoft Windows 10.0.18362 )"
        ],
        "x-ms-client-request-id": "48d11937-4fbe-7123-2dbd-9de0e658fb3b",
        "x-ms-date": "Thu, 09 Jul 2020 16:14:16 GMT",
        "x-ms-range": "bytes=0-255",
        "x-ms-return-client-request-id": "true",
        "x-ms-version": "2019-12-12"
      },
      "RequestBody": null,
      "StatusCode": 304,
      "ResponseHeaders": {
        "Content-Length": "0",
        "Date": "Thu, 09 Jul 2020 16:14:15 GMT",
        "Server": [
          "Windows-Azure-Blob/1.0",
          "Microsoft-HTTPAPI/2.0"
        ],
        "x-ms-client-request-id": "48d11937-4fbe-7123-2dbd-9de0e658fb3b",
        "x-ms-error-code": "ConditionNotMet",
        "x-ms-request-id": "d39c1f91-e01e-0028-250b-567db5000000",
        "x-ms-version": "2019-12-12"
      },
      "ResponseBody": []
    },
    {
      "RequestUri": "https://seandevtest.blob.core.windows.net/test-container-55111eb8-5ce7-19c6-0c8d-ecc99b7df8c9?restype=container",
      "RequestMethod": "DELETE",
      "RequestHeaders": {
        "Authorization": "Sanitized",
        "traceparent": "00-ccdaea199bc2ab4e9767ddedc37a155a-808de17a6fe3fc49-00",
        "User-Agent": [
          "azsdk-net-Storage.Blobs/12.5.0-dev.20200709.1",
          "(.NET Core 4.6.28801.04; Microsoft Windows 10.0.18362 )"
        ],
        "x-ms-client-request-id": "45981669-2056-4ef2-8256-d83d9d9be6bf",
        "x-ms-date": "Thu, 09 Jul 2020 16:14:16 GMT",
        "x-ms-return-client-request-id": "true",
        "x-ms-version": "2019-12-12"
      },
      "RequestBody": null,
      "StatusCode": 202,
      "ResponseHeaders": {
        "Content-Length": "0",
        "Date": "Thu, 09 Jul 2020 16:14:15 GMT",
        "Server": [
          "Windows-Azure-Blob/1.0",
          "Microsoft-HTTPAPI/2.0"
        ],
        "x-ms-client-request-id": "45981669-2056-4ef2-8256-d83d9d9be6bf",
        "x-ms-request-id": "d39c1fd6-e01e-0028-660b-567db5000000",
        "x-ms-version": "2019-12-12"
      },
      "ResponseBody": []
    },
    {
      "RequestUri": "https://seandevtest.blob.core.windows.net/test-container-78b35157-4b8c-7a1e-1041-06521c124c9b?restype=container",
      "RequestMethod": "PUT",
      "RequestHeaders": {
        "Authorization": "Sanitized",
        "traceparent": "00-589337d643112f4393dd8c538989a1ae-7c0435df3df2fa46-00",
        "User-Agent": [
          "azsdk-net-Storage.Blobs/12.5.0-dev.20200709.1",
          "(.NET Core 4.6.28801.04; Microsoft Windows 10.0.18362 )"
        ],
        "x-ms-blob-public-access": "container",
        "x-ms-client-request-id": "d4b87385-48de-1e4e-f71e-34141aa03270",
        "x-ms-date": "Thu, 09 Jul 2020 16:14:16 GMT",
        "x-ms-return-client-request-id": "true",
        "x-ms-version": "2019-12-12"
      },
      "RequestBody": null,
      "StatusCode": 201,
      "ResponseHeaders": {
        "Content-Length": "0",
        "Date": "Thu, 09 Jul 2020 16:14:16 GMT",
        "ETag": "\u00220x8D8242320EBB562\u0022",
        "Last-Modified": "Thu, 09 Jul 2020 16:14:16 GMT",
        "Server": [
          "Windows-Azure-Blob/1.0",
          "Microsoft-HTTPAPI/2.0"
        ],
        "x-ms-client-request-id": "d4b87385-48de-1e4e-f71e-34141aa03270",
        "x-ms-request-id": "32723762-a01e-006b-630b-56575c000000",
        "x-ms-version": "2019-12-12"
      },
      "ResponseBody": []
    },
    {
      "RequestUri": "https://seandevtest.blob.core.windows.net/test-container-78b35157-4b8c-7a1e-1041-06521c124c9b/test-blob-094803c9-5f16-8e7c-cd0c-9efedfe4f545",
      "RequestMethod": "PUT",
      "RequestHeaders": {
        "Authorization": "Sanitized",
        "Content-Length": "1024",
        "traceparent": "00-5fd982c313f5da4aa3fa73649768d5a9-1b4bc8c27db51c4b-00",
        "User-Agent": [
          "azsdk-net-Storage.Blobs/12.5.0-dev.20200709.1",
          "(.NET Core 4.6.28801.04; Microsoft Windows 10.0.18362 )"
        ],
        "x-ms-blob-type": "BlockBlob",
        "x-ms-client-request-id": "c28ce229-4f42-1a1e-986c-57e00173a750",
        "x-ms-date": "Thu, 09 Jul 2020 16:14:16 GMT",
        "x-ms-return-client-request-id": "true",
        "x-ms-version": "2019-12-12"
      },
      "RequestBody": "CT1B2yUWAKFrVXnPTEaWRU9gzKhZeLyzc1jXoYHQQ16Kjs6niRaAb3MXaInOf9Gxh\u002B/FutSKF5GAjWjMP14gmxIbRb1377s43100QhAz5fOGJhmRC4mK/3c9JvyttC8U9sx3szoTOpgzjNp3VdSATah0RRhFjpCJkUVGOci/iystIEtDvDK5c\u002BuAXn6uEqqivdlTOW4Wz2g87iH0zQDQdAGvSjSJPJB2utItxDAR2n6ao3zua1G9FlHiB80QxaXrsOl9/8h1GIBJ3X6b6Qo4KxOjWSmE4giv8TTjpzXDZvUsQhNGlNu2JIr8pY7TIixGqty6bWt8Z83gzQ2UknFKhXeIbqf28ZY47DWehz163M8HnfxZCPmKsNpGZcbNIpIZsh8XS7OET7hFgYA13t\u002BQZvE9jPR08H19/b7MsIzPasqihdUeY5Acg05EFIZ4VdL7tf/Vj5WdpMGhmU31t54sdRe1k1gKcgNgIQmmMNv2BKjs0fuM\u002Bts0BeETfMlDJ8uvGJ9vw8F58UP7dG2M9nPlq5SlCOajn3o8gI139vU5Hfo99xg8h0Hmct\u002B3kYZtqA5tLdA1nh7kDHgkM0IzAfpNwVZzTv9bqCRSvpYG6w70z9h/CskkBH/cWOqfGFP\u002BsnHlas8v\u002BlkOEoSs4t\u002BI3iBqMGRqtPYxKL3XlvUUu5DQUwskIYA\u002BxNV\u002BcPhEeCKfVHrJNejvlP56s0ESV2Nj\u002BVf0247TY7ygK2uO60P\u002B7LCaOEF7S4Wo4L8NqW0/LG1xGnehUJyUy/G9KQl8YKi6e8aRdx8i6K7RTPvPxrlPYP7\u002BHdHMXZwTBmxQvSF7K38WUi2mrbVNTzHI0AShxQU3bsgLfkPX7h4pfnGz0SuNVSB7uHOMqLNJsc6fA42YckFmGU5YcK08P2QPfS5EmX0GO3rjJQySq8YVwcx0N\u002BqQkQwvTLjdNeRzPngPfCuEBRdQmcgStUw01G6IQ6/gxwd5fusiFEzFKAWWcOaTgi6bkLy1JJ0iftvA\u002B3hJVPE1kndxlv4/YvDKinDCfEVloFFA7LLyKqNpVgAPYhnUfNMTYd1vIuwwWy7L6pktXwKWW1onCWg/QmjUBz/9LwDX9g6crhpo9X1kD5GEJkAJPPf\u002BeQa\u002BrHJr1B90mxutMiwt9PSKkLDnLmXdwvnXuxsoyspH/7b5GUmcMdr781pht91kVjJLfqxGFkqh4ep4lBkDTNBRZTJ1NNuq7l/W7DsLewsbcmTp3EsdAelrVzhfI5zA96aJEFGr7yFWoZBNbykPlmXeXCK0GXCFNGRICtyjSsrCFfSVgWq6b4NDkju7z5G/XMHSgcZ5DN41BNztY\u002BVEs1bFilk1ehX6JOyfcYc1yWTSiK0b0Q==",
      "StatusCode": 201,
      "ResponseHeaders": {
        "Content-Length": "0",
        "Content-MD5": "kJxJI9CbjX1QXg/BRslRPQ==",
        "Date": "Thu, 09 Jul 2020 16:14:16 GMT",
        "ETag": "\u00220x8D8242320F83AEE\u0022",
        "Last-Modified": "Thu, 09 Jul 2020 16:14:16 GMT",
        "Server": [
          "Windows-Azure-Blob/1.0",
          "Microsoft-HTTPAPI/2.0"
        ],
        "x-ms-client-request-id": "c28ce229-4f42-1a1e-986c-57e00173a750",
        "x-ms-content-crc64": "Bw5AluLoIWA=",
        "x-ms-request-id": "327237a2-a01e-006b-1e0b-56575c000000",
        "x-ms-request-server-encrypted": "true",
        "x-ms-version": "2019-12-12"
      },
      "ResponseBody": []
    },
    {
      "RequestUri": "https://seandevtest.blob.core.windows.net/test-container-78b35157-4b8c-7a1e-1041-06521c124c9b/test-blob-094803c9-5f16-8e7c-cd0c-9efedfe4f545",
      "RequestMethod": "GET",
      "RequestHeaders": {
        "Authorization": "Sanitized",
        "User-Agent": [
          "azsdk-net-Storage.Blobs/12.5.0-dev.20200709.1",
          "(.NET Core 4.6.28801.04; Microsoft Windows 10.0.18362 )"
        ],
        "x-ms-client-request-id": "fdd56632-3358-e802-6bc7-146b05f9d927",
        "x-ms-date": "Thu, 09 Jul 2020 16:14:16 GMT",
        "x-ms-lease-id": "24cb0e7f-9ebf-ba30-1fa0-d3c6c685d008",
        "x-ms-range": "bytes=0-255",
        "x-ms-return-client-request-id": "true",
        "x-ms-version": "2019-12-12"
      },
      "RequestBody": null,
      "StatusCode": 412,
      "ResponseHeaders": {
        "Content-Length": "241",
        "Content-Type": "application/xml",
        "Date": "Thu, 09 Jul 2020 16:14:16 GMT",
        "Server": [
          "Windows-Azure-Blob/1.0",
          "Microsoft-HTTPAPI/2.0"
        ],
        "x-ms-client-request-id": "fdd56632-3358-e802-6bc7-146b05f9d927",
        "x-ms-error-code": "LeaseNotPresentWithBlobOperation",
        "x-ms-request-id": "327237d2-a01e-006b-4a0b-56575c000000",
        "x-ms-version": "2019-12-12"
      },
      "ResponseBody": [
        "\uFEFF\u003C?xml version=\u00221.0\u0022 encoding=\u0022utf-8\u0022?\u003E\u003CError\u003E\u003CCode\u003ELeaseNotPresentWithBlobOperation\u003C/Code\u003E\u003CMessage\u003EThere is currently no lease on the blob.\n",
        "RequestId:327237d2-a01e-006b-4a0b-56575c000000\n",
        "Time:2020-07-09T16:14:16.9329882Z\u003C/Message\u003E\u003C/Error\u003E"
      ]
    },
    {
      "RequestUri": "https://seandevtest.blob.core.windows.net/test-container-78b35157-4b8c-7a1e-1041-06521c124c9b?restype=container",
      "RequestMethod": "DELETE",
      "RequestHeaders": {
        "Authorization": "Sanitized",
        "traceparent": "00-ff09ad6f34c5cf40a6599957cd41a596-39516d91cc25fc44-00",
        "User-Agent": [
          "azsdk-net-Storage.Blobs/12.5.0-dev.20200709.1",
          "(.NET Core 4.6.28801.04; Microsoft Windows 10.0.18362 )"
        ],
        "x-ms-client-request-id": "9aaea556-aa9e-a1f8-1cb2-93035b8e6730",
        "x-ms-date": "Thu, 09 Jul 2020 16:14:16 GMT",
        "x-ms-return-client-request-id": "true",
        "x-ms-version": "2019-12-12"
      },
      "RequestBody": null,
      "StatusCode": 202,
      "ResponseHeaders": {
        "Content-Length": "0",
        "Date": "Thu, 09 Jul 2020 16:14:16 GMT",
        "Server": [
          "Windows-Azure-Blob/1.0",
          "Microsoft-HTTPAPI/2.0"
        ],
        "x-ms-client-request-id": "9aaea556-aa9e-a1f8-1cb2-93035b8e6730",
        "x-ms-request-id": "32723803-a01e-006b-7a0b-56575c000000",
        "x-ms-version": "2019-12-12"
      },
      "ResponseBody": []
    }
  ],
  "Variables": {
    "DateTimeOffsetNow": "2020-07-09T11:14:14.1548111-05:00",
    "RandomSeed": "700844951",
    "Storage_TestConfigDefault": "ProductionTenant\nseandevtest\nU2FuaXRpemVk\nhttps://seandevtest.blob.core.windows.net\nhttps://seandevtest.file.core.windows.net\nhttps://seandevtest.queue.core.windows.net\nhttps://seandevtest.table.core.windows.net\n\n\n\n\nhttps://seandevtest-secondary.blob.core.windows.net\nhttps://seandevtest-secondary.file.core.windows.net\nhttps://seandevtest-secondary.queue.core.windows.net\nhttps://seandevtest-secondary.table.core.windows.net\n\nSanitized\n\n\nCloud\nBlobEndpoint=https://seandevtest.blob.core.windows.net/;QueueEndpoint=https://seandevtest.queue.core.windows.net/;FileEndpoint=https://seandevtest.file.core.windows.net/;BlobSecondaryEndpoint=https://seandevtest-secondary.blob.core.windows.net/;QueueSecondaryEndpoint=https://seandevtest-secondary.queue.core.windows.net/;FileSecondaryEndpoint=https://seandevtest-secondary.file.core.windows.net/;AccountName=seandevtest;AccountKey=Kg==;\nseanscope1"
  }
}