{
  "Entries": [
    {
      "RequestUri": "https://mariari-westus2-formrecognizer.cognitiveservices.azure.com/formrecognizer/v2.0/prebuilt/receipt/analyze?includeTextDetails=false",
      "RequestMethod": "POST",
      "RequestHeaders": {
        "Content-Length": "22",
        "Content-Type": "application/json",
        "Ocp-Apim-Subscription-Key": "Sanitized",
        "traceparent": "00-98e5dd422d09304d94317add8f66191c-cd74bcdd3798bc48-00",
        "User-Agent": [
          "azsdk-net-AI.FormRecognizer/3.0.0-dev.20200806.1",
          "(.NET Core 4.6.28516.03; Microsoft Windows 10.0.18363 )"
        ],
        "x-ms-client-request-id": "5e3c6d10400014d93a38898ecb2a996e",
        "x-ms-return-client-request-id": "true"
      },
      "RequestBody": {
        "source": "Sanitized"
      },
      "StatusCode": 202,
      "ResponseHeaders": {
        "apim-request-id": "78295f76-1708-4c3b-be08-7e910363b97d",
        "Content-Length": "0",
        "Date": "Fri, 07 Aug 2020 02:22:17 GMT",
        "Operation-Location": "https://mariari-westus2-formrecognizer.cognitiveservices.azure.com/formrecognizer/v2.0/prebuilt/receipt/analyzeResults/78295f76-1708-4c3b-be08-7e910363b97d",
        "Strict-Transport-Security": "max-age=31536000; includeSubDomains; preload",
        "X-Content-Type-Options": "nosniff",
        "x-envoy-upstream-service-time": "394"
      },
      "ResponseBody": []
    },
    {
      "RequestUri": "https://mariari-westus2-formrecognizer.cognitiveservices.azure.com/formrecognizer/v2.0/prebuilt/receipt/analyzeResults/78295f76-1708-4c3b-be08-7e910363b97d",
      "RequestMethod": "GET",
      "RequestHeaders": {
        "Ocp-Apim-Subscription-Key": "Sanitized",
        "User-Agent": [
          "azsdk-net-AI.FormRecognizer/3.0.0-dev.20200806.1",
          "(.NET Core 4.6.28516.03; Microsoft Windows 10.0.18363 )"
        ],
        "x-ms-client-request-id": "ff0fb5f312f35e52688d7699f8e4d9cd",
        "x-ms-return-client-request-id": "true"
      },
      "RequestBody": null,
      "StatusCode": 200,
      "ResponseHeaders": {
        "apim-request-id": "3327cb92-060f-4433-92e5-9efaf47a5ec9",
        "Content-Type": "application/json; charset=utf-8",
        "Date": "Fri, 07 Aug 2020 02:22:18 GMT",
        "Strict-Transport-Security": "max-age=31536000; includeSubDomains; preload",
        "Transfer-Encoding": "chunked",
        "X-Content-Type-Options": "nosniff",
        "x-envoy-upstream-service-time": "28"
      },
      "ResponseBody": {
        "status": "running",
        "createdDateTime": "2020-08-07T02:22:17Z",
        "lastUpdatedDateTime": "2020-08-07T02:22:18Z"
      }
    },
    {
      "RequestUri": "https://mariari-westus2-formrecognizer.cognitiveservices.azure.com/formrecognizer/v2.0/prebuilt/receipt/analyzeResults/78295f76-1708-4c3b-be08-7e910363b97d",
      "RequestMethod": "GET",
      "RequestHeaders": {
        "Ocp-Apim-Subscription-Key": "Sanitized",
        "User-Agent": [
          "azsdk-net-AI.FormRecognizer/3.0.0-dev.20200806.1",
          "(.NET Core 4.6.28516.03; Microsoft Windows 10.0.18363 )"
        ],
        "x-ms-client-request-id": "a837b09ba8e107fbc64b03cd2009029c",
        "x-ms-return-client-request-id": "true"
      },
      "RequestBody": null,
      "StatusCode": 200,
      "ResponseHeaders": {
        "apim-request-id": "0920b62c-ec25-4611-81cf-3ab0fd801fb5",
        "Content-Type": "application/json; charset=utf-8",
        "Date": "Fri, 07 Aug 2020 02:22:19 GMT",
        "Strict-Transport-Security": "max-age=31536000; includeSubDomains; preload",
        "Transfer-Encoding": "chunked",
        "X-Content-Type-Options": "nosniff",
        "x-envoy-upstream-service-time": "30"
      },
      "ResponseBody": {
        "status": "running",
        "createdDateTime": "2020-08-07T02:22:17Z",
        "lastUpdatedDateTime": "2020-08-07T02:22:18Z"
      }
    },
    {
      "RequestUri": "https://mariari-westus2-formrecognizer.cognitiveservices.azure.com/formrecognizer/v2.0/prebuilt/receipt/analyzeResults/78295f76-1708-4c3b-be08-7e910363b97d",
      "RequestMethod": "GET",
      "RequestHeaders": {
        "Ocp-Apim-Subscription-Key": "Sanitized",
        "User-Agent": [
          "azsdk-net-AI.FormRecognizer/3.0.0-dev.20200806.1",
          "(.NET Core 4.6.28516.03; Microsoft Windows 10.0.18363 )"
        ],
        "x-ms-client-request-id": "cded03ab8110fe081bdef673ca401b56",
        "x-ms-return-client-request-id": "true"
      },
      "RequestBody": null,
      "StatusCode": 200,
      "ResponseHeaders": {
        "apim-request-id": "c9adf672-99ab-459b-a086-4a4595032a37",
        "Content-Type": "application/json; charset=utf-8",
        "Date": "Fri, 07 Aug 2020 02:22:20 GMT",
        "Strict-Transport-Security": "max-age=31536000; includeSubDomains; preload",
        "Transfer-Encoding": "chunked",
        "X-Content-Type-Options": "nosniff",
        "x-envoy-upstream-service-time": "19"
      },
      "ResponseBody": {
        "status": "succeeded",
        "createdDateTime": "2020-08-07T02:22:17Z",
        "lastUpdatedDateTime": "2020-08-07T02:22:19Z",
        "analyzeResult": {
          "version": "2.0.0",
          "readResults": [
            {
              "page": 1,
              "angle": 0.2511,
              "width": 1688,
              "height": 3000,
              "unit": "pixel",
              "language": "en"
            }
          ],
          "documentResults": [
            {
              "docType": "prebuilt:receipt",
              "pageRange": [
                1,
                1
              ],
              "fields": {
                "ReceiptType": {
                  "type": "string",
                  "valueString": "Itemized",
                  "confidence": 0.663
                },
                "MerchantName": {
                  "type": "string",
                  "valueString": "Contoso Contoso",
                  "text": "Contoso Contoso",
                  "boundingBox": [
                    349.3,
                    241.3,
                    1058,
                    284.4,
                    1033.5,
                    687.1,
                    324.8,
                    644
                  ],
                  "page": 1,
                  "confidence": 0.516
                },
                "MerchantAddress": {
                  "type": "string",
                  "valueString": "123 Main Street Redmond, WA 98052",
                  "text": "123 Main Street Redmond, WA 98052",
                  "boundingBox": [
                    319.9,
                    689.9,
                    750.7,
                    697.5,
                    747.8,
                    865.6,
                    317,
                    858
                  ],
                  "page": 1,
                  "confidence": 0.987
                },
                "MerchantPhoneNumber": {
                  "type": "phoneNumber",
                  "text": "123-456-7890",
                  "boundingBox": [
                    306,
                    1005,
                    617,
                    1011,
                    615.9,
                    1070,
                    304.9,
                    1064
                  ],
                  "page": 1,
                  "confidence": 0.99
                },
                "TransactionDate": {
                  "type": "date",
                  "valueDate": "2019-06-10",
                  "text": "6/10/2019",
                  "boundingBox": [
                    303.2,
                    1223.5,
                    506,
                    1224,
                    505.8,
                    1289,
                    303,
                    1288.5
                  ],
                  "page": 1,
                  "confidence": 0.986
                },
                "TransactionTime": {
                  "type": "time",
                  "valueTime": "13:59:00",
                  "text": "13:59",
                  "boundingBox": [
                    518,
                    1225,
                    629,
                    1227,
                    627.9,
                    1291,
                    516.8,
                    1289
                  ],
                  "page": 1,
                  "confidence": 0.97
                },
                "Items": {
                  "type": "array",
                  "valueArray": [
                    {
                      "type": "object",
                      "valueObject": {
                        "Name": {
                          "type": "string",
                          "valueString": "8GB RAM (Black)",
                          "text": "8GB RAM (Black)",
                          "boundingBox": [
                            370.7,
                            1781.5,
                            731,
                            1785,
                            730.3,
                            1854,
                            370,
                            1850.6
                          ],
                          "page": 1,
                          "confidence": 0.916
                        },
                        "TotalPrice": {
                          "type": "number",
                          "valueNumber": 999,
                          "text": "$999.00",
                          "boundingBox": [
                            939,
                            1784.6,
                            1134.4,
                            1788.3,
                            1133,
                            1863,
                            937.6,
                            1859.3
                          ],
                          "page": 1,
                          "confidence": 0.559
                        }
                      }
                    },
                    {
                      "type": "object",
                      "valueObject": {
                        "Quantity": {
                          "type": "number",
                          "text": "1",
                          "boundingBox": [
                            320.8,
                            2020.5,
                            348,
                            2020,
                            349.2,
                            2084,
                            322,
                            2084.5
                          ],
                          "page": 1,
                          "confidence": 0.858
                        },
                        "Name": {
                          "type": "string",
                          "valueString": "SurfacePen",
                          "text": "SurfacePen",
                          "boundingBox": [
                            360,
                            2020,
                            626.6,
                            2014,
                            628,
                            2077,
                            361.4,
                            2083
                          ],
                          "page": 1,
                          "confidence": 0.858
                        },
                        "TotalPrice": {
                          "type": "number",
                          "valueNumber": 99.99,
                          "text": "99.99",
                          "boundingBox": [
                            1007,
                            2028,
                            1127,
                            2028,
                            1127,
                            2091,
                            1007,
                            2091
                          ],
                          "page": 1,
                          "confidence": 0.386
                        }
                      }
                    }
                  ]
                },
                "Subtotal": {
                  "type": "number",
                  "valueNumber": 1098.99,
                  "text": "1098.99",
                  "boundingBox": [
                    963,
                    2259.5,
                    1136,
                    2254,
                    1138.1,
                    2320,
                    965.1,
                    2325.5
                  ],
                  "page": 1,
                  "confidence": 0.965
                },
                "Tax": {
                  "type": "number",
                  "valueNumber": 104.4,
                  "text": "$104.40",
                  "boundingBox": [
                    942.6,
                    2367.5,
                    1132,
                    2363.7,
                    1133.4,
                    2434.2,
                    944,
                    2438
                  ],
                  "page": 1,
                  "confidence": 0.713
                },
                "Total": {
                  "type": "number",
                  "valueNumber": 1203.39,
                  "text": "1203.39",
                  "boundingBox": [
                    955,
                    2593.8,
                    1124,
                    2611,
                    1117.2,
                    2678.2,
                    948.2,
                    2661.1
                  ],
                  "page": 1,
                  "confidence": 0.774
                }
              }
            }
          ]
        }
      }
    }
  ],
  "Variables": {
    "FORM_RECOGNIZER_API_KEY": "Sanitized",
    "FORM_RECOGNIZER_ENDPOINT": "https://mariari-westus2-formrecognizer.cognitiveservices.azure.com/",
    "RandomSeed": "142911859"
  }
}