{
  "Entries": [
    {
      "RequestUri": "https://FakeHost.net/statistics/devices?api-version=2020-03-13",
      "RequestMethod": "GET",
      "RequestHeaders": {
        "Authorization": "Sanitized",
        "User-Agent": [
          "azsdk-net-Iot.Hub.Service/1.0.0-dev.20200819.1",
          "(.NET Core 4.6.28516.03; Microsoft Windows 10.0.18363 )"
        ],
        "x-ms-client-request-id": "bc279b23ff0d6f7b33c20faa29eda999",
        "x-ms-return-client-request-id": "true"
      },
      "RequestBody": null,
      "StatusCode": 200,
      "ResponseHeaders": {
        "Content-Length": "69",
        "Content-Type": "application/json; charset=utf-8",
        "Date": "Wed, 19 Aug 2020 21:11:03 GMT",
        "Server": "Microsoft-HTTPAPI/2.0",
        "Vary": "Origin",
        "x-ms-request-id": "e44737b6-483d-4876-aeb2-19210e7ff339"
      },
      "ResponseBody": {
        "totalDeviceCount": 0,
        "enabledDeviceCount": 0,
        "disabledDeviceCount": 0
      }
    }
  ],
  "Variables": {
    "IOT_HUB_CONNECTION_STRING": "HostName=FakeHost.net;SharedAccessKeyName=iothubowner;SharedAccessKey=Kg==",
    "RandomSeed": "1529393222"
  }
}