{
  "Entries": [
    {
      "RequestUri": "https://FakeHost.net/devices/QueryDevice939180715?api-version=2020-03-13",
      "RequestMethod": "PUT",
      "RequestHeaders": {
        "Authorization": "Sanitized",
        "Content-Length": "35",
        "Content-Type": "application/json",
        "If-Match": "\u0022\u0022",
        "User-Agent": [
          "azsdk-net-Iot.Hub.Service/1.0.0-dev.20200820.1",
          "(.NET Core 4.6.28516.03; Microsoft Windows 10.0.18363 )"
        ],
        "x-ms-client-request-id": "a728cf7c0806ea7f3bbdf268a6f40ecb",
        "x-ms-return-client-request-id": "true"
      },
      "RequestBody": {
        "deviceId": "QueryDevice939180715"
      },
      "StatusCode": 200,
      "ResponseHeaders": {
        "Content-Length": "552",
        "Content-Type": "application/json; charset=utf-8",
        "Date": "Thu, 20 Aug 2020 21:45:00 GMT",
        "ETag": "\u0022NjU1MDkzNTUy\u0022",
        "Server": "Microsoft-HTTPAPI/2.0",
        "Vary": "Origin",
        "x-ms-request-id": "2590980b-2983-498d-9529-13f95ecac9a8"
      },
      "ResponseBody": {
        "deviceId": "QueryDevice939180715",
        "generationId": "637335567013205128",
        "etag": "NjU1MDkzNTUy",
        "connectionState": "Disconnected",
        "status": "enabled",
        "statusReason": null,
        "connectionStateUpdatedTime": "0001-01-01T00:00:00",
        "statusUpdatedTime": "0001-01-01T00:00:00",
        "lastActivityTime": "0001-01-01T00:00:00",
        "cloudToDeviceMessageCount": 0,
        "authentication": {
          "symmetricKey": {
            "primaryKey": "Sanitized",
            "secondaryKey": "Sanitized"
          },
          "x509Thumbprint": {
            "primaryThumbprint": null,
            "secondaryThumbprint": null
          },
          "type": "sas"
        },
        "capabilities": {
          "iotEdge": false
        },
        "parentScopes": []
      }
    },
    {
      "RequestUri": "https://FakeHost.net/devices/QueryDevice939180715/modules/QueryModule1384101029?api-version=2020-03-13",
      "RequestMethod": "PUT",
      "RequestHeaders": {
        "Authorization": "Sanitized",
        "Content-Length": "70",
        "Content-Type": "application/json",
        "If-Match": "\u0022\u0022",
        "User-Agent": [
          "azsdk-net-Iot.Hub.Service/1.0.0-dev.20200820.1",
          "(.NET Core 4.6.28516.03; Microsoft Windows 10.0.18363 )"
        ],
        "x-ms-client-request-id": "ede7f421d4e065105d48191e1e0d89a5",
        "x-ms-return-client-request-id": "true"
      },
      "RequestBody": {
        "moduleId": "QueryModule1384101029",
        "deviceId": "QueryDevice939180715"
      },
      "StatusCode": 200,
      "ResponseHeaders": {
        "Content-Length": "472",
        "Content-Type": "application/json; charset=utf-8",
        "Date": "Thu, 20 Aug 2020 21:45:00 GMT",
        "Server": "Microsoft-HTTPAPI/2.0",
        "Vary": "Origin",
        "x-ms-request-id": "7889bab6-72bd-4313-b36a-d09a9c7e46e3"
      },
      "ResponseBody": {
        "moduleId": "QueryModule1384101029",
        "managedBy": null,
        "deviceId": "QueryDevice939180715",
        "generationId": "637335567013505227",
        "etag": "MzUxODc5NjU2",
        "connectionState": "Disconnected",
        "connectionStateUpdatedTime": "0001-01-01T00:00:00",
        "lastActivityTime": "0001-01-01T00:00:00",
        "cloudToDeviceMessageCount": 0,
        "authentication": {
          "symmetricKey": {
            "primaryKey": "Sanitized",
            "secondaryKey": "Sanitized"
          },
          "x509Thumbprint": {
            "primaryThumbprint": null,
            "secondaryThumbprint": null
          },
          "type": "sas"
        }
      }
    },
    {
      "RequestUri": "https://FakeHost.net/devices/query?api-version=2020-03-13",
      "RequestMethod": "POST",
      "RequestHeaders": {
        "Authorization": "Sanitized",
        "Content-Length": "82",
        "Content-Type": "application/json",
        "User-Agent": [
          "azsdk-net-Iot.Hub.Service/1.0.0-dev.20200820.1",
          "(.NET Core 4.6.28516.03; Microsoft Windows 10.0.18363 )"
        ],
        "x-ms-client-request-id": "ee2d10eeb60eb68440b2ef6c28af0f83",
        "x-ms-return-client-request-id": "true"
      },
      "RequestBody": "{\u0022query\u0022:\u0022SELECT * FROM devices.modules WHERE moduleId = \u0027QueryModule1384101029\u0027\u0022}",
      "StatusCode": 200,
      "ResponseHeaders": {
        "Content-Length": "2",
        "Content-Type": "application/json; charset=utf-8",
        "Date": "Thu, 20 Aug 2020 21:45:00 GMT",
        "Server": "Microsoft-HTTPAPI/2.0",
        "Vary": "Origin",
        "x-ms-item-type": "Twin",
        "x-ms-request-id": "46b012d1-4ffe-42e7-bf06-5bfd6081aadf"
      },
      "ResponseBody": "[]"
    },
    {
      "RequestUri": "https://FakeHost.net/devices/query?api-version=2020-03-13",
      "RequestMethod": "POST",
      "RequestHeaders": {
        "Authorization": "Sanitized",
        "Content-Length": "82",
        "Content-Type": "application/json",
        "User-Agent": [
          "azsdk-net-Iot.Hub.Service/1.0.0-dev.20200820.1",
          "(.NET Core 4.6.28516.03; Microsoft Windows 10.0.18363 )"
        ],
        "x-ms-client-request-id": "ee895314bd9aa8c5bfc249beee60cb2d",
        "x-ms-return-client-request-id": "true"
      },
      "RequestBody": "{\u0022query\u0022:\u0022SELECT * FROM devices.modules WHERE moduleId = \u0027QueryModule1384101029\u0027\u0022}",
      "StatusCode": 200,
      "ResponseHeaders": {
        "Content-Length": "601",
        "Content-Type": "application/json; charset=utf-8",
        "Date": "Thu, 20 Aug 2020 21:45:06 GMT",
        "Server": "Microsoft-HTTPAPI/2.0",
        "Vary": "Origin",
        "x-ms-item-type": "Twin",
        "x-ms-request-id": "8f922c4b-4986-4be7-89d3-b2b6eceda8dd"
      },
      "ResponseBody": "[{\u0022deviceId\u0022:\u0022QueryDevice939180715\u0022,\u0022moduleId\u0022:\u0022QueryModule1384101029\u0022,\u0022etag\u0022:\u0022AAAAAAAAAAE=\u0022,\u0022deviceEtag\u0022:\u0022MzUxODc5NjU2\u0022,\u0022status\u0022:\u0022enabled\u0022,\u0022statusUpdateTime\u0022:\u00220001-01-01T00:00:00Z\u0022,\u0022connectionState\u0022:\u0022Disconnected\u0022,\u0022lastActivityTime\u0022:\u00220001-01-01T00:00:00Z\u0022,\u0022cloudToDeviceMessageCount\u0022:0,\u0022authenticationType\u0022:\u0022sas\u0022,\u0022x509Thumbprint\u0022:{\u0022primaryThumbprint\u0022:null,\u0022secondaryThumbprint\u0022:null},\u0022version\u0022:2,\u0022properties\u0022:{\u0022desired\u0022:{\u0022$metadata\u0022:{\u0022$lastUpdated\u0022:\u00220001-01-01T00:00:00Z\u0022},\u0022$version\u0022:1},\u0022reported\u0022:{\u0022$metadata\u0022:{\u0022$lastUpdated\u0022:\u00220001-01-01T00:00:00Z\u0022},\u0022$version\u0022:1}},\u0022capabilities\u0022:{\u0022iotEdge\u0022:false}}]"
    },
    {
      "RequestUri": "https://FakeHost.net/devices/QueryDevice939180715?api-version=2020-03-13",
      "RequestMethod": "DELETE",
      "RequestHeaders": {
        "Authorization": "Sanitized",
        "If-Match": "*",
        "User-Agent": [
          "azsdk-net-Iot.Hub.Service/1.0.0-dev.20200820.1",
          "(.NET Core 4.6.28516.03; Microsoft Windows 10.0.18363 )"
        ],
        "x-ms-client-request-id": "96794c3320c66bbc6f31ad2ee4a33dae",
        "x-ms-return-client-request-id": "true"
      },
      "RequestBody": null,
      "StatusCode": 204,
      "ResponseHeaders": {
        "Content-Length": "0",
        "Date": "Thu, 20 Aug 2020 21:45:11 GMT",
        "Server": "Microsoft-HTTPAPI/2.0",
        "Vary": "Origin",
        "x-ms-request-id": "97f5aaa2-68ee-463b-b10e-67ee9dc1a7b1"
      },
      "ResponseBody": []
    }
  ],
  "Variables": {
    "IOT_HUB_CONNECTION_STRING": "HostName=FakeHost.net;SharedAccessKeyName=iothubowner;SharedAccessKey=Kg==",
    "RandomSeed": "1014759705"
  }
}